PAT,VIS,OPE,MES,VAL
P01,PRE,XG,R1,39.4245370979702
P02,PRE,XG,R1,44.5481339726744
P03,PRE,XG,R1,45.1030702752738
P04,PRE,XG,R1,32.4936753461827
P05,PRE,XG,R1,37.9515381993165
P06,PRE,XG,R1,40.0515841010778
P07,PRE,XG,R1,34.4530754210528
P08,PRE,XG,R1,39.5119489943475
P09,PRE,XG,R1,40.25314971766
P10,PRE,XG,R1,36.3089057864535
P11,PRE,XG,R1,37.4158366181414
P12,PRE,XG,R1,37.4656545404334
P13,PRE,XG,R1,46.2588582507956
P14,PRE,XG,R1,47.4657368526424
P15,PRE,XG,R1,43.462439457213
P16,PRE,XG,R1,35.635388233765
P17,PRE,XG,R1,53.7371205151848
P18,PRE,XG,R1,47.9679916044929
P19,PRE,XG,R1,30.3690007720432
P20,PRE,XG,R1,47.0419331881416
P21,PRE,XG,R1,44.9844043326654
P22,PRE,XG,R1,37.3570188933284
P23,PRE,XG,R1,33.9081664530109
P24,PRE,XG,R1,38.902771765122
P25,PRE,XG,R1,45.939359108119
P26,PRE,XG,R1,32.9566361974161
P27,PRE,XG,R1,47.8836544786367
P28,PRE,XG,R1,41.6861592312932
P01,P3M,XG,R1,42.2500213867284
P02,P3M,XG,R1,38.0120515549416
P03,P3M,XG,R1,42.9154292308585
P04,P3M,XG,R1,42.401732596344
P05,P3M,XG,R1,31.251491762073
P06,P3M,XG,R1,47.2697388223367
P07,P3M,XG,R1,43.2097603301125
P08,P3M,XG,R1,38.5310733590801
P09,P3M,XG,R1,46.2149073608141
P10,P3M,XG,R1,40.2576811848173
P11,P3M,XG,R1,41.2489203718926
P12,P3M,XG,R1,45.5510694630666
P13,P3M,XG,R1,48.6124746383112
P14,P3M,XG,R1,46.5377198947785
P15,P3M,XG,R1,45.6916933534838
P16,P3M,XG,R1,37.646291909019
P17,P3M,XG,R1,49.9921715017988
P18,P3M,XG,R1,39.565329496727
P19,P3M,XG,R1,34.2159259474681
P20,P3M,XG,R1,46.7421277916988
P21,P3M,XG,R1,38.5223166076439
P22,P3M,XG,R1,45.7966913648088
P23,P3M,XG,R1,38.8673120490904
P24,P3M,XG,R1,38.5176708303221
P25,P3M,XG,R1,50.0481514800805
P26,P3M,XG,R1,36.4856524491192
P27,P3M,XG,R1,51.5176351581385
P28,P3M,XG,R1,47.1839534396137
P01,PRE,XG,R2,40.6495667150805
P02,PRE,XG,R2,43.0454609495185
P03,PRE,XG,R2,43.0065975875646
P04,PRE,XG,R2,32.367502751885
P05,PRE,XG,R2,38.0271908750837
P06,PRE,XG,R2,46.4821591681259
P07,PRE,XG,R2,39.1984434248778
P08,PRE,XG,R2,41.6837279369673
P09,PRE,XG,R2,41.591116371248
P10,PRE,XG,R2,34.3240817521816
P11,PRE,XG,R2,39.18407939854
P12,PRE,XG,R2,37.6375828059238
P13,PRE,XG,R2,46.2695413419028
P14,PRE,XG,R2,44.3730246721619
P15,PRE,XG,R2,45.4372170743836
P16,PRE,XG,R2,36.2160826230006
P17,PRE,XG,R2,53.1139528158007
P18,PRE,XG,R2,48.2305906195581
P19,PRE,XG,R2,30.5930583350788
P20,PRE,XG,R2,48.5577657013851
P21,PRE,XG,R2,42.9037591018555
P22,PRE,XG,R2,33.9531810967367
P23,PRE,XG,R2,34.4801253789385
P24,PRE,XG,R2,39.6675919228337
P25,PRE,XG,R2,46.3563285072051
P26,PRE,XG,R2,34.0555783509782
P27,PRE,XG,R2,47.6482310184815
P28,PRE,XG,R2,42.6281113195559
P01,P3M,XG,R2,42.5713983504491
P02,P3M,XG,R2,37.8220346278823
P03,P3M,XG,R2,43.3170792231488
P04,P3M,XG,R2,43.0256686849393
P05,P3M,XG,R2,31.5155706614562
P06,P3M,XG,R2,47.0842934724009
P07,P3M,XG,R2,42.7697366876273
P08,P3M,XG,R2,35.421318604866
P09,P3M,XG,R2,45.9877956316152
P10,P3M,XG,R2,41.3619704695152
P11,P3M,XG,R2,41.1970368152089
P12,P3M,XG,R2,46.2427169691909
P13,P3M,XG,R2,49.1390311597441
P14,P3M,XG,R2,44.248378660378
P15,P3M,XG,R2,45.9053813928547
P16,P3M,XG,R2,37.4125151596187
P17,P3M,XG,R2,50.5523286170225
P18,P3M,XG,R2,41.0094070135779
P19,P3M,XG,R2,34.8091807468238
P20,P3M,XG,R2,47.0716988629233
P21,P3M,XG,R2,38.7200213509531
P22,P3M,XG,R2,45.682207743828
P23,P3M,XG,R2,39.6718074777895
P24,P3M,XG,R2,39.1568639785491
P25,P3M,XG,R2,50.0336517265543
P26,P3M,XG,R2,36.5026048712987
P27,P3M,XG,R2,51.011755784941
P28,P3M,XG,R2,47.4335635147853
P01,PRE,XG,R3,42.7512989815369
P02,PRE,XG,R3,43.8576453514381
P03,PRE,XG,R3,43.2437304061359
P04,PRE,XG,R3,32.9981216030955
P05,PRE,XG,R3,38.0651280427192
P06,PRE,XG,R3,42.9337572177204
P07,PRE,XG,R3,39.1598368491051
P08,PRE,XG,R3,41.1289076483482
P09,PRE,XG,R3,40.2411177811841
P10,PRE,XG,R3,35.5619618309203
P11,PRE,XG,R3,38.859936636423
P12,PRE,XG,R3,37.9432102081528
P13,PRE,XG,R3,44.8727780996058
P14,PRE,XG,R3,45.5833674023448
P15,PRE,XG,R3,47.4388477345648
P16,PRE,XG,R3,37.4444464787621
P17,PRE,XG,R3,53.7077254434698
P18,PRE,XG,R3,49.5623756537241
P19,PRE,XG,R3,29.128660028241
P20,PRE,XG,R3,47.8807077759604
P21,PRE,XG,R3,43.5732012614968
P22,PRE,XG,R3,35.0153947211649
P23,PRE,XG,R3,34.7175294337516
P24,PRE,XG,R3,38.5058532808088
P25,PRE,XG,R3,46.6469370802717
P26,PRE,XG,R3,36.5751931663514
P27,PRE,XG,R3,47.5295126348228
P28,PRE,XG,R3,41.3985950064216
P01,P3M,XG,R3,43.4721588614847
P02,P3M,XG,R3,38.7024958268019
P03,P3M,XG,R3,43.4609334367133
P04,P3M,XG,R3,42.6180270063884
P05,P3M,XG,R3,31.084176692247
P06,P3M,XG,R3,47.1203788729389
P07,P3M,XG,R3,43.0385396086258
P08,P3M,XG,R3,37.9127952670807
P09,P3M,XG,R3,46.6655878699944
P10,P3M,XG,R3,40.5288811269757
P11,P3M,XG,R3,41.2938758872054
P12,P3M,XG,R3,44.307196861743
P13,P3M,XG,R3,47.2467751253534
P14,P3M,XG,R3,44.8741306072808
P15,P3M,XG,R3,45.6464270930676
P16,P3M,XG,R3,34.9682416004828
P17,P3M,XG,R3,50.9183475109146
P18,P3M,XG,R3,40.9163646452773
P19,P3M,XG,R3,34.4760022667577
P20,P3M,XG,R3,45.7037896568707
P21,P3M,XG,R3,39.2182618838103
P22,P3M,XG,R3,46.4925819294858
P23,P3M,XG,R3,39.6356532154361
P24,P3M,XG,R3,39.1598985118789
P25,P3M,XG,R3,50.3626025941345
P26,P3M,XG,R3,36.6879708093304
P27,P3M,XG,R3,50.2840936672794
P28,P3M,XG,R3,47.0196834807805
P01,PRE,PB,R1,41.2910358354224
P02,PRE,PB,R1,44.6496450043735
P03,PRE,PB,R1,43.636326465529
P04,PRE,PB,R1,34.3740762567793
P05,PRE,PB,R1,34.2011345005541
P06,PRE,PB,R1,43.0718453088298
P07,PRE,PB,R1,44.5052219051894
P08,PRE,PB,R1,39.7171104093429
P09,PRE,PB,R1,43.8073175277235
P10,PRE,PB,R1,36.983138565449
P11,PRE,PB,R1,37.4678837601065
P12,PRE,PB,R1,36.9628433016074
P13,PRE,PB,R1,46.9584787568624
P14,PRE,PB,R1,48.8631731233989
P15,PRE,PB,R1,42.6078600490304
P16,PRE,PB,R1,38.5013385375448
P17,PRE,PB,R1,55.9237082914256
P18,PRE,PB,R1,42.6233206356402
P19,PRE,PB,R1,32.6112083822013
P20,PRE,PB,R1,49.6931323378464
P21,PRE,PB,R1,45.096693786985
P22,PRE,PB,R1,34.3005536464725
P23,PRE,PB,R1,36.1944316599483
P24,PRE,PB,R1,40.6907808946838
P25,PRE,PB,R1,45.0049756261654
P26,PRE,PB,R1,32.9779095468578
P27,PRE,PB,R1,42.6830469610393
P28,PRE,PB,R1,42.2006906578881
P01,P3M,PB,R1,42.1898677831885
P02,P3M,PB,R1,38.8102806225354
P03,P3M,PB,R1,42.504620719263
P04,P3M,PB,R1,41.812479097415
P05,P3M,PB,R1,30.9035971545634
P06,P3M,PB,R1,49.4344817965573
P07,P3M,PB,R1,41.9653127829363
P08,P3M,PB,R1,35.8560874876525
P09,P3M,PB,R1,46.811816759158
P10,P3M,PB,R1,40.4128142555287
P11,P3M,PB,R1,40.2906631989501
P12,P3M,PB,R1,45.7041543653705
P13,P3M,PB,R1,48.9837781467879
P14,P3M,PB,R1,45.5983893801491
P15,P3M,PB,R1,44.7338472545089
P16,P3M,PB,R1,34.2563524716921
P17,P3M,PB,R1,51.2953090674021
P18,P3M,PB,R1,39.6471971716315
P19,P3M,PB,R1,35.1333469179764
P20,P3M,PB,R1,45.9625463536469
P21,P3M,PB,R1,38.2959396602986
P22,P3M,PB,R1,45.8833776095258
P23,P3M,PB,R1,38.5562480464545
P24,P3M,PB,R1,39.768048458674
P25,P3M,PB,R1,49.7537488732718
P26,P3M,PB,R1,36.3606840347875
P27,P3M,PB,R1,51.172376579791
P28,P3M,PB,R1,47.2985902282273
P01,PRE,PB,R2,40.832631823831
P02,PRE,PB,R2,44.0500853450602
P03,PRE,PB,R2,41.7907488169295
P04,PRE,PB,R2,35.6268039931908
P05,PRE,PB,R2,36.7508041650269
P06,PRE,PB,R2,41.9905924770668
P07,PRE,PB,R2,39.4896558404231
P08,PRE,PB,R2,42.4610570421889
P09,PRE,PB,R2,46.0404933045393
P10,PRE,PB,R2,39.5002749934618
P11,PRE,PB,R2,39.1450948352828
P12,PRE,PB,R2,40.1753666939285
P13,PRE,PB,R2,45.3323788009994
P14,PRE,PB,R2,45.944343371264
P15,PRE,PB,R2,46.238623213488
P16,PRE,PB,R2,39.6201282020584
P17,PRE,PB,R2,54.6946400310324
P18,PRE,PB,R2,49.1536963857605
P19,PRE,PB,R2,31.5725163146482
P20,PRE,PB,R2,46.0055928102125
P21,PRE,PB,R2,44.6164472911664
P22,PRE,PB,R2,32.8540073917964
P23,PRE,PB,R2,36.6893592013406
P24,PRE,PB,R2,38.0606997272911
P25,PRE,PB,R2,46.182624423276
P26,PRE,PB,R2,34.087025813359
P27,PRE,PB,R2,47.2008580073491
P28,PRE,PB,R2,42.0158906011568
P01,P3M,PB,R2,43.020862832732
P02,P3M,PB,R2,37.6243858191
P03,P3M,PB,R2,42.0052202153222
P04,P3M,PB,R2,41.660380758784
P05,P3M,PB,R2,32.2528183961272
P06,P3M,PB,R2,46.9124143092322
P07,P3M,PB,R2,42.5204833791944
P08,P3M,PB,R2,36.0637864520045
P09,P3M,PB,R2,45.8739740399073
P10,P3M,PB,R2,40.3926175453859
P11,P3M,PB,R2,39.8334289742465
P12,P3M,PB,R2,44.6925941092829
P13,P3M,PB,R2,48.9264502683235
P14,P3M,PB,R2,43.1297201380666
P15,P3M,PB,R2,45.403654621377
P16,P3M,PB,R2,37.1755605446746
P17,P3M,PB,R2,49.9488894969949
P18,P3M,PB,R2,39.8682076638594
P19,P3M,PB,R2,34.1685548236962
P20,P3M,PB,R2,46.4978115414132
P21,P3M,PB,R2,37.7056797603355
P22,P3M,PB,R2,46.8667547765363
P23,P3M,PB,R2,38.9437373748149
P24,P3M,PB,R2,39.4777694212483
P25,P3M,PB,R2,49.4627429583872
P26,P3M,PB,R2,36.3301064447194
P27,P3M,PB,R2,49.606154257576
P28,P3M,PB,R2,47.2412724950646
P01,PRE,PB,R3,38.6760984143493
P02,PRE,PB,R3,43.5319425165524
P03,PRE,PB,R3,44.365169647565
P04,PRE,PB,R3,32.7356578379559
P05,PRE,PB,R3,38.064766862389
P06,PRE,PB,R3,42.4944168186099
P07,PRE,PB,R3,40.0321630522399
P08,PRE,PB,R3,40.992795654412
P09,PRE,PB,R3,39.5743331886122
P10,PRE,PB,R3,37.112268886655
P11,PRE,PB,R3,37.2901570849063
P12,PRE,PB,R3,38.5266900986641
P13,PRE,PB,R3,43.3607024079322
P14,PRE,PB,R3,46.3991614989344
P15,PRE,PB,R3,45.1296140041141
P16,PRE,PB,R3,37.0755724486012
P17,PRE,PB,R3,53.8194561769588
P18,PRE,PB,R3,48.2459349474543
P19,PRE,PB,R3,32.8083098067365
P20,PRE,PB,R3,46.0224120784822
P21,PRE,PB,R3,43.3547636080763
P22,PRE,PB,R3,34.3093543851761
P23,PRE,PB,R3,34.7368282856724
P24,PRE,PB,R3,37.1543939362831
P25,PRE,PB,R3,43.8161760030168
P26,PRE,PB,R3,33.1914579785366
P27,PRE,PB,R3,46.0955430168144
P28,PRE,PB,R3,40.8766370501349
P01,P3M,PB,R3,40.5989261919176
P02,P3M,PB,R3,38.509589205836
P03,P3M,PB,R3,42.7822671697019
P04,P3M,PB,R3,42.7277535931779
P05,P3M,PB,R3,32.1638732592478
P06,P3M,PB,R3,47.0151256063756
P07,P3M,PB,R3,41.8918260099271
P08,P3M,PB,R3,36.5813948967011
P09,P3M,PB,R3,46.6733930712189
P10,P3M,PB,R3,39.7562992495663
P11,P3M,PB,R3,41.3500893376444
P12,P3M,PB,R3,44.8756105434714
P13,P3M,PB,R3,47.9596636922474
P14,P3M,PB,R3,44.8310464653465
P15,P3M,PB,R3,44.1480413800229
P16,P3M,PB,R3,37.778365053781
P17,P3M,PB,R3,51.7579634737899
P18,P3M,PB,R3,40.8843488656591
P19,P3M,PB,R3,34.7360241015892
P20,P3M,PB,R3,46.6352667920604
P21,P3M,PB,R3,38.8908535680902
P22,P3M,PB,R3,46.6921604674528
P23,P3M,PB,R3,38.8871741771294
P24,P3M,PB,R3,39.4793649262036
P25,P3M,PB,R3,49.8572864232373
P26,P3M,PB,R3,36.6822158963178
P27,P3M,PB,R3,51.8248063711879
P28,P3M,PB,R3,47.2403788299614
