PAT,VIS,OPE,MES,VAL
P01,PRE,XG,R1,101.622913
P02,PRE,XG,R1,85.351255
P03,PRE,XG,R1,103.965763
P04,PRE,XG,R1,86.689309
P05,PRE,XG,R1,96.004713
P06,PRE,XG,R1,91.853612
P07,PRE,XG,R1,104.815361
P08,PRE,XG,R1,78.145596
P09,PRE,XG,R1,128.940396
P10,PRE,XG,R1,74.991598
P11,PRE,XG,R1,74.587661
P12,PRE,XG,R1,86.710866
P13,PRE,XG,R1,96.40322
P14,PRE,XG,R1,95.050034
P15,PRE,XG,R1,83.804895
P16,PRE,XG,R1,74.748376
P17,PRE,XG,R1,99.643942
P18,PRE,XG,R1,97.214087
P19,PRE,XG,R1,116.844639
P20,PRE,XG,R1,89.249781
P21,PRE,XG,R1,76.480529
P22,PRE,XG,R1,95.020361
P23,PRE,XG,R1,85.55366
P24,PRE,XG,R1,74.914542
P25,PRE,XG,R1,91.317771
P26,PRE,XG,R1,98.010619
P27,PRE,XG,R1,106.890042
P28,PRE,XG,R1,67.967902
P01,P3M,XG,R1,84.725071
P02,P3M,XG,R1,106.430741
P03,P3M,XG,R1,85.108071
P04,P3M,XG,R1,88.481521
P05,P3M,XG,R1,98.72946
P06,P3M,XG,R1,84.167118
P07,P3M,XG,R1,99.54444
P08,P3M,XG,R1,84.952363
P09,P3M,XG,R1,75.718942
P10,P3M,XG,R1,66.190032
P11,P3M,XG,R1,79.716012
P12,P3M,XG,R1,78.752534
P13,P3M,XG,R1,62.958995
P14,P3M,XG,R1,93.807761
P15,P3M,XG,R1,83.096556
P16,P3M,XG,R1,70.104723
P17,P3M,XG,R1,91.952757
P18,P3M,XG,R1,86.882585
P19,P3M,XG,R1,94.369291
P20,P3M,XG,R1,78.263965
P21,P3M,XG,R1,93.12178
P22,P3M,XG,R1,87.910693
P23,P3M,XG,R1,103.03244
P24,P3M,XG,R1,73.246708
P25,P3M,XG,R1,86.45243
P26,P3M,XG,R1,102.855613
P27,P3M,XG,R1,103.792657
P28,P3M,XG,R1,74.736571
P01,PRE,XG,R2,101.44962
P02,PRE,XG,R2,85.181449
P03,PRE,XG,R2,102.476191
P04,PRE,XG,R2,86.580221
P05,PRE,XG,R2,94.976033
P06,PRE,XG,R2,91.021038
P07,PRE,XG,R2,107.824574
P08,PRE,XG,R2,81.485079
P09,PRE,XG,R2,129.427345
P10,PRE,XG,R2,74.302198
P11,PRE,XG,R2,74.449828
P12,PRE,XG,R2,85.625036
P13,PRE,XG,R2,96.145085
P14,PRE,XG,R2,94.837773
P15,PRE,XG,R2,84.379836
P16,PRE,XG,R2,73.446356
P17,PRE,XG,R2,99.258717
P18,PRE,XG,R2,97.94195
P19,PRE,XG,R2,113.420437
P20,PRE,XG,R2,89.103926
P21,PRE,XG,R2,76.123531
P22,PRE,XG,R2,95.259124
P23,PRE,XG,R2,84.204352
P24,PRE,XG,R2,75.95702
P25,PRE,XG,R2,90.691104
P26,PRE,XG,R2,97.272184
P27,PRE,XG,R2,107.821259
P28,PRE,XG,R2,67.34752
P01,P3M,XG,R2,84.686063
P02,P3M,XG,R2,108.129936
P03,P3M,XG,R2,84.929896
P04,P3M,XG,R2,88.581093
P05,P3M,XG,R2,99.147048
P06,P3M,XG,R2,82.136762
P07,P3M,XG,R2,95.891607
P08,P3M,XG,R2,81.507079
P09,P3M,XG,R2,74.656106
P10,P3M,XG,R2,66.580521
P11,P3M,XG,R2,81.266974
P12,P3M,XG,R2,78.694683
P13,P3M,XG,R2,60.774022
P14,P3M,XG,R2,91.657778
P15,P3M,XG,R2,80.473946
P16,P3M,XG,R2,67.183095
P17,P3M,XG,R2,90.493774
P18,P3M,XG,R2,86.461057
P19,P3M,XG,R2,92.908418
P20,P3M,XG,R2,75.641098
P21,P3M,XG,R2,93.99971
P22,P3M,XG,R2,88.516917
P23,P3M,XG,R2,102.763141
P24,P3M,XG,R2,72.279387
P25,P3M,XG,R2,85.451606
P26,P3M,XG,R2,103.625539
P27,P3M,XG,R2,101.791548
P28,P3M,XG,R2,73.719759
P01,PRE,XG,R3,101.39323
P02,PRE,XG,R3,85.973198
P03,PRE,XG,R3,102.242781
P04,PRE,XG,R3,86.826128
P05,PRE,XG,R3,95.179438
P06,PRE,XG,R3,92.199844
P07,PRE,XG,R3,106.516698
P08,PRE,XG,R3,80.218187
P09,PRE,XG,R3,127.742399
P10,PRE,XG,R3,74.379241
P11,PRE,XG,R3,74.317554
P12,PRE,XG,R3,85.830619
P13,PRE,XG,R3,95.487221
P14,PRE,XG,R3,95.794652
P15,PRE,XG,R3,83.441307
P16,PRE,XG,R3,74.131529
P17,PRE,XG,R3,99.973219
P18,PRE,XG,R3,98.346311
P19,PRE,XG,R3,116.142061
P20,PRE,XG,R3,88.472171
P21,PRE,XG,R3,75.94805
P22,PRE,XG,R3,95.598556
P23,PRE,XG,R3,84.688655
P24,PRE,XG,R3,72.977963
P25,PRE,XG,R3,91.568045
P26,PRE,XG,R3,97.584441
P27,PRE,XG,R3,106.460273
P28,PRE,XG,R3,67.340876
P01,P3M,XG,R3,84.721386
P02,P3M,XG,R3,107.530464
P03,P3M,XG,R3,85.360983
P04,P3M,XG,R3,88.510491
P05,P3M,XG,R3,98.741226
P06,P3M,XG,R3,81.564536
P07,P3M,XG,R3,98.404169
P08,P3M,XG,R3,82.93534
P09,P3M,XG,R3,75.44618
P10,P3M,XG,R3,66.88829
P11,P3M,XG,R3,80.211297
P12,P3M,XG,R3,77.700269
P13,P3M,XG,R3,62.714892
P14,P3M,XG,R3,90.947876
P15,P3M,XG,R3,83.9245
P16,P3M,XG,R3,68.199595
P17,P3M,XG,R3,91.673499
P18,P3M,XG,R3,85.598863
P19,P3M,XG,R3,93.795834
P20,P3M,XG,R3,77.774125
P21,P3M,XG,R3,93.06619
P22,P3M,XG,R3,87.117703
P23,P3M,XG,R3,102.463467
P24,P3M,XG,R3,70.532824
P25,P3M,XG,R3,85.461986
P26,P3M,XG,R3,102.775352
P27,P3M,XG,R3,101.500464
P28,P3M,XG,R3,74.428956
P01,PRE,PB,R1,100.361704
P02,PRE,PB,R1,83.68146
P03,PRE,PB,R1,104.547369
P04,PRE,PB,R1,86.896653
P05,PRE,PB,R1,95.808539
P06,PRE,PB,R1,92.730059
P07,PRE,PB,R1,108.081999
P08,PRE,PB,R1,79.156
P09,PRE,PB,R1,131.468903
P10,PRE,PB,R1,75.539359
P11,PRE,PB,R1,73.565813
P12,PRE,PB,R1,87.487786
P13,PRE,PB,R1,97.924259
P14,PRE,PB,R1,97.539426
P15,PRE,PB,R1,84.372366
P16,PRE,PB,R1,74.923173
P17,PRE,PB,R1,100.900239
P18,PRE,PB,R1,95.616731
P19,PRE,PB,R1,115.933808
P20,PRE,PB,R1,87.701275
P21,PRE,PB,R1,77.69766
P22,PRE,PB,R1,94.650934
P23,PRE,PB,R1,85.943029
P24,PRE,PB,R1,76.616345
P25,PRE,PB,R1,91.542313
P26,PRE,PB,R1,99.488261
P27,PRE,PB,R1,109.301621
P28,PRE,PB,R1,68.686344
P01,P3M,PB,R1,83.418075
P02,P3M,PB,R1,105.008538
P03,P3M,PB,R1,86.020381
P04,P3M,PB,R1,90.390495
P05,P3M,PB,R1,100.405975
P06,P3M,PB,R1,82.206448
P07,P3M,PB,R1,99.54444
P08,P3M,PB,R1,82.425884
P09,P3M,PB,R1,76.6698
P10,P3M,PB,R1,67.681959
P11,P3M,PB,R1,81.073894
P12,P3M,PB,R1,83.061317
P13,P3M,PB,R1,63.948233
P14,P3M,PB,R1,93.807761
P15,P3M,PB,R1,85.332109
P16,P3M,PB,R1,69.053669
P17,P3M,PB,R1,92.551119
P18,P3M,PB,R1,84.26138
P19,P3M,PB,R1,96.145452
P20,P3M,PB,R1,75.604165
P21,P3M,PB,R1,94.333579
P22,P3M,PB,R1,87.066337
P23,P3M,PB,R1,103.688924
P24,P3M,PB,R1,72.991984
P25,P3M,PB,R1,87.108356
P26,P3M,PB,R1,101.935817
P27,P3M,PB,R1,105.435371
P28,P3M,PB,R1,77.25509
P01,PRE,PB,R2,101.553921
P02,PRE,PB,R2,83.405954
P03,PRE,PB,R2,105.015899
P04,PRE,PB,R2,85.986067
P05,PRE,PB,R2,96.422213
P06,PRE,PB,R2,93.943523
P07,PRE,PB,R2,108.832934
P08,PRE,PB,R2,81.276601
P09,PRE,PB,R2,128.617872
P10,PRE,PB,R2,74.850841
P11,PRE,PB,R2,74.945079
P12,PRE,PB,R2,87.440595
P13,PRE,PB,R2,97.394909
P14,PRE,PB,R2,98.073043
P15,PRE,PB,R2,85.518227
P16,PRE,PB,R2,73.657633
P17,PRE,PB,R2,100.693989
P18,PRE,PB,R2,96.78176
P19,PRE,PB,R2,118.188949
P20,PRE,PB,R2,87.518225
P21,PRE,PB,R2,78.505123
P22,PRE,PB,R2,96.687202
P23,PRE,PB,R2,86.807465
P24,PRE,PB,R2,76.492392
P25,PRE,PB,R2,91.29376
P26,PRE,PB,R2,97.935653
P27,PRE,PB,R2,110.085134
P28,PRE,PB,R2,68.481546
P01,P3M,PB,R2,82.552344
P02,P3M,PB,R2,104.78591
P03,P3M,PB,R2,90.60539
P04,P3M,PB,R2,87.921547
P05,P3M,PB,R2,100.713495
P06,P3M,PB,R2,83.048484
P07,P3M,PB,R2,98.743788
P08,P3M,PB,R2,81.555031
P09,P3M,PB,R2,76.372472
P10,P3M,PB,R2,67.405319
P11,P3M,PB,R2,79.943166
P12,P3M,PB,R2,81.430523
P13,P3M,PB,R2,63.951252
P14,P3M,PB,R2,92.477706
P15,P3M,PB,R2,82.980435
P16,P3M,PB,R2,68.733105
P17,P3M,PB,R2,92.694609
P18,P3M,PB,R2,87.692512
P19,P3M,PB,R2,95.348978
P20,P3M,PB,R2,76.198918
P21,P3M,PB,R2,93.718331
P22,P3M,PB,R2,89.757122
P23,P3M,PB,R2,103.098932
P24,P3M,PB,R2,73.50048
P25,P3M,PB,R2,86.546806
P26,P3M,PB,R2,102.141369
P27,P3M,PB,R2,104.888353
P28,P3M,PB,R2,75.61526
P01,PRE,PB,R3,101.3534
P02,PRE,PB,R3,83.263161
P03,PRE,PB,R3,103.809196
P04,PRE,PB,R3,86.689839
P05,PRE,PB,R3,96.676726
P06,PRE,PB,R3,90.383271
P07,PRE,PB,R3,107.824235
P08,PRE,PB,R3,78.039373
P09,PRE,PB,R3,131.85494
P10,PRE,PB,R3,75.20163
P11,PRE,PB,R3,74.061576
P12,PRE,PB,R3,88.055771
P13,PRE,PB,R3,98.488453
P14,PRE,PB,R3,98.067211
P15,PRE,PB,R3,83.54397
P16,PRE,PB,R3,74.108127
P17,PRE,PB,R3,100.897232
P18,PRE,PB,R3,96.556031
P19,PRE,PB,R3,115.164623
P20,PRE,PB,R3,87.408532
P21,PRE,PB,R3,77.561532
P22,PRE,PB,R3,94.650934
P23,PRE,PB,R3,86.121504
P24,PRE,PB,R3,76.430339
P25,PRE,PB,R3,92.218218
P26,PRE,PB,R3,98.228311
P27,PRE,PB,R3,106.533262
P28,PRE,PB,R3,68.681054
P01,P3M,PB,R3,84.292979
P02,P3M,PB,R3,104.747237
P03,P3M,PB,R3,85.988638
P04,P3M,PB,R3,88.416221
P05,P3M,PB,R3,99.759306
P06,P3M,PB,R3,81.598585
P07,P3M,PB,R3,99.389185
P08,P3M,PB,R3,82.652931
P09,P3M,PB,R3,74.866674
P10,P3M,PB,R3,67.03235
P11,P3M,PB,R3,81.504294
P12,P3M,PB,R3,80.046386
P13,P3M,PB,R3,64.397205
P14,P3M,PB,R3,93.860154
P15,P3M,PB,R3,84.856012
P16,P3M,PB,R3,68.995045
P17,P3M,PB,R3,93.279386
P18,P3M,PB,R3,85.985983
P19,P3M,PB,R3,94.419045
P20,P3M,PB,R3,76.110877
P21,P3M,PB,R3,94.504593
P22,P3M,PB,R3,88.811384
P23,P3M,PB,R3,103.656345
P24,P3M,PB,R3,73.45929
P25,P3M,PB,R3,86.470174
P26,P3M,PB,R3,102.646452
P27,P3M,PB,R3,104.434959
P28,P3M,PB,R3,75.217482
