PAT,VIS,OPE,MES,VAL
P01,PRE,XG,R1,-11.905206
P02,PRE,XG,R1,5.388753
P03,PRE,XG,R1,68.569911
P04,PRE,XG,R1,39.052904
P05,PRE,XG,R1,72.291161
P06,PRE,XG,R1,43.477991
P07,PRE,XG,R1,25.929364
P08,PRE,XG,R1,13.259403
P09,PRE,XG,R1,5.356019
P10,PRE,XG,R1,25.727797
P11,PRE,XG,R1,-3.33934
P12,PRE,XG,R1,-2.240479
P13,PRE,XG,R1,103.151558
P14,PRE,XG,R1,67.665986
P15,PRE,XG,R1,79.700095
P16,PRE,XG,R1,40.998375
P17,PRE,XG,R1,38.99284
P18,PRE,XG,R1,9.145906
P19,PRE,XG,R1,21.431741
P20,PRE,XG,R1,28.538816
P21,PRE,XG,R1,51.621524
P22,PRE,XG,R1,24.541846
P23,PRE,XG,R1,8.514002
P24,PRE,XG,R1,56.522342
P25,PRE,XG,R1,-29.182299
P26,PRE,XG,R1,27.064883
P27,PRE,XG,R1,29.070803
P28,PRE,XG,R1,10.435567
P01,P3M,XG,R1,5.677779
P02,P3M,XG,R1,43.544121
P03,P3M,XG,R1,-15.053404
P04,P3M,XG,R1,32.614747
P05,P3M,XG,R1,47.036051
P06,P3M,XG,R1,-47.224241
P07,P3M,XG,R1,23.868285
P08,P3M,XG,R1,-10.970845
P09,P3M,XG,R1,61.48077
P10,P3M,XG,R1,43.725334
P11,P3M,XG,R1,3.073633
P12,P3M,XG,R1,35.471914
P13,P3M,XG,R1,53.984415
P14,P3M,XG,R1,73.886116
P15,P3M,XG,R1,83.981737
P16,P3M,XG,R1,11.321002
P17,P3M,XG,R1,11.435235
P18,P3M,XG,R1,1.512606
P19,P3M,XG,R1,-1.06646
P20,P3M,XG,R1,48.519158
P21,P3M,XG,R1,20.419795
P22,P3M,XG,R1,-57.06203
P23,P3M,XG,R1,5.088277
P24,P3M,XG,R1,37.231941
P25,P3M,XG,R1,30.336217
P26,P3M,XG,R1,19.309585
P27,P3M,XG,R1,46.592841
P28,P3M,XG,R1,34.507027
P01,PRE,XG,R2,-11.060696
P02,PRE,XG,R2,4.832563
P03,PRE,XG,R2,84.147221
P04,PRE,XG,R2,39.477378
P05,PRE,XG,R2,71.562367
P06,PRE,XG,R2,43.236399
P07,PRE,XG,R2,26.526905
P08,PRE,XG,R2,13.194773
P09,PRE,XG,R2,4.778803
P10,PRE,XG,R2,23.989228
P11,PRE,XG,R2,-3.301357
P12,PRE,XG,R2,-1.614225
P13,PRE,XG,R2,104.118882
P14,PRE,XG,R2,66.851042
P15,PRE,XG,R2,79.315361
P16,PRE,XG,R2,40.022838
P17,PRE,XG,R2,39.00055
P18,PRE,XG,R2,7.195393
P19,PRE,XG,R2,22.334752
P20,PRE,XG,R2,27.260505
P21,PRE,XG,R2,51.539695
P22,PRE,XG,R2,24.353964
P23,PRE,XG,R2,8.921525
P24,PRE,XG,R2,55.718609
P25,PRE,XG,R2,-29.64869
P26,PRE,XG,R2,27.965124
P27,PRE,XG,R2,29.407191
P28,PRE,XG,R2,10.438754
P01,P3M,XG,R2,5.545402
P02,P3M,XG,R2,43.663223
P03,P3M,XG,R2,-14.583717
P04,P3M,XG,R2,32.048839
P05,P3M,XG,R2,46.83451
P06,P3M,XG,R2,-47.456149
P07,P3M,XG,R2,23.292559
P08,P3M,XG,R2,-11.588892
P09,P3M,XG,R2,60.820681
P10,P3M,XG,R2,44.209509
P11,P3M,XG,R2,3.138755
P12,P3M,XG,R2,35.729169
P13,P3M,XG,R2,54.136654
P14,P3M,XG,R2,74.251438
P15,P3M,XG,R2,82.68475
P16,P3M,XG,R2,11.433196
P17,P3M,XG,R2,12.006501
P18,P3M,XG,R2,-5.145287
P19,P3M,XG,R2,-0.233725
P20,P3M,XG,R2,48.272029
P21,P3M,XG,R2,19.5476
P22,P3M,XG,R2,-58.422185
P23,P3M,XG,R2,4.602677
P24,P3M,XG,R2,35.82863
P25,P3M,XG,R2,28.82167
P26,P3M,XG,R2,14.302888
P27,P3M,XG,R2,45.296535
P28,P3M,XG,R2,34.145421
P01,PRE,XG,R3,-11.263996
P02,PRE,XG,R3,4.78808
P03,PRE,XG,R3,83.497718
P04,PRE,XG,R3,39.854015
P05,PRE,XG,R3,71.948147
P06,PRE,XG,R3,43.074708
P07,PRE,XG,R3,25.467252
P08,PRE,XG,R3,13.526237
P09,PRE,XG,R3,4.520332
P10,PRE,XG,R3,24.140883
P11,PRE,XG,R3,0.138644
P12,PRE,XG,R3,-1.313235
P13,PRE,XG,R3,103.475569
P14,PRE,XG,R3,66.922873
P15,PRE,XG,R3,79.913153
P16,PRE,XG,R3,40.881479
P17,PRE,XG,R3,39.055537
P18,PRE,XG,R3,7.892672
P19,PRE,XG,R3,21.727413
P20,PRE,XG,R3,27.374064
P21,PRE,XG,R3,51.335441
P22,PRE,XG,R3,24.85563
P23,PRE,XG,R3,8.364131
P24,PRE,XG,R3,56.689644
P25,PRE,XG,R3,-30.257258
P26,PRE,XG,R3,27.655627
P27,PRE,XG,R3,29.448568
P28,PRE,XG,R3,9.976329
P01,P3M,XG,R3,5.47581
P02,P3M,XG,R3,44.445181
P03,P3M,XG,R3,-15.636895
P04,P3M,XG,R3,37.546248
P05,P3M,XG,R3,46.969637
P06,P3M,XG,R3,-47.681336
P07,P3M,XG,R3,22.815774
P08,P3M,XG,R3,-10.656646
P09,P3M,XG,R3,60.009839
P10,P3M,XG,R3,43.788849
P11,P3M,XG,R3,3.664879
P12,P3M,XG,R3,35.894748
P13,P3M,XG,R3,54.054799
P14,P3M,XG,R3,73.258467
P15,P3M,XG,R3,83.42079
P16,P3M,XG,R3,11.396515
P17,P3M,XG,R3,11.369065
P18,P3M,XG,R3,-5.683227
P19,P3M,XG,R3,-0.292639
P20,P3M,XG,R3,48.94935
P21,P3M,XG,R3,19.449557
P22,P3M,XG,R3,-55.328778
P23,P3M,XG,R3,4.665691
P24,P3M,XG,R3,36.507981
P25,P3M,XG,R3,31.546002
P26,P3M,XG,R3,15.163823
P27,P3M,XG,R3,44.796807
P28,P3M,XG,R3,34.73742
P01,PRE,PB,R1,-10.698392
P02,PRE,PB,R1,6.138915
P03,PRE,PB,R1,69.682265
P04,PRE,PB,R1,41.954389
P05,PRE,PB,R1,73.809324
P06,PRE,PB,R1,45.2914
P07,PRE,PB,R1,26.458127
P08,PRE,PB,R1,15.25844
P09,PRE,PB,R1,7.978049
P10,PRE,PB,R1,27.190648
P11,PRE,PB,R1,-1.155229
P12,PRE,PB,R1,-1.292409
P13,PRE,PB,R1,109.84636
P14,PRE,PB,R1,68.322874
P15,PRE,PB,R1,82.005808
P16,PRE,PB,R1,41.835879
P17,PRE,PB,R1,40.523252
P18,PRE,PB,R1,10.468957
P19,PRE,PB,R1,23.827137
P20,PRE,PB,R1,28.435887
P21,PRE,PB,R1,53.302885
P22,PRE,PB,R1,25.085093
P23,PRE,PB,R1,11.266189
P24,PRE,PB,R1,56.650112
P25,PRE,PB,R1,-29.357356
P26,PRE,PB,R1,29.349398
P27,PRE,PB,R1,29.026634
P28,PRE,PB,R1,10.435648
P01,P3M,PB,R1,5.175142
P02,P3M,PB,R1,44.250317
P03,P3M,PB,R1,-14.864128
P04,P3M,PB,R1,32.538918
P05,P3M,PB,R1,47.632685
P06,P3M,PB,R1,-46.116693
P07,P3M,PB,R1,23.868285
P08,P3M,PB,R1,-8.77575
P09,P3M,PB,R1,60.811771
P10,P3M,PB,R1,45.141228
P11,P3M,PB,R1,4.650047
P12,P3M,PB,R1,35.422407
P13,P3M,PB,R1,53.498354
P14,P3M,PB,R1,73.886116
P15,P3M,PB,R1,87.320084
P16,P3M,PB,R1,12.041933
P17,P3M,PB,R1,11.67106
P18,P3M,PB,R1,1.977345
P19,P3M,PB,R1,0.981087
P20,P3M,PB,R1,53.110374
P21,P3M,PB,R1,20.689187
P22,P3M,PB,R1,-58.449003
P23,P3M,PB,R1,2.043177
P24,P3M,PB,R1,35.743696
P25,P3M,PB,R1,31.345886
P26,P3M,PB,R1,28.030549
P27,P3M,PB,R1,45.499577
P28,P3M,PB,R1,34.751558
P01,PRE,PB,R2,-10.173114
P02,PRE,PB,R2,6.024534
P03,PRE,PB,R2,70.386052
P04,PRE,PB,R2,41.68231
P05,PRE,PB,R2,72.02051
P06,PRE,PB,R2,44.316577
P07,PRE,PB,R2,26.674038
P08,PRE,PB,R2,14.468952
P09,PRE,PB,R2,13.20995
P10,PRE,PB,R2,25.666347
P11,PRE,PB,R2,-0.248296
P12,PRE,PB,R2,-1.181504
P13,PRE,PB,R2,107.009096
P14,PRE,PB,R2,68.396885
P15,PRE,PB,R2,81.573788
P16,PRE,PB,R2,41.344708
P17,PRE,PB,R2,40.483926
P18,PRE,PB,R2,8.260829
P19,PRE,PB,R2,21.978662
P20,PRE,PB,R2,28.430406
P21,PRE,PB,R2,54.807891
P22,PRE,PB,R2,25.410782
P23,PRE,PB,R2,9.26561
P24,PRE,PB,R2,56.574796
P25,PRE,PB,R2,-30.111364
P26,PRE,PB,R2,29.021784
P27,PRE,PB,R2,29.083026
P28,PRE,PB,R2,10.472253
P01,P3M,PB,R2,6.459417
P02,P3M,PB,R2,44.483592
P03,P3M,PB,R2,-14.476348
P04,P3M,PB,R2,32.617551
P05,P3M,PB,R2,46.573739
P06,P3M,PB,R2,-46.268773
P07,P3M,PB,R2,26.119783
P08,P3M,PB,R2,-9.261533
P09,P3M,PB,R2,62.378687
P10,P3M,PB,R2,44.537815
P11,P3M,PB,R2,4.674749
P12,P3M,PB,R2,37.564665
P13,P3M,PB,R2,54.34707
P14,P3M,PB,R2,75.398533
P15,P3M,PB,R2,84.300454
P16,P3M,PB,R2,12.923969
P17,P3M,PB,R2,12.33528
P18,P3M,PB,R2,-4.39816
P19,P3M,PB,R2,1.029094
P20,P3M,PB,R2,50.908917
P21,P3M,PB,R2,22.402337
P22,P3M,PB,R2,-57.552384
P23,P3M,PB,R2,3.031497
P24,P3M,PB,R2,35.724025
P25,P3M,PB,R2,29.672399
P26,P3M,PB,R2,18.992394
P27,P3M,PB,R2,47.08447
P28,P3M,PB,R2,34.190907
P01,PRE,PB,R3,-11.041469
P02,PRE,PB,R3,5.622238
P03,PRE,PB,R3,69.085599
P04,PRE,PB,R3,41.24954
P05,PRE,PB,R3,72.328919
P06,PRE,PB,R3,44.551431
P07,PRE,PB,R3,27.544815
P08,PRE,PB,R3,14.345459
P09,PRE,PB,R3,12.29807
P10,PRE,PB,R3,26.376874
P11,PRE,PB,R3,-2.089091
P12,PRE,PB,R3,-1.021295
P13,PRE,PB,R3,103.907028
P14,PRE,PB,R3,68.298335
P15,PRE,PB,R3,80.539599
P16,PRE,PB,R3,42.408551
P17,PRE,PB,R3,40.494107
P18,PRE,PB,R3,8.723147
P19,PRE,PB,R3,22.722712
P20,PRE,PB,R3,28.49421
P21,PRE,PB,R3,53.181155
P22,PRE,PB,R3,25.085093
P23,PRE,PB,R3,11.098068
P24,PRE,PB,R3,57.303878
P25,PRE,PB,R3,-28.768925
P26,PRE,PB,R3,29.153763
P27,PRE,PB,R3,29.088159
P28,PRE,PB,R3,10.050764
P01,P3M,PB,R3,6.415645
P02,P3M,PB,R3,44.285755
P03,P3M,PB,R3,-14.994152
P04,P3M,PB,R3,33.159371
P05,P3M,PB,R3,47.44363
P06,P3M,PB,R3,-45.607588
P07,P3M,PB,R3,25.851421
P08,P3M,PB,R3,-9.970113
P09,P3M,PB,R3,61.607492
P10,P3M,PB,R3,44.898933
P11,P3M,PB,R3,5.049847
P12,P3M,PB,R3,36.472056
P13,P3M,PB,R3,54.217978
P14,P3M,PB,R3,75.502389
P15,P3M,PB,R3,84.631864
P16,P3M,PB,R3,11.755722
P17,P3M,PB,R3,12.54736
P18,P3M,PB,R3,-5.182485
P19,P3M,PB,R3,0.30842
P20,P3M,PB,R3,50.873272
P21,P3M,PB,R3,20.261869
P22,P3M,PB,R3,-58.52575
P23,P3M,PB,R3,5.992898
P24,P3M,PB,R3,36.675755
P25,P3M,PB,R3,29.171265
P26,P3M,PB,R3,22.388015
P27,P3M,PB,R3,46.028636
P28,P3M,PB,R3,35.3409
