PAT,VIS,OPE,MES,VAL
BAT,P3M,XG,R1,-8.687763
BEU,P3M,XG,R1,49.627887
BE_,P3M,XG,R1,5.37501
BIR,P3M,XG,R1,79.42394
DEA,P3M,XG,R1,68.522533
DEC,P3M,XG,R1,-68.070269
DIB,P3M,XG,R1,3.728007
GAB,P3M,XG,R1,28.13952
GEO,P3M,XG,R1,-5.282376
GOA,P3M,XG,R1,-23.24246
GRM,P3M,XG,R1,1.089691
GUG,P3M,XG,R1,17.018633
IUI,P3M,XG,R1,-9.400051
LAC,P3M,XG,R1,48.392136
LAH,P3M,XG,R1,12.69985
LAR,P3M,XG,R1,-4.360111
LIC,P3M,XG,R1,-26.004031
MAS,P3M,XG,R1,39.811541
MUP,P3M,XG,R1,-19.691885
POT,P3M,XG,R1,82.063412
ROR,P3M,XG,R1,45.766576
ROS,P3M,XG,R1,-39.30989
RUH,P3M,XG,R1,-14.529741
SUL,P3M,XG,R1,37.877077
THL,P3M,XG,R1,13.43717
TIE,P3M,XG,R1,31.178197
ZUF,P3M,XG,R1,3.730268
ZWH,P3M,XG,R1,-0.781001
BAT,P3M,XG,R2,-6.996818
BEU,P3M,XG,R2,49.440953
BE_,P3M,XG,R2,5.072187
BIR,P3M,XG,R2,80.145966
DEA,P3M,XG,R2,67.011683
DEC,P3M,XG,R2,-66.279247
DIB,P3M,XG,R2,2.094258
GAB,P3M,XG,R2,24.877954
GEO,P3M,XG,R2,-6.472695
GOA,P3M,XG,R2,-24.0141
GRM,P3M,XG,R2,2.113184
GUG,P3M,XG,R2,16.388467
IUI,P3M,XG,R2,-9.669565
LAC,P3M,XG,R2,50.512672
LAH,P3M,XG,R2,12.375267
LAR,P3M,XG,R2,-5.737854
LIC,P3M,XG,R2,-26.693026
MAS,P3M,XG,R2,41.363189
MUP,P3M,XG,R2,-19.7615
POT,P3M,XG,R2,83.21319
ROR,P3M,XG,R2,45.627089
ROS,P3M,XG,R2,-45.220742
RUH,P3M,XG,R2,-14.328381
SUL,P3M,XG,R2,39.377596
THL,P3M,XG,R2,13.288048
TIE,P3M,XG,R2,31.81689
ZUF,P3M,XG,R2,4.016539
ZWH,P3M,XG,R2,-1.346701
BAT,P3M,XG,R3,-8.547074
BEU,P3M,XG,R3,49.440953
BE_,P3M,XG,R3,4.724705
BIR,P3M,XG,R3,79.426051
DEA,P3M,XG,R3,66.834864
DEC,P3M,XG,R3,-61.466671
DIB,P3M,XG,R3,1.765331
GAB,P3M,XG,R3,26.042982
GEO,P3M,XG,R3,-5.237432
GOA,P3M,XG,R3,-24.019427
GRM,P3M,XG,R3,-0.38301
GUG,P3M,XG,R3,19.210786
IUI,P3M,XG,R3,-9.906561
LAC,P3M,XG,R3,49.878612
LAH,P3M,XG,R3,12.669596
LAR,P3M,XG,R3,-5.14362
LIC,P3M,XG,R3,-25.667022
MAS,P3M,XG,R3,41.29779
MUP,P3M,XG,R3,-19.736455
POT,P3M,XG,R3,83.723056
ROR,P3M,XG,R3,46.896929
ROS,P3M,XG,R3,-39.491016
RUH,P3M,XG,R3,-14.704079
SUL,P3M,XG,R3,38.402189
THL,P3M,XG,R3,13.636877
TIE,P3M,XG,R3,31.33515
ZUF,P3M,XG,R3,4.133175
ZWH,P3M,XG,R3,-1.564277
BAT,P3M,PB,R1,-6.740249
BEU,P3M,PB,R1,49.995504
BE_,P3M,PB,R1,4.213011
BIR,P3M,PB,R1,80.403092
DEA,P3M,PB,R1,67.343505
DEC,P3M,PB,R1,-64.38976
DIB,P3M,PB,R1,3.728007
GAB,P3M,PB,R1,21.669196
GEO,P3M,PB,R1,-4.448989
GOA,P3M,PB,R1,-24.037993
GRM,P3M,PB,R1,1.400415
GUG,P3M,PB,R1,18.074992
IUI,P3M,PB,R1,-8.587795
LAC,P3M,PB,R1,48.392136
LAH,P3M,PB,R1,14.405418
LAR,P3M,PB,R1,-1.339749
LIC,P3M,PB,R1,-26.37119
MAS,P3M,PB,R1,45.931206
MUP,P3M,PB,R1,-18.885055
POT,P3M,PB,R1,81.079839
ROR,P3M,PB,R1,44.550241
ROS,P3M,PB,R1,-47.674709
RUH,P3M,PB,R1,-14.070961
SUL,P3M,PB,R1,39.472253
THL,P3M,PB,R1,10.81069
TIE,P3M,PB,R1,33.90117
ZUF,P3M,PB,R1,2.520552
ZWH,P3M,PB,R1,-3.549946
BAT,P3M,PB,R2,-7.577495
BEU,P3M,PB,R2,48.115613
BE_,P3M,PB,R2,5.444667
BIR,P3M,PB,R2,80.233405
DEA,P3M,PB,R2,67.795462
DEC,P3M,PB,R2,-64.760437
DIB,P3M,PB,R2,3.636516
GAB,P3M,PB,R2,22.503523
GEO,P3M,PB,R2,-5.014349
GOA,P3M,PB,R2,-23.325282
GRM,P3M,PB,R2,-4.392312
GUG,P3M,PB,R2,15.257926
IUI,P3M,PB,R2,-8.641365
LAC,P3M,PB,R2,49.368727
LAH,P3M,PB,R2,11.943649
LAR,P3M,PB,R2,-7.300606
LIC,P3M,PB,R2,-26.001926
MAS,P3M,PB,R2,28.999226
MUP,P3M,PB,R2,-21.16176
POT,P3M,PB,R2,81.825521
ROR,P3M,PB,R2,47.863142
ROS,P3M,PB,R2,-46.56647
RUH,P3M,PB,R2,-15.829486
SUL,P3M,PB,R2,39.175274
THL,P3M,PB,R2,13.444832
TIE,P3M,PB,R2,33.110913
ZUF,P3M,PB,R2,8.863427
ZWH,P3M,PB,R2,-1.526799
BAT,P3M,PB,R3,-6.700298
BEU,P3M,PB,R3,48.824516
BE_,P3M,PB,R3,5.357426
BIR,P3M,PB,R3,79.878782
DEA,P3M,PB,R3,67.12148
DEC,P3M,PB,R3,-67.716428
DIB,P3M,PB,R3,2.190044
GAB,P3M,PB,R3,26.423632
GEO,P3M,PB,R3,-4.409611
GOA,P3M,PB,R3,-21.771335
GRM,P3M,PB,R3,0.296297
GUG,P3M,PB,R3,17.578699
IUI,P3M,PB,R3,-7.717037
LAC,P3M,PB,R3,52.272773
LAH,P3M,PB,R3,11.755889
LAR,P3M,PB,R3,-5.186452
LIC,P3M,PB,R3,-26.870687
MAS,P3M,PB,R3,40.029915
MUP,P3M,PB,R3,-19.211012
POT,P3M,PB,R3,84.37753
ROR,P3M,PB,R3,47.217304
ROS,P3M,PB,R3,-48.318821
RUH,P3M,PB,R3,-13.678596
SUL,P3M,PB,R3,38.6613
THL,P3M,PB,R3,12.787204
TIE,P3M,PB,R3,32.974077
ZUF,P3M,PB,R3,3.702611
ZWH,P3M,PB,R3,-0.85167
