PAT,VIS,OPE,MES,VAL
BAT,PRE,XG,R1,-39.062566
BEU,PRE,XG,R1,1.580196
BE_,PRE,XG,R1,26.077432
BIR,PRE,XG,R1,62.444459
DEA,PRE,XG,R1,48.763948
DEC,PRE,XG,R1,8.609007
DIB,PRE,XG,R1,4.77949
GAB,PRE,XG,R1,46.129419
GEO,PRE,XG,R1,-41.624908
GOA,PRE,XG,R1,-6.249223
GRM,PRE,XG,R1,24.674506
GUG,PRE,XG,R1,-10.408201
IUI,PRE,XG,R1,60.07225
LAC,PRE,XG,R1,52.697633
LAH,PRE,XG,R1,-54.596374
LAR,PRE,XG,R1,-12.89774
LIC,PRE,XG,R1,-0.992192
MAS,PRE,XG,R1,37.266777
MUP,PRE,XG,R1,-1.576122
POT,PRE,XG,R1,22.247008
ROR,PRE,XG,R1,66.124305
ROS,PRE,XG,R1,-6.54976
RUH,PRE,XG,R1,-0.356037
SUL,PRE,XG,R1,60.69501
THL,PRE,XG,R1,-29.286708
TIE,PRE,XG,R1,-39.440958
ZUF,PRE,XG,R1,18.047158
ZWH,PRE,XG,R1,-16.612316
BAT,PRE,XG,R2,-38.594125
BEU,PRE,XG,R2,0.246504
BE_,PRE,XG,R2,25.308848
BIR,PRE,XG,R2,63.526749
DEA,PRE,XG,R2,49.563961
DEC,PRE,XG,R2,8.160005
DIB,PRE,XG,R2,3.866171
GAB,PRE,XG,R2,46.607426
GEO,PRE,XG,R2,-41.246663
GOA,PRE,XG,R2,-5.918817
GRM,PRE,XG,R2,24.386109
GUG,PRE,XG,R2,-10.380463
IUI,PRE,XG,R2,59.948898
LAC,PRE,XG,R2,52.978293
LAH,PRE,XG,R2,-41.748245
LAR,PRE,XG,R2,-13.997504
LIC,PRE,XG,R2,-1.905975
MAS,PRE,XG,R2,37.232758
MUP,PRE,XG,R2,-1.177073
POT,PRE,XG,R2,21.488274
ROR,PRE,XG,R2,66.065929
ROS,PRE,XG,R2,-6.894039
RUH,PRE,XG,R2,-0.440585
SUL,PRE,XG,R2,62.695278
THL,PRE,XG,R2,-29.562579
TIE,PRE,XG,R2,-41.170779
ZUF,PRE,XG,R2,17.303625
ZWH,PRE,XG,R2,-17.375752
BAT,PRE,XG,R3,-39.345283
BEU,PRE,XG,R3,2.393861
BE_,PRE,XG,R3,25.173511
BIR,PRE,XG,R3,62.57808
DEA,PRE,XG,R3,48.830043
DEC,PRE,XG,R3,8.014467
DIB,PRE,XG,R3,3.6727
GAB,PRE,XG,R3,46.098796
GEO,PRE,XG,R3,-41.713657
GOA,PRE,XG,R3,-6.843376
GRM,PRE,XG,R3,23.790536
GUG,PRE,XG,R3,-11.37913
IUI,PRE,XG,R3,60.211001
LAC,PRE,XG,R3,52.736103
LAH,PRE,XG,R3,-42.009318
LAR,PRE,XG,R3,-12.741742
LIC,PRE,XG,R3,-2.078296
MAS,PRE,XG,R3,36.569293
MUP,PRE,XG,R3,-2.643415
POT,PRE,XG,R3,22.691631
ROR,PRE,XG,R3,66.128342
ROS,PRE,XG,R3,-6.458206
RUH,PRE,XG,R3,-1.149519
SUL,PRE,XG,R3,61.613386
THL,PRE,XG,R3,-28.371905
TIE,PRE,XG,R3,-41.036014
ZUF,PRE,XG,R3,17.357742
ZWH,PRE,XG,R3,-17.707647
BAT,PRE,PB,R1,-38.7252
BEU,PRE,PB,R1,-8.815444
BE_,PRE,PB,R1,25.666196
BIR,PRE,PB,R1,61.440735
DEA,PRE,PB,R1,49.825037
DEC,PRE,PB,R1,8.868481
DIB,PRE,PB,R1,4.313653
GAB,PRE,PB,R1,46.332658
GEO,PRE,PB,R1,-41.54359
GOA,PRE,PB,R1,-5.780767
GRM,PRE,PB,R1,23.701462
GUG,PRE,PB,R1,-8.717275
IUI,PRE,PB,R1,59.683595
LAC,PRE,PB,R1,54.573648
LAH,PRE,PB,R1,-40.320629
LAR,PRE,PB,R1,-13.330676
LIC,PRE,PB,R1,-0.514132
MAS,PRE,PB,R1,37.942233
MUP,PRE,PB,R1,-3.438159
POT,PRE,PB,R1,22.189049
ROR,PRE,PB,R1,65.271597
ROS,PRE,PB,R1,-2.02453
RUH,PRE,PB,R1,-0.577354
SUL,PRE,PB,R1,62.766657
THL,PRE,PB,R1,-26.991172
TIE,PRE,PB,R1,-41.243104
ZUF,PRE,PB,R1,15.831979
ZWH,PRE,PB,R1,-16.259612
BAT,PRE,PB,R2,-39.148971
BEU,PRE,PB,R2,-5.830735
BE_,PRE,PB,R2,27.918748
BIR,PRE,PB,R2,65.5222
DEA,PRE,PB,R2,50.86427
DEC,PRE,PB,R2,7.906818
DIB,PRE,PB,R2,3.29762
GAB,PRE,PB,R2,45.42885
GEO,PRE,PB,R2,-42.009159
GOA,PRE,PB,R2,-5.810819
GRM,PRE,PB,R2,23.574695
GUG,PRE,PB,R2,-10.509029
IUI,PRE,PB,R2,60.356407
LAC,PRE,PB,R2,53.678288
LAH,PRE,PB,R2,-39.637815
LAR,PRE,PB,R2,-13.254257
LIC,PRE,PB,R2,-1.467239
MAS,PRE,PB,R2,37.653513
MUP,PRE,PB,R2,-1.512809
POT,PRE,PB,R2,21.935485
ROR,PRE,PB,R2,66.33971
ROS,PRE,PB,R2,-1.439684
RUH,PRE,PB,R2,0.058001
SUL,PRE,PB,R2,61.431005
THL,PRE,PB,R2,-28.321104
TIE,PRE,PB,R2,-41.305116
ZUF,PRE,PB,R2,16.788171
ZWH,PRE,PB,R2,-17.184626
BAT,PRE,PB,R3,-40.034977
BEU,PRE,PB,R3,3.462981
BE_,PRE,PB,R3,26.302716
BIR,PRE,PB,R3,63.416337
DEA,PRE,PB,R3,50.180334
DEC,PRE,PB,R3,9.224789
DIB,PRE,PB,R3,3.69187
GAB,PRE,PB,R3,46.114169
GEO,PRE,PB,R3,-41.186661
GOA,PRE,PB,R3,-6.257347
GRM,PRE,PB,R3,24.561438
GUG,PRE,PB,R3,-9.75227
IUI,PRE,PB,R3,59.634617
LAC,PRE,PB,R3,53.809764
LAH,PRE,PB,R3,-44.29316
LAR,PRE,PB,R3,-12.716879
LIC,PRE,PB,R3,-0.262382
MAS,PRE,PB,R3,37.431896
MUP,PRE,PB,R3,-1.776809
POT,PRE,PB,R3,21.938675
ROR,PRE,PB,R3,65.794416
ROS,PRE,PB,R3,-2.02453
RUH,PRE,PB,R3,0.754671
SUL,PRE,PB,R3,63.149627
THL,PRE,PB,R3,-29.49186
TIE,PRE,PB,R3,-41.172335
ZUF,PRE,PB,R3,16.108095
ZWH,PRE,PB,R3,-16.519567
