PAT,VIS,OPE,MES,VAL
P01,P3M,XG,R1,1116.562575
P02,P3M,XG,R1,1208.818548
P03,P3M,XG,R1,1202.112427
P04,P3M,XG,R1,1134.79808
P05,P3M,XG,R1,1105.950991
P06,P3M,XG,R1,1126.494763
P07,P3M,XG,R1,1100.824886
P08,P3M,XG,R1,1111.581698
P09,P3M,XG,R1,1116.305267
P10,P3M,XG,R1,1223.791825
P11,P3M,XG,R1,1118.1139
P12,P3M,XG,R1,1185.605584
P13,P3M,XG,R1,1088.06179
P14,P3M,XG,R1,1197.508542
P15,P3M,XG,R1,1070.908515
P16,P3M,XG,R1,1187.389834
P17,P3M,XG,R1,1225.266329
P18,P3M,XG,R1,1229.693989
P19,P3M,XG,R1,1056.794919
P20,P3M,XG,R1,1157.253854
P21,P3M,XG,R1,1137.520443
P22,P3M,XG,R1,1094.579414
P23,P3M,XG,R1,1112.708587
P24,P3M,XG,R1,1110.725414
P25,P3M,XG,R1,1079.821717
P26,P3M,XG,R1,1050.301527
P27,P3M,XG,R1,1193.463393
P28,P3M,XG,R1,1155.073845
P01,P3M,XG,R2,1116.600018
P02,P3M,XG,R2,1209.196302
P03,P3M,XG,R2,1202.696191
P04,P3M,XG,R2,1134.713655
P05,P3M,XG,R2,1106.973091
P06,P3M,XG,R2,1126.46154
P07,P3M,XG,R2,1100.570948
P08,P3M,XG,R2,1112.51332
P09,P3M,XG,R2,1115.494488
P10,P3M,XG,R2,1223.38305
P11,P3M,XG,R2,1118.531352
P12,P3M,XG,R2,1186.030572
P13,P3M,XG,R2,1089.022409
P14,P3M,XG,R2,1198.338144
P15,P3M,XG,R2,1070.85066
P16,P3M,XG,R2,1186.848756
P17,P3M,XG,R2,1224.819562
P18,P3M,XG,R2,1229.742112
P19,P3M,XG,R2,1056.743417
P20,P3M,XG,R2,1157.504601
P21,P3M,XG,R2,1137.950462
P22,P3M,XG,R2,1095.160189
P23,P3M,XG,R2,1112.509277
P24,P3M,XG,R2,1111.178625
P25,P3M,XG,R2,1079.10072
P26,P3M,XG,R2,1049.695098
P27,P3M,XG,R2,1193.563447
P28,P3M,XG,R2,1155.555561
P01,P3M,XG,R3,1117.454884
P02,P3M,XG,R3,1208.94895
P03,P3M,XG,R3,1202.193856
P04,P3M,XG,R3,1134.508968
P05,P3M,XG,R3,1105.867115
P06,P3M,XG,R3,1125.417286
P07,P3M,XG,R3,1101.330744
P08,P3M,XG,R3,1111.584598
P09,P3M,XG,R3,1115.989017
P10,P3M,XG,R3,1222.956812
P11,P3M,XG,R3,1117.301201
P12,P3M,XG,R3,1185.841463
P13,P3M,XG,R3,1087.899203
P14,P3M,XG,R3,1197.807862
P15,P3M,XG,R3,1070.557212
P16,P3M,XG,R3,1186.832591
P17,P3M,XG,R3,1224.993167
P18,P3M,XG,R3,1229.199652
P19,P3M,XG,R3,1057.04525
P20,P3M,XG,R3,1156.368385
P21,P3M,XG,R3,1137.163959
P22,P3M,XG,R3,1095.324337
P23,P3M,XG,R3,1112.713272
P24,P3M,XG,R3,1110.802153
P25,P3M,XG,R3,1080.178599
P26,P3M,XG,R3,1049.546101
P27,P3M,XG,R3,1193.401343
P28,P3M,XG,R3,1154.469339
P01,P3M,PB,R1,1115.12787
P02,P3M,PB,R1,1209.767163
P03,P3M,PB,R1,1202.721488
P04,P3M,PB,R1,1134.58146
P05,P3M,PB,R1,1105.814497
P06,P3M,PB,R1,1128.229618
P07,P3M,PB,R1,1100.824886
P08,P3M,PB,R1,1113.270724
P09,P3M,PB,R1,1115.871993
P10,P3M,PB,R1,1224.292478
P11,P3M,PB,R1,1117.78325
P12,P3M,PB,R1,1184.633714
P13,P3M,PB,R1,1088.347566
P14,P3M,PB,R1,1197.508542
P15,P3M,PB,R1,1072.83722
P16,P3M,PB,R1,1187.511369
P17,P3M,PB,R1,1224.452465
P18,P3M,PB,R1,1229.82229
P19,P3M,PB,R1,1057.540119
P20,P3M,PB,R1,1157.433478
P21,P3M,PB,R1,1136.362501
P22,P3M,PB,R1,1094.915278
P23,P3M,PB,R1,1113.110201
P24,P3M,PB,R1,1111.04678
P25,P3M,PB,R1,1079.262604
P26,P3M,PB,R1,1050.607728
P27,P3M,PB,R1,1194.630821
P28,P3M,PB,R1,1155.828414
P01,P3M,PB,R2,1116.537577
P02,P3M,PB,R2,1208.957046
P03,P3M,PB,R2,1201.892548
P04,P3M,PB,R2,1134.12539
P05,P3M,PB,R2,1106.285639
P06,P3M,PB,R2,1125.987813
P07,P3M,PB,R2,1101.218048
P08,P3M,PB,R2,1111.726662
P09,P3M,PB,R2,1116.653424
P10,P3M,PB,R2,1222.800583
P11,P3M,PB,R2,1117.026817
P12,P3M,PB,R2,1186.824448
P13,P3M,PB,R2,1088.436387
P14,P3M,PB,R2,1197.134266
P15,P3M,PB,R2,1071.155002
P16,P3M,PB,R2,1187.32118
P17,P3M,PB,R2,1224.002737
P18,P3M,PB,R2,1229.91998
P19,P3M,PB,R2,1058.08849
P20,P3M,PB,R2,1156.274903
P21,P3M,PB,R2,1137.603655
P22,P3M,PB,R2,1095.818541
P23,P3M,PB,R2,1112.275251
P24,P3M,PB,R2,1110.983152
P25,P3M,PB,R2,1079.191722
P26,P3M,PB,R2,1049.642323
P27,P3M,PB,R2,1192.995904
P28,P3M,PB,R2,1155.642793
P01,P3M,PB,R3,1117.090452
P02,P3M,PB,R3,1209.87664
P03,P3M,PB,R3,1203.373531
P04,P3M,PB,R3,1134.798466
P05,P3M,PB,R3,1106.377282
P06,P3M,PB,R3,1126.718858
P07,P3M,PB,R3,1101.504866
P08,P3M,PB,R3,1111.864997
P09,P3M,PB,R3,1115.421667
P10,P3M,PB,R3,1222.920051
P11,P3M,PB,R3,1116.87281
P12,P3M,PB,R3,1185.456579
P13,P3M,PB,R3,1088.612504
P14,P3M,PB,R3,1197.970073
P15,P3M,PB,R3,1070.750669
P16,P3M,PB,R3,1187.672655
P17,P3M,PB,R3,1223.853198
P18,P3M,PB,R3,1231.029012
P19,P3M,PB,R3,1057.473622
P20,P3M,PB,R3,1156.921155
P21,P3M,PB,R3,1137.313587
P22,P3M,PB,R3,1095.483569
P23,P3M,PB,R3,1112.705027
P24,P3M,PB,R3,1110.939083
P25,P3M,PB,R3,1079.552259
P26,P3M,PB,R3,1050.232711
P27,P3M,PB,R3,1194.081461
P28,P3M,PB,R3,1156.157343
