PAT,VIS,OPE,MES,VAL
P01,P3M,XG,R1,126.010609
P02,P3M,XG,R1,146.575788
P03,P3M,XG,R1,104.870386
P04,P3M,XG,R1,133.754593
P05,P3M,XG,R1,107.840659
P06,P3M,XG,R1,133.709428
P07,P3M,XG,R1,113.972333
P08,P3M,XG,R1,130.51899
P09,P3M,XG,R1,121.638855
P10,P3M,XG,R1,88.661349
P11,P3M,XG,R1,120.647903
P12,P3M,XG,R1,82.06188
P13,P3M,XG,R1,87.268197
P14,P3M,XG,R1,110.090224
P15,P3M,XG,R1,100.830537
P16,P3M,XG,R1,96.282025
P17,P3M,XG,R1,144.958777
P18,P3M,XG,R1,114.917153
P19,P3M,XG,R1,111.43878
P20,P3M,XG,R1,145.67299
P21,P3M,XG,R1,112.759728
P22,P3M,XG,R1,105.724509
P23,P3M,XG,R1,103.803942
P24,P3M,XG,R1,73.633323
P25,P3M,XG,R1,119.893191
P26,P3M,XG,R1,97.356536
P27,P3M,XG,R1,118.990029
P28,P3M,XG,R1,119.740992
P01,P3M,XG,R2,125.309607
P02,P3M,XG,R2,146.99811
P03,P3M,XG,R2,105.05747
P04,P3M,XG,R2,132.677812
P05,P3M,XG,R2,107.361614
P06,P3M,XG,R2,134.309076
P07,P3M,XG,R2,108.172784
P08,P3M,XG,R2,130.193863
P09,P3M,XG,R2,126.961017
P10,P3M,XG,R2,89.115487
P11,P3M,XG,R2,124.48206
P12,P3M,XG,R2,81.741748
P13,P3M,XG,R2,83.033857
P14,P3M,XG,R2,110.736044
P15,P3M,XG,R2,97.686414
P16,P3M,XG,R2,96.172738
P17,P3M,XG,R2,146.731362
P18,P3M,XG,R2,116.526202
P19,P3M,XG,R2,112.129917
P20,P3M,XG,R2,145.700946
P21,P3M,XG,R2,113.198606
P22,P3M,XG,R2,106.108182
P23,P3M,XG,R2,103.080675
P24,P3M,XG,R2,73.609782
P25,P3M,XG,R2,119.813934
P26,P3M,XG,R2,101.012889
P27,P3M,XG,R2,133.096491
P28,P3M,XG,R2,119.78585
P01,P3M,XG,R3,124.930863
P02,P3M,XG,R3,148.201788
P03,P3M,XG,R3,106.010215
P04,P3M,XG,R3,132.475221
P05,P3M,XG,R3,106.565943
P06,P3M,XG,R3,134.770209
P07,P3M,XG,R3,108.332837
P08,P3M,XG,R3,127.505833
P09,P3M,XG,R3,119.641463
P10,P3M,XG,R3,88.307757
P11,P3M,XG,R3,123.571312
P12,P3M,XG,R3,84.57116
P13,P3M,XG,R3,83.102774
P14,P3M,XG,R3,111.471551
P15,P3M,XG,R3,98.293866
P16,P3M,XG,R3,98.435804
P17,P3M,XG,R3,145.231957
P18,P3M,XG,R3,123.681188
P19,P3M,XG,R3,111.021878
P20,P3M,XG,R3,145.842711
P21,P3M,XG,R3,112.291184
P22,P3M,XG,R3,107.250063
P23,P3M,XG,R3,103.698278
P24,P3M,XG,R3,72.024385
P25,P3M,XG,R3,120.481451
P26,P3M,XG,R3,94.546667
P27,P3M,XG,R3,130.525874
P28,P3M,XG,R3,119.682894
P01,P3M,PB,R1,121.430388
P02,P3M,PB,R1,147.427871
P03,P3M,PB,R1,105.553534
P04,P3M,PB,R1,129.048797
P05,P3M,PB,R1,110.633784
P06,P3M,PB,R1,139.152401
P07,P3M,PB,R1,113.972333
P08,P3M,PB,R1,133.732344
P09,P3M,PB,R1,123.153223
P10,P3M,PB,R1,89.264335
P11,P3M,PB,R1,125.578639
P12,P3M,PB,R1,81.017458
P13,P3M,PB,R1,85.80216
P14,P3M,PB,R1,110.090224
P15,P3M,PB,R1,98.367197
P16,P3M,PB,R1,98.110539
P17,P3M,PB,R1,142.747509
P18,P3M,PB,R1,119.286022
P19,P3M,PB,R1,110.012615
P20,P3M,PB,R1,138.825731
P21,P3M,PB,R1,117.660876
P22,P3M,PB,R1,105.268419
P23,P3M,PB,R1,112.500514
P24,P3M,PB,R1,75.036365
P25,P3M,PB,R1,120.631191
P26,P3M,PB,R1,108.662914
P27,P3M,PB,R1,114.531706
P28,P3M,PB,R1,120.418168
P01,P3M,PB,R2,126.724415
P02,P3M,PB,R2,146.586936
P03,P3M,PB,R2,105.453243
P04,P3M,PB,R2,132.012531
P05,P3M,PB,R2,105.553779
P06,P3M,PB,R2,138.362808
P07,P3M,PB,R2,110.706072
P08,P3M,PB,R2,128.431121
P09,P3M,PB,R2,120.031444
P10,P3M,PB,R2,87.684741
P11,P3M,PB,R2,120.251258
P12,P3M,PB,R2,80.769289
P13,P3M,PB,R2,80.597342
P14,P3M,PB,R2,110.363007
P15,P3M,PB,R2,100.374699
P16,P3M,PB,R2,98.158248
P17,P3M,PB,R2,137.774515
P18,P3M,PB,R2,118.575985
P19,P3M,PB,R2,110.14053
P20,P3M,PB,R2,142.133973
P21,P3M,PB,R2,120.46054
P22,P3M,PB,R2,103.782661
P23,P3M,PB,R2,101.09114
P24,P3M,PB,R2,74.430742
P25,P3M,PB,R2,124.565268
P26,P3M,PB,R2,104.712862
P27,P3M,PB,R2,112.619228
P28,P3M,PB,R2,118.17162
P01,P3M,PB,R3,122.320768
P02,P3M,PB,R3,148.948612
P03,P3M,PB,R3,104.901621
P04,P3M,PB,R3,127.696314
P05,P3M,PB,R3,107.219368
P06,P3M,PB,R3,125.375287
P07,P3M,PB,R3,104.248686
P08,P3M,PB,R3,128.437226
P09,P3M,PB,R3,115.096277
P10,P3M,PB,R3,75.032755
P11,P3M,PB,R3,121.182276
P12,P3M,PB,R3,80.296484
P13,P3M,PB,R3,83.259804
P14,P3M,PB,R3,110.105528
P15,P3M,PB,R3,98.279887
P16,P3M,PB,R3,97.661088
P17,P3M,PB,R3,139.436772
P18,P3M,PB,R3,121.008654
P19,P3M,PB,R3,108.815819
P20,P3M,PB,R3,140.838046
P21,P3M,PB,R3,116.397553
P22,P3M,PB,R3,107.218902
P23,P3M,PB,R3,105.432401
P24,P3M,PB,R3,74.061603
P25,P3M,PB,R3,122.541676
P26,P3M,PB,R3,101.909365
P27,P3M,PB,R3,128.874345
P28,P3M,PB,R3,120.634406
