"","file_list","MDC_intra","MDC_inter","MDC_testretest"
"1","Contra_Cotyle_R.csv","2.33814088668091","4.55789303545214","2.47250202809231"
"2","Contra_Cotyle_X.csv","4.78946465708753","4.78946465708753","70.7306936825743"
"3","Contra_Cotyle_Y.csv","2.47716977771276","3.4341876539716","31.2173987929379"
"4","Contra_Cotyle_Z.csv","2.57552241233175","4.24077521282089","18.4892240304047"
"5","Contra_FH_R.csv","1.41188864030216","1.50033372452984","1.49014975764145"
"6","Contra_FH_X.csv","4.61019536299648","4.68154576665006","70.5572590626589"
"7","Contra_FH_Y.csv","1.22054917179185","1.44797109135945","31.0948205765539"
"8","Contra_FH_Z.csv","1.53824961865423","1.66642139754044","18.1736458696776"
"9","Contra_LC_R.csv","1.81093432225463","2.02511348082955","2.1974530503943"
"10","Contra_LC_X.csv","4.08682141855876","4.73814033416475","77.864942098059"
"11","Contra_LC_Y.csv","3.27291237283226","3.67200819144101","31.9758400481434"
"12","Contra_LC_Z.csv","1.20737646411502","1.50411297865149","16.4449747093028"
"13","Contra_MC_R.csv","1.86052869944875","2.64426499391946","1.93011059460729"
"14","Contra_MC_X.csv","4.17412596009962","4.95747162408155","76.0649415764822"
"15","Contra_MC_Y.csv","2.89734490479595","4.16602003610575","30.9316026086562"
"16","Contra_MC_Z.csv","1.32515894096185","1.54645345546036","16.8602445632525"
"17","Homo_LC_R.csv","1.75527147968711","1.85485303260063","2.07989495807919"
"18","Homo_LC_X.csv","4.48710912630284","5.33040914552786","72.4434647543446"
"19","Homo_LC_Y.csv","3.95850366730266","4.31595429798845","30.8011399084064"
"20","Homo_LC_Z.csv","1.28629206922836","1.4046194591902","18.9414270768934"
"21","Homo_MC_R.csv","1.68683229767359","2.40003220893482","2.06916806214793"
"22","Homo_MC_X.csv","5.46126395505","5.92117966376983","78.1255202763131"
"23","Homo_MC_Y.csv","3.04095354059663","3.4504311113273","31.6943277425486"
"24","Homo_MC_Z.csv","1.325474618247","1.33631367205517","18.5790929312075"
"25","PSYM_X.csv","4.98532647964045","5.54361745041525","74.7455456950322"
"26","PSYM_Y.csv","1.82933749154831","1.77944869308852","23.2875236392635"
"27","PSYM_Z.csv","3.23719354888424","3.40239923935444","22.6953169937991"
"28","SSC_X.csv","6.27526019945794","7.06197354404516","78.1957606709703"
"29","SSC_Y.csv","5.87998402588529","5.87998402588529","21.2754155826745"
"30","SSC_Z.csv","4.85938697998024","4.98951423680957","24.3406123577387"
