PAT_ID,Age,Weight,Height,Sex,SideOA
10332,67,77,164,F,L
10358,59,94,182,M,L
10516,60,75,157,F,R
10532,57,68,166,F,R
10685,74,69,157,F,R
10857,58,84,165,F,L
10977,60,85,172,M,R
11060,49,105,186,M,R
11097,73,70,164,F,R
11164,72,100,168,F,L
11171,30,122,180,M,L
11183,79,50,170,M,R
11205,73,84,162,F,L
11252,66,72,163,F,R
11297,53,91,154,F,L
11352,69,80,183,M,L
11383,64,92,168,F,R
11434,71,57,157,F,L
11481,73,80,174,M,L
11601,80,65,159,F,R
11628,47,80,172,M,L
11715,65,92,186,M,R
11745,73,66,170,M,R
11770,76,72,172,F,L
11791,85,46,153,F,R
11879,69,66,168,F,R
12017,76,47,161,F,R
12078,62,90,171,M,L
