PAT,VIS,OPE,MES,VAL
P01,P3M,XG,R1,31.7499999999999
P02,P3M,XG,R1,28.4999999999995
P03,P3M,XG,R1,24.7500000000008
P04,P3M,XG,R1,39.75
P05,P3M,XG,R1,37.7499999999999
P06,P3M,XG,R1,33.75
P07,P3M,XG,R1,35.5
P08,P3M,XG,R1,37.75
P09,P3M,XG,R1,31.7499999999993
P10,P3M,XG,R1,35.7499999999998
P11,P3M,XG,R1,41.5000000000003
P12,P3M,XG,R1,33.7499999999999
P13,P3M,XG,R1,31.7499999999999
P14,P3M,XG,R1,39.7499999999997
P15,P3M,XG,R1,36.0000000000006
P16,P3M,XG,R1,36.5000000000006
P17,P3M,XG,R1,32.7499999999995
P18,P3M,XG,R1,35.7499999999999
P19,P3M,XG,R1,35.7499999999997
P20,P3M,XG,R1,37.4999999999998
P21,P3M,XG,R1,35.7499999999997
P22,P3M,XG,R1,34.8618259872972
P23,P3M,XG,R1,41.75
P24,P3M,XG,R1,35.7499999999999
P25,P3M,XG,R1,34.9999999999998
P26,P3M,XG,R1,37
P27,P3M,XG,R1,37.7499999999998
P28,P3M,XG,R1,36.9999999999993
P01,P3M,XG,R2,32.9999999999991
P02,P3M,XG,R2,27.4999999999982
P03,P3M,XG,R2,25.4999999999995
P04,P3M,XG,R2,39.9999999999995
P05,P3M,XG,R2,37.7499999999993
P06,P3M,XG,R2,31.7499999999995
P07,P3M,XG,R2,35.7499999999998
P08,P3M,XG,R2,37.7499999999998
P09,P3M,XG,R2,33.5000000000002
P10,P3M,XG,R2,33.7499999999987
P11,P3M,XG,R2,39.75
P12,P3M,XG,R2,37.5000000000003
P13,P3M,XG,R2,28.7499999999986
P14,P3M,XG,R2,38.0000000000001
P15,P3M,XG,R2,37.4999999999998
P16,P3M,XG,R2,37.0000000000001
P17,P3M,XG,R2,31.7499999999991
P18,P3M,XG,R2,37.7499999999999
P19,P3M,XG,R2,35.0000000000009
P20,P3M,XG,R2,35.7499999999996
P21,P3M,XG,R2,33.7499999999992
P22,P3M,XG,R2,35.5000000000001
P23,P3M,XG,R2,41.7499999999998
P24,P3M,XG,R2,39.5
P25,P3M,XG,R2,35.7499999999997
P26,P3M,XG,R2,29.5
P27,P3M,XG,R2,33.7499999999999
P28,P3M,XG,R2,39.7499999999999
P01,P3M,XG,R3,33.7499999999997
P02,P3M,XG,R3,26.4999999999997
P03,P3M,XG,R3,23.999999999999
P04,P3M,XG,R3,38.2499999999999
P05,P3M,XG,R3,37.2499999999995
P06,P3M,XG,R3,31.749999999999
P07,P3M,XG,R3,35.7499999999997
P08,P3M,XG,R3,37.9999999999998
P09,P3M,XG,R3,29.9999999999988
P10,P3M,XG,R3,34.7500000000002
P11,P3M,XG,R3,40.4999999999997
P12,P3M,XG,R3,39.4999999999997
P13,P3M,XG,R3,33.2500166325903
P14,P3M,XG,R3,35.7499999999994
P15,P3M,XG,R3,34.7499999999998
P16,P3M,XG,R3,38.7499999999998
P17,P3M,XG,R3,31.0000000000004
P18,P3M,XG,R3,37.7500000000008
P19,P3M,XG,R3,37.5000000000004
P20,P3M,XG,R3,35.2499999999993
P21,P3M,XG,R3,35.2500000000001
P22,P3M,XG,R3,37.7499999999986
P23,P3M,XG,R3,42.4999999999985
P24,P3M,XG,R3,33.75
P25,P3M,XG,R3,34.7499999999995
P26,P3M,XG,R3,39.4999999999994
P27,P3M,XG,R3,34.25
P28,P3M,XG,R3,37.4999999999997
P01,P3M,PB,R1,32.4999999999999
P02,P3M,PB,R1,26.9999999999991
P03,P3M,PB,R1,21.749999999997
P04,P3M,PB,R1,37.5000000000002
P05,P3M,PB,R1,35.9999999999993
P06,P3M,PB,R1,31.5000000000001
P07,P3M,PB,R1,36.0000000000003
P08,P3M,PB,R1,37.7499999999993
P09,P3M,PB,R1,35.7499999999999
P10,P3M,PB,R1,33.2499999999995
P11,P3M,PB,R1,32.2500000000001
P12,P3M,PB,R1,34.2500000000008
P13,P3M,PB,R1,47.7499999999991
P14,P3M,PB,R1,36.0000000000004
P15,P3M,PB,R1,33.5
P16,P3M,PB,R1,37.2500000000002
P17,P3M,PB,R1,30.2499999999996
P18,P3M,PB,R1,33.5000000000002
P19,P3M,PB,R1,34.7499999999999
P20,P3M,PB,R1,41.75
P21,P3M,PB,R1,32.7499999999988
P22,P3M,PB,R1,38.0000000000005
P23,P3M,PB,R1,30.9999999999995
P24,P3M,PB,R1,34.9999999999991
P25,P3M,PB,R1,31.7499999999991
P26,P3M,PB,R1,31.7499999999995
P27,P3M,PB,R1,37.7499999999996
P28,P3M,PB,R1,38.9999999999996
P01,P3M,PB,R2,31.7500000000006
P02,P3M,PB,R2,28.9999999999996
P03,P3M,PB,R2,25.4999999999973
P04,P3M,PB,R2,35.7499999999998
P05,P3M,PB,R2,33.9999999999998
P06,P3M,PB,R2,27.4999999999997
P07,P3M,PB,R2,35.9999999999998
P08,P3M,PB,R2,38.7499999999998
P09,P3M,PB,R2,32.2499999999999
P10,P3M,PB,R2,35.7499999999991
P11,P3M,PB,R2,41.2500000000002
P12,P3M,PB,R2,33.4999999999993
P13,P3M,PB,R2,36.7499999999997
P14,P3M,PB,R2,34.7499999999998
P15,P3M,PB,R2,33
P16,P3M,PB,R2,37.9999999999998
P17,P3M,PB,R2,31.7499999999993
P18,P3M,PB,R2,35.5
P19,P3M,PB,R2,35.7500000000008
P20,P3M,PB,R2,35.75
P21,P3M,PB,R2,35.4999999999999
P22,P3M,PB,R2,37.7499999999997
P23,P3M,PB,R2,37.9999999999995
P24,P3M,PB,R2,38.5000000000006
P25,P3M,PB,R2,32.9999999999994
P26,P3M,PB,R2,31.7499999999997
P27,P3M,PB,R2,33.7499999999997
P28,P3M,PB,R2,41.5
P01,P3M,PB,R3,33.7500000000001
P02,P3M,PB,R3,24.9999999999994
P03,P3M,PB,R3,19.4999999999992
P04,P3M,PB,R3,35.9999999999998
P05,P3M,PB,R3,34.7499999999997
P06,P3M,PB,R3,28.9999999999994
P07,P3M,PB,R3,35.5
P08,P3M,PB,R3,39.2499999999992
P09,P3M,PB,R3,30.7499999999999
P10,P3M,PB,R3,35.0000000000002
P11,P3M,PB,R3,33.2499999999996
P12,P3M,PB,R3,35.4999999999986
P13,P3M,PB,R3,36.2499999999996
P14,P3M,PB,R3,33.7499999999997
P15,P3M,PB,R3,34.5000000000002
P16,P3M,PB,R3,38.5000000000003
P17,P3M,PB,R3,29.5000000000006
P18,P3M,PB,R3,35.5000000000002
P19,P3M,PB,R3,33.5000000000004
P20,P3M,PB,R3,31.4999999999969
P21,P3M,PB,R3,33.7499999999999
P22,P3M,PB,R3,35.7499999999997
P23,P3M,PB,R3,41.5000000000001
P24,P3M,PB,R3,41.75
P25,P3M,PB,R3,32.2500000000001
P26,P3M,PB,R3,31.2499999999997
P27,P3M,PB,R3,33.7499999999999
P28,P3M,PB,R3,37.7499999999995
