Group,Participant,Session,Operator,Measure,Value,Unit
CTR,P01,INI,FM,M1,17.3355755961154,%
CTR,P01,INI,FM,M2,16.9433379404795,%
CTR,P01,INI,FM,M3,19.6222233687383,%
CTR,P01,REL,FM,M1,18.5855530838858,%
CTR,P01,REL,FM,M2,14.0908438437788,%
CTR,P01,REL,FM,M3,18.2307310483425,%
CTR,P02,INI,FM,M1,16.4213329928865,%
CTR,P02,INI,FM,M2,28.0064599195401,%
CTR,P02,INI,FM,M3,31.1923035842845,%
CTR,P02,REL,FM,M1,41.6896597920177,%
CTR,P02,REL,FM,M2,30.7388820527379,%
CTR,P02,REL,FM,M3,27.2763180964076,%
CTR,P03,INI,FM,M1,15.9428760752053,%
CTR,P03,INI,FM,M2,11.4575719929908,%
CTR,P03,INI,FM,M3,20.4968712877189,%
CTR,P03,REL,FM,M1,19.8241250716771,%
CTR,P03,REL,FM,M2,26.8552571690502,%
CTR,P03,REL,FM,M3,15.5571679548501,%
CTR,P05,INI,FM,M1,39.4802575343746,%
CTR,P05,INI,FM,M2,50.5393399106088,%
CTR,P05,INI,FM,M3,35.7676647544904,%
CTR,P05,REL,FM,M1,36.5413989578505,%
CTR,P05,REL,FM,M2,26.5199464299588,%
CTR,P05,REL,FM,M3,24.4549694512778,%
CTR,P06,INI,FM,M1,24.6161915965561,%
CTR,P06,INI,FM,M2,33.7275147687903,%
CTR,P06,INI,FM,M3,26.0181594966181,%
CTR,P06,REL,FM,M1,48.0452696863955,%
CTR,P06,REL,FM,M2,37.2373284128698,%
CTR,P06,REL,FM,M3,38.2273337088583,%
CTR,P07,INI,FM,M1,19.1760281033287,%
CTR,P07,INI,FM,M2,19.1420870647424,%
CTR,P07,INI,FM,M3,17.5160588930294,%
CTR,P07,REL,FM,M1,65.4075217226822,%
CTR,P07,REL,FM,M2,65.8790348088755,%
CTR,P07,REL,FM,M3,53.8800123763398,%
CTR,P08,INI,FM,M1,17.3378362229765,%
CTR,P08,INI,FM,M2,18.4268553518601,%
CTR,P08,INI,FM,M3,18.8399999975691,%
CTR,P08,REL,FM,M1,33.3266538500854,%
CTR,P08,REL,FM,M2,30.170867592277,%
CTR,P08,REL,FM,M3,31.3857494508038,%
CTR,P13,INI,FM,M1,20.3591861857038,%
CTR,P13,INI,FM,M2,22.4118523559637,%
CTR,P13,INI,FM,M3,22.3489402902405,%
CTR,P13,REL,FM,M1,17.2746576210083,%
CTR,P13,REL,FM,M2,21.0874087522153,%
CTR,P13,REL,FM,M3,19.6286218516774,%
CTR,P16,INI,FM,M1,42.3149218618933,%
CTR,P16,INI,FM,M2,42.0404509519236,%
CTR,P16,INI,FM,M3,39.7634488471516,%
CTR,P16,REL,FM,M1,38.7704854543976,%
CTR,P16,REL,FM,M2,34.4231135594885,%
CTR,P16,REL,FM,M3,37.8462517679951,%
CTR,P21,INI,FM,M1,59.9665603898371,%
CTR,P21,INI,FM,M2,60.439434555827,%
CTR,P21,INI,FM,M3,53.6968002243504,%
CTR,P21,REL,FM,M1,34.1078280691863,%
CTR,P21,REL,FM,M2,35.4081761203697,%
CTR,P21,REL,FM,M3,34.8265353183052,%
CTR,P22,INI,FM,M1,32.4143331197132,%
CTR,P22,INI,FM,M2,30.0290558808178,%
CTR,P22,INI,FM,M3,29.1792193313039,%
CTR,P22,REL,FM,M1,29.2617307934625,%
CTR,P22,REL,FM,M2,33.0112177325894,%
CTR,P22,REL,FM,M3,33.3512616743185,%
CTR,P23,INI,FM,M1,47.211618683457,%
CTR,P23,INI,FM,M2,40.690629316595,%
CTR,P23,INI,FM,M3,47.4177149889458,%
CTR,P23,REL,FM,M1,60.5773187807636,%
CTR,P23,REL,FM,M2,24.9660189672246,%
CTR,P23,REL,FM,M3,17.6920828449283,%
CTR,P25,INI,FM,M1,74.2855459021041,%
CTR,P25,INI,FM,M2,68.659540077646,%
CTR,P25,INI,FM,M3,76.8181091297272,%
CTR,P25,REL,FM,M1,64.6172155240012,%
CTR,P25,REL,FM,M2,83.3100140279508,%
CTR,P25,REL,FM,M3,60.3001642235925,%
CTR,P35,INI,FM,M1,41.6306816757979,%
CTR,P35,INI,FM,M2,16.1257824805208,%
CTR,P35,INI,FM,M3,43.0559772433453,%
CTR,P35,REL,FM,M1,20.3125867479424,%
CTR,P35,REL,FM,M2,18.9463837371179,%
CTR,P35,REL,FM,M3,53.2608003132955,%
CTR,P38,INI,FM,M1,25.4186030105781,%
CTR,P38,INI,FM,M2,16.4939831265959,%
CTR,P38,INI,FM,M3,15.9205769242074,%
CTR,P38,REL,FM,M1,9.2215808449712,%
CTR,P38,REL,FM,M2,12.842331346183,%
CTR,P38,REL,FM,M3,43.2646322437002,%
CTR,P39,INI,FM,M1,27.0754923375216,%
CTR,P39,INI,FM,M2,19.1140648886207,%
CTR,P39,INI,FM,M3,42.0279400428523,%
CTR,P39,REL,FM,M1,18.2483355905651,%
CTR,P39,REL,FM,M2,28.5976773587348,%
CTR,P39,REL,FM,M3,25.0389016446047,%
CTR,P40,INI,FM,M1,12.2020360270377,%
CTR,P40,INI,FM,M2,14.6130037729482,%
CTR,P40,INI,FM,M3,39.0790394694732,%
CTR,P40,REL,FM,M1,17.7119706210174,%
CTR,P40,REL,FM,M2,15.7628707861151,%
CTR,P40,REL,FM,M3,42.5190104548302,%
CTR,P44,INI,FM,M1,27.6983087705947,%
CTR,P44,INI,FM,M2,42.5869486508552,%
CTR,P44,INI,FM,M3,49.8578202274921,%
CTR,P44,REL,FM,M1,28.5423503762565,%
CTR,P44,REL,FM,M2,23.9955606469944,%
CTR,P44,REL,FM,M3,51.2208950577749,%
CTR,P46,INI,FM,M1,33.1102812685554,%
CTR,P46,INI,FM,M2,33.4020387323743,%
CTR,P46,INI,FM,M3,45.8738750461664,%
CTR,P46,REL,FM,M1,23.0980017943459,%
CTR,P46,REL,FM,M2,16.9040552984949,%
CTR,P46,REL,FM,M3,43.6861023985276,%
CTR,P48,INI,FM,M1,37.1350890448243,%
CTR,P48,INI,FM,M2,38.1633025897853,%
CTR,P48,INI,FM,M3,50.5157883289014,%
CTR,P48,REL,FM,M1,35.9761639020192,%
CTR,P48,REL,FM,M2,39.5453304189182,%
CTR,P48,REL,FM,M3,42.0880367366905,%
CTR,P49,INI,FM,M1,18.9815255185493,%
CTR,P49,INI,FM,M2,19.3497475519936,%
CTR,P49,INI,FM,M3,70.5780730284387,%
CTR,P49,REL,FM,M1,31.9192246004921,%
CTR,P49,REL,FM,M2,39.732937786227,%
CTR,P49,REL,FM,M3,45.3682204793185,%
CTR,P52,INI,FM,M1,42.7856979056753,%
CTR,P52,INI,FM,M2,46.5826827974902,%
CTR,P52,INI,FM,M3,33.4179756104113,%
CTR,P52,REL,FM,M1,60.405727685402,%
CTR,P52,REL,FM,M2,56.8021182394883,%
CTR,P52,REL,FM,M3,60.1996878053583,%
CTR,P55,INI,FM,M1,58.2653179674847,%
CTR,P55,INI,FM,M2,41.5384374243866,%
CTR,P55,INI,FM,M3,56.5239537201795,%
CTR,P55,REL,FM,M1,38.0282881520183,%
CTR,P55,REL,FM,M2,38.945352692979,%
CTR,P55,REL,FM,M3,12.1753843500967,%
CTR,P56,INI,FM,M1,56.4682825593018,%
CTR,P56,INI,FM,M2,49.2797397356442,%
CTR,P56,INI,FM,M3,50.7555789482636,%
CTR,P56,REL,FM,M1,57.8157995092408,%
CTR,P56,REL,FM,M2,56.758797380058,%
CTR,P56,REL,FM,M3,69.5253166488446,%
CTR,P57,INI,FM,M1,48.782977132524,%
CTR,P57,INI,FM,M2,53.7724593685781,%
CTR,P57,INI,FM,M3,59.1959262674711,%
CTR,P57,REL,FM,M1,55.1606299903181,%
CTR,P57,REL,FM,M2,62.7727885698698,%
CTR,P57,REL,FM,M3,,%
CTR,P60,INI,FM,M1,54.8251973265366,%
CTR,P60,INI,FM,M2,54.6263017651376,%
CTR,P60,INI,FM,M3,65.8507861563418,%
CTR,P60,REL,FM,M1,33.4342293946929,%
CTR,P60,REL,FM,M2,64.7987609852942,%
CTR,P60,REL,FM,M3,61.0624050492618,%
CTR,P64,INI,FM,M1,36.5557063530387,%
CTR,P64,INI,FM,M2,37.9085399362783,%
CTR,P64,INI,FM,M3,37.8933711961713,%
CTR,P64,REL,FM,M1,36.0424310518233,%
CTR,P64,REL,FM,M2,34.5677580692966,%
CTR,P64,REL,FM,M3,35.7291030286368,%
CTR,P66,INI,FM,M1,43.9152263951015,%
CTR,P66,INI,FM,M2,33.5360897691557,%
CTR,P66,INI,FM,M3,45.458135682662,%
CTR,P66,REL,FM,M1,20.6877060226076,%
CTR,P66,REL,FM,M2,10.6391993979521,%
CTR,P66,REL,FM,M3,27.8683354064001,%
CTR,P67,INI,FM,M1,75.3455281334564,%
CTR,P67,INI,FM,M2,13.4859044422583,%
CTR,P67,INI,FM,M3,36.2762208958818,%
CTR,P67,REL,FM,M1,57.2765904941336,%
CTR,P67,REL,FM,M2,55.7379363753212,%
CTR,P67,REL,FM,M3,49.2761100304149,%
CTR,P68,INI,FM,M1,23.0926380194425,%
CTR,P68,INI,FM,M2,54.2610771844345,%
CTR,P68,INI,FM,M3,45.9903648468236,%
CTR,P68,REL,FM,M1,41.946753008093,%
CTR,P68,REL,FM,M2,39.994399717197,%
CTR,P68,REL,FM,M3,38.3031837993525,%
