Group,Participant,Session,Operator,Measure,Value,Unit
PAT,P09,INI,FM,M1,79.2653639372957,%
PAT,P09,INI,FM,M2,39.7335947807117,%
PAT,P09,INI,FM,M3,75.0983641406213,%
PAT,P09,REL,FM,M1,23.1924634115225,%
PAT,P09,REL,FM,M2,34.9820461735775,%
PAT,P09,REL,FM,M3,26.0122472760235,%
PAT,P10,INI,FM,M1,2.9379105189452,%
PAT,P10,INI,FM,M2,2.20010296814248,%
PAT,P10,INI,FM,M3,2.37049100330205,%
PAT,P10,REL,FM,M1,3.96788441955736,%
PAT,P10,REL,FM,M2,7.1277350614827,%
PAT,P10,REL,FM,M3,4.68858988355652,%
PAT,P11,INI,FM,M1,80.8404342108074,%
PAT,P11,INI,FM,M2,63.0264765954421,%
PAT,P11,INI,FM,M3,64.7582193443244,%
PAT,P11,REL,FM,M1,30.7258588381655,%
PAT,P11,REL,FM,M2,37.2296159176949,%
PAT,P11,REL,FM,M3,28.7913819519264,%
PAT,P12,INI,FM,M1,26.9382171204883,%
PAT,P12,INI,FM,M2,43.5584566374943,%
PAT,P12,INI,FM,M3,31.9634234649854,%
PAT,P12,REL,FM,M1,5.70974292470039,%
PAT,P12,REL,FM,M2,6.19423449624367,%
PAT,P12,REL,FM,M3,8.09528577758731,%
PAT,P14,INI,FM,M1,10.655669807497,%
PAT,P14,INI,FM,M2,14.9027745538075,%
PAT,P14,INI,FM,M3,23.8221748495426,%
PAT,P14,REL,FM,M1,5.94973269605573,%
PAT,P14,REL,FM,M2,6.06127638362542,%
PAT,P14,REL,FM,M3,8.13588069652574,%
PAT,P17,INI,FM,M1,14.0873548911408,%
PAT,P17,INI,FM,M2,16.9449439683119,%
PAT,P17,INI,FM,M3,12.412446436399,%
PAT,P17,REL,FM,M1,15.723017914642,%
PAT,P17,REL,FM,M2,12.3129728899049,%
PAT,P17,REL,FM,M3,11.4853451826782,%
PAT,P24,INI,FM,M1,9.37084578514816,%
PAT,P24,INI,FM,M2,7.20839376664878,%
PAT,P24,INI,FM,M3,9.33360614199559,%
PAT,P24,REL,FM,M1,11.5025246434221,%
PAT,P24,REL,FM,M2,12.414584032978,%
PAT,P24,REL,FM,M3,12.6949037815508,%
PAT,P26,INI,FM,M1,14.5564866580499,%
PAT,P26,INI,FM,M2,23.5628078526859,%
PAT,P26,INI,FM,M3,35.7179120006212,%
PAT,P26,REL,FM,M1,64.7960472838082,%
PAT,P26,REL,FM,M2,76.2653520395313,%
PAT,P26,REL,FM,M3,72.0934234820586,%
PAT,P27,INI,FM,M1,4.00179388571806,%
PAT,P27,INI,FM,M2,3.19138037589131,%
PAT,P27,INI,FM,M3,5.90944851017635,%
PAT,P27,REL,FM,M1,6.59559579840835,%
PAT,P27,REL,FM,M2,7.27074717390862,%
PAT,P27,REL,FM,M3,6.74822663543358,%
PAT,P28,INI,FM,M1,11.7642147373648,%
PAT,P28,INI,FM,M2,14.2583189734534,%
PAT,P28,INI,FM,M3,13.0765800550881,%
PAT,P28,REL,FM,M1,8.07491462734592,%
PAT,P28,REL,FM,M2,9.20125648095121,%
PAT,P28,REL,FM,M3,12.5621636749888,%
PAT,P29,INI,FM,M1,11.5731694588444,%
PAT,P29,INI,FM,M2,11.5466138585036,%
PAT,P29,INI,FM,M3,16.5636192465905,%
PAT,P29,REL,FM,M1,17.9102707814812,%
PAT,P29,REL,FM,M2,10.734179190273,%
PAT,P29,REL,FM,M3,24.2534907490163,%
PAT,P30,INI,FM,M1,4.77406740716633,%
PAT,P30,INI,FM,M2,5.83755834420111,%
PAT,P30,INI,FM,M3,5.01542661485702,%
PAT,P30,REL,FM,M1,3.46221756069275,%
PAT,P30,REL,FM,M2,5.55847274485787,%
PAT,P30,REL,FM,M3,5.10286209142031,%
PAT,P32,INI,FM,M1,12.9291305140663,%
PAT,P32,INI,FM,M2,12.7136911427582,%
PAT,P32,INI,FM,M3,12.9682960579976,%
PAT,P32,REL,FM,M1,8.30499803338889,%
PAT,P32,REL,FM,M2,6.3748368156456,%
PAT,P32,REL,FM,M3,8.65313585255112,%
PAT,P33,INI,FM,M1,7.62424791835572,%
PAT,P33,INI,FM,M2,8.22077071274868,%
PAT,P33,INI,FM,M3,7.28067046213954,%
PAT,P33,REL,FM,M1,14.643252454656,%
PAT,P33,REL,FM,M2,13.7240161503776,%
PAT,P33,REL,FM,M3,17.1001486552644,%
PAT,P34,INI,FM,M1,17.2779734841791,%
PAT,P34,INI,FM,M2,19.6558500392037,%
PAT,P34,INI,FM,M3,21.4804113084939,%
PAT,P34,REL,FM,M1,44.1394694184289,%
PAT,P34,REL,FM,M2,45.1755048505865,%
PAT,P34,REL,FM,M3,34.9966696265872,%
PAT,P36,INI,FM,M1,5.05892221281955,%
PAT,P36,INI,FM,M2,6.53798916874661,%
PAT,P36,INI,FM,M3,7.94270517405467,%
PAT,P36,REL,FM,M1,7.35770933791197,%
PAT,P36,REL,FM,M2,6.8729586796819,%
PAT,P36,REL,FM,M3,9.38468564196957,%
PAT,P41,INI,FM,M1,6.16566041730249,%
PAT,P41,INI,FM,M2,6.01259331238721,%
PAT,P41,INI,FM,M3,5.19290781844826,%
PAT,P41,REL,FM,M1,8.6542154008978,%
PAT,P41,REL,FM,M2,6.63200585927676,%
PAT,P41,REL,FM,M3,9.29039112348986,%
PAT,P42,INI,FM,M1,8.92736453895495,%
PAT,P42,INI,FM,M2,6.83866187760491,%
PAT,P42,INI,FM,M3,4.8374168465835,%
PAT,P42,REL,FM,M1,7.81687208380509,%
PAT,P42,REL,FM,M2,8.3788033164298,%
PAT,P42,REL,FM,M3,6.20747036614326,%
PAT,P43,INI,FM,M1,72.2873456957591,%
PAT,P43,INI,FM,M2,75.4036330498415,%
PAT,P43,INI,FM,M3,57.1890570903367,%
PAT,P43,REL,FM,M1,69.4072816320531,%
PAT,P43,REL,FM,M2,61.8454925248651,%
PAT,P43,REL,FM,M3,73.0461894870235,%
PAT,P45,INI,FM,M1,19.0076362600273,%
PAT,P45,INI,FM,M2,17.2236154839321,%
PAT,P45,INI,FM,M3,15.3018769077442,%
PAT,P45,REL,FM,M1,7.2979222866681,%
PAT,P45,REL,FM,M2,6.24769025205056,%
PAT,P45,REL,FM,M3,7.90910837624395,%
PAT,P47,INI,FM,M1,63.0276484812603,%
PAT,P47,INI,FM,M2,68.6023432354568,%
PAT,P47,INI,FM,M3,44.1144922018629,%
PAT,P47,REL,FM,M1,15.5009211628936,%
PAT,P47,REL,FM,M2,18.6173974149729,%
PAT,P47,REL,FM,M3,28.0407552813892,%
PAT,P50,INI,FM,M1,6.20514042699905,%
PAT,P50,INI,FM,M2,7.47976428329759,%
PAT,P50,INI,FM,M3,10.7677193270365,%
PAT,P50,REL,FM,M1,6.71135185254819,%
PAT,P50,REL,FM,M2,10.7914561830399,%
PAT,P50,REL,FM,M3,11.4889675061708,%
PAT,P51,INI,FM,M1,11.6131946959535,%
PAT,P51,INI,FM,M2,9.90290983417305,%
PAT,P51,INI,FM,M3,12.8828361024813,%
PAT,P51,REL,FM,M1,9.77537788119471,%
PAT,P51,REL,FM,M2,9.12777838978289,%
PAT,P51,REL,FM,M3,9.1418912536342,%
PAT,P53,INI,FM,M1,10.7874378619787,%
PAT,P53,INI,FM,M2,8.12861134187282,%
PAT,P53,INI,FM,M3,7.64386404169111,%
PAT,P53,REL,FM,M1,10.5905254339251,%
PAT,P53,REL,FM,M2,13.4842305577314,%
PAT,P53,REL,FM,M3,16.3611081701593,%
PAT,P54,INI,FM,M1,22.8233187288415,%
PAT,P54,INI,FM,M2,24.1806505980985,%
PAT,P54,INI,FM,M3,18.1401971795388,%
PAT,P54,REL,FM,M1,34.0213426243362,%
PAT,P54,REL,FM,M2,33.3179115418292,%
PAT,P54,REL,FM,M3,35.0003524433282,%
PAT,P58,INI,FM,M1,11.7857802116005,%
PAT,P58,INI,FM,M2,18.2360810226796,%
PAT,P58,INI,FM,M3,16.8688144340873,%
PAT,P58,REL,FM,M1,30.2970968106878,%
PAT,P58,REL,FM,M2,46.6184603371411,%
PAT,P58,REL,FM,M3,40.0959046220414,%
PAT,P61,INI,FM,M1,47.509605676216,%
PAT,P61,INI,FM,M2,40.0773765503725,%
PAT,P61,INI,FM,M3,52.9501387698839,%
PAT,P61,REL,FM,M1,34.3832835310809,%
PAT,P61,REL,FM,M2,41.9315882170314,%
PAT,P61,REL,FM,M3,69.4153176095397,%
PAT,P62,INI,FM,M1,26.967134197417,%
PAT,P62,INI,FM,M2,26.565828375555,%
PAT,P62,INI,FM,M3,46.86497864324,%
PAT,P62,REL,FM,M1,14.7207386693374,%
PAT,P62,REL,FM,M2,13.8801422249678,%
PAT,P62,REL,FM,M3,16.532335125173,%
PAT,P63,INI,FM,M1,48.2734495306426,%
PAT,P63,INI,FM,M2,60.5438381541235,%
PAT,P63,INI,FM,M3,63.6966736384692,%
PAT,P63,REL,FM,M1,49.3496145774807,%
PAT,P63,REL,FM,M2,50.6754797642274,%
PAT,P63,REL,FM,M3,36.9250712620157,%
PAT,P65,INI,FM,M1,11.38413920674,%
PAT,P65,INI,FM,M2,12.3005723407073,%
PAT,P65,INI,FM,M3,9.74044524382868,%
PAT,P65,REL,FM,M1,15.0893789589889,%
PAT,P65,REL,FM,M2,14.4390255283964,%
PAT,P65,REL,FM,M3,22.6905988034629,%
