Group,Participant,Session,Operator,Measure,Value,Unit
PAT,P09,INI,FM,M1,0.407324801414955,m.s-1
PAT,P09,INI,FM,M2,0.565748256567469,m.s-1
PAT,P09,INI,FM,M3,0.590775036519371,m.s-1
PAT,P09,REL,FM,M1,1.2659326122025,m.s-1
PAT,P09,REL,FM,M2,0.528489710211399,m.s-1
PAT,P09,REL,FM,M3,0.323410142196445,m.s-1
PAT,P10,INI,FM,M1,0.54872961991876,m.s-1
PAT,P10,INI,FM,M2,0.94444289361488,m.s-1
PAT,P10,INI,FM,M3,0.946564976456932,m.s-1
PAT,P10,REL,FM,M1,0.385219096968435,m.s-1
PAT,P10,REL,FM,M2,0.706187868745,m.s-1
PAT,P10,REL,FM,M3,0.679788766772612,m.s-1
PAT,P11,INI,FM,M1,0.285275042816364,m.s-1
PAT,P11,INI,FM,M2,0.518030060691737,m.s-1
PAT,P11,INI,FM,M3,0.376921779762773,m.s-1
PAT,P11,REL,FM,M1,0.276058566206301,m.s-1
PAT,P11,REL,FM,M2,0.471842271917551,m.s-1
PAT,P11,REL,FM,M3,0.307649075394596,m.s-1
PAT,P12,INI,FM,M1,0.289291737509256,m.s-1
PAT,P12,INI,FM,M2,0.498400424208039,m.s-1
PAT,P12,INI,FM,M3,0.423405557031775,m.s-1
PAT,P12,REL,FM,M1,0.23031698699809,m.s-1
PAT,P12,REL,FM,M2,0.248157892199394,m.s-1
PAT,P12,REL,FM,M3,0.249537558677801,m.s-1
PAT,P14,INI,FM,M1,0.206422326756359,m.s-1
PAT,P14,INI,FM,M2,0.320783740626513,m.s-1
PAT,P14,INI,FM,M3,0.495141332344176,m.s-1
PAT,P14,REL,FM,M1,0.0848863350776497,m.s-1
PAT,P14,REL,FM,M2,0.467020385399462,m.s-1
PAT,P14,REL,FM,M3,0.550824309946579,m.s-1
PAT,P17,INI,FM,M1,0.313831267789706,m.s-1
PAT,P17,INI,FM,M2,0.495787606239042,m.s-1
PAT,P17,INI,FM,M3,0.44264106939466,m.s-1
PAT,P17,REL,FM,M1,0.340933694650755,m.s-1
PAT,P17,REL,FM,M2,0.552895980211994,m.s-1
PAT,P17,REL,FM,M3,0.508732389839007,m.s-1
PAT,P24,INI,FM,M1,0.522198627656961,m.s-1
PAT,P24,INI,FM,M2,0.429340738187439,m.s-1
PAT,P24,INI,FM,M3,0.407009695388383,m.s-1
PAT,P24,REL,FM,M1,0.322006664286886,m.s-1
PAT,P24,REL,FM,M2,0.382363373736329,m.s-1
PAT,P24,REL,FM,M3,0.436054156383206,m.s-1
PAT,P26,INI,FM,M1,0.406406291353647,m.s-1
PAT,P26,INI,FM,M2,0.456536958585959,m.s-1
PAT,P26,INI,FM,M3,0.479012959553292,m.s-1
PAT,P26,REL,FM,M1,0.372407602117001,m.s-1
PAT,P26,REL,FM,M2,0.611655728492568,m.s-1
PAT,P26,REL,FM,M3,0.460566607127101,m.s-1
PAT,P27,INI,FM,M1,0.248691247721173,m.s-1
PAT,P27,INI,FM,M2,0.282930949154721,m.s-1
PAT,P27,INI,FM,M3,0.550836019004431,m.s-1
PAT,P27,REL,FM,M1,0.245473132733449,m.s-1
PAT,P27,REL,FM,M2,0.418103961003384,m.s-1
PAT,P27,REL,FM,M3,0.418288794181428,m.s-1
PAT,P28,INI,FM,M1,0.44723645194954,m.s-1
PAT,P28,INI,FM,M2,0.593475812619095,m.s-1
PAT,P28,INI,FM,M3,0.533980231896543,m.s-1
PAT,P28,REL,FM,M1,0.354354487658765,m.s-1
PAT,P28,REL,FM,M2,0.539239932762214,m.s-1
PAT,P28,REL,FM,M3,0.660936733774153,m.s-1
PAT,P29,INI,FM,M1,0.460054076317024,m.s-1
PAT,P29,INI,FM,M2,-0.00648174699093845,m.s-1
PAT,P29,INI,FM,M3,-0.0163105163984269,m.s-1
PAT,P29,REL,FM,M1,-0.0144254714725389,m.s-1
PAT,P29,REL,FM,M2,0.636643665647702,m.s-1
PAT,P29,REL,FM,M3,1.22594577538881,m.s-1
PAT,P30,INI,FM,M1,0.154959275243993,m.s-1
PAT,P30,INI,FM,M2,0.213475527131064,m.s-1
PAT,P30,INI,FM,M3,0.2094404477578,m.s-1
PAT,P30,REL,FM,M1,0.188729028411856,m.s-1
PAT,P30,REL,FM,M2,0.290122552809638,m.s-1
PAT,P30,REL,FM,M3,0.256993813442359,m.s-1
PAT,P32,INI,FM,M1,0.277481082266416,m.s-1
PAT,P32,INI,FM,M2,0.35226827830095,m.s-1
PAT,P32,INI,FM,M3,0.440302542886652,m.s-1
PAT,P32,REL,FM,M1,0.365556131288672,m.s-1
PAT,P32,REL,FM,M2,0.558989904565115,m.s-1
PAT,P32,REL,FM,M3,0.490070752370063,m.s-1
PAT,P33,INI,FM,M1,0.390516799164036,m.s-1
PAT,P33,INI,FM,M2,0.465566068730588,m.s-1
PAT,P33,INI,FM,M3,0.584271968147678,m.s-1
PAT,P33,REL,FM,M1,1.46294161728537,m.s-1
PAT,P33,REL,FM,M2,0.352152338376162,m.s-1
PAT,P33,REL,FM,M3,,m.s-1
PAT,P34,INI,FM,M1,0.261226761096842,m.s-1
PAT,P34,INI,FM,M2,0.435316727958373,m.s-1
PAT,P34,INI,FM,M3,0.436080555966283,m.s-1
PAT,P34,REL,FM,M1,0.380359002695326,m.s-1
PAT,P34,REL,FM,M2,0.531076046201357,m.s-1
PAT,P34,REL,FM,M3,0.533653368124761,m.s-1
PAT,P36,INI,FM,M1,0.272956968849262,m.s-1
PAT,P36,INI,FM,M2,0.424144141193424,m.s-1
PAT,P36,INI,FM,M3,0.468139377729628,m.s-1
PAT,P36,REL,FM,M1,0.476773390559857,m.s-1
PAT,P36,REL,FM,M2,0.63239976608489,m.s-1
PAT,P36,REL,FM,M3,0.644162699648533,m.s-1
PAT,P41,INI,FM,M1,0.348513513158332,m.s-1
PAT,P41,INI,FM,M2,0.468862888224811,m.s-1
PAT,P41,INI,FM,M3,0.527446425692399,m.s-1
PAT,P41,REL,FM,M1,0.263811063033082,m.s-1
PAT,P41,REL,FM,M2,0.465340651968039,m.s-1
PAT,P41,REL,FM,M3,0.536557654306649,m.s-1
PAT,P42,INI,FM,M1,0.294530831617459,m.s-1
PAT,P42,INI,FM,M2,0.509903532352697,m.s-1
PAT,P42,INI,FM,M3,0.431145161673604,m.s-1
PAT,P42,REL,FM,M1,0.322915647858863,m.s-1
PAT,P42,REL,FM,M2,0.459790633084354,m.s-1
PAT,P42,REL,FM,M3,0.482261241160482,m.s-1
PAT,P43,INI,FM,M1,0.304817337515265,m.s-1
PAT,P43,INI,FM,M2,0.436339956129936,m.s-1
PAT,P43,INI,FM,M3,0.480758130398184,m.s-1
PAT,P43,REL,FM,M1,0.360351513556161,m.s-1
PAT,P43,REL,FM,M2,0.426295899778387,m.s-1
PAT,P43,REL,FM,M3,0.410141375932893,m.s-1
PAT,P45,INI,FM,M1,0.455499129148463,m.s-1
PAT,P45,INI,FM,M2,0.550309372173279,m.s-1
PAT,P45,INI,FM,M3,0.568372093716527,m.s-1
PAT,P45,REL,FM,M1,0.517397945559708,m.s-1
PAT,P45,REL,FM,M2,0.570543286372944,m.s-1
PAT,P45,REL,FM,M3,0.633298446923937,m.s-1
PAT,P47,INI,FM,M1,0.379741286548106,m.s-1
PAT,P47,INI,FM,M2,0.635159715180434,m.s-1
PAT,P47,INI,FM,M3,0.592571913879995,m.s-1
PAT,P47,REL,FM,M1,0.443681654303414,m.s-1
PAT,P47,REL,FM,M2,0.642457773710025,m.s-1
PAT,P47,REL,FM,M3,0.723269304615609,m.s-1
PAT,P50,INI,FM,M1,0.205895727061952,m.s-1
PAT,P50,INI,FM,M2,0.224438246202814,m.s-1
PAT,P50,INI,FM,M3,0.406182928103623,m.s-1
PAT,P50,REL,FM,M1,0.258494321638935,m.s-1
PAT,P50,REL,FM,M2,0.405840926383483,m.s-1
PAT,P50,REL,FM,M3,0.469785607684563,m.s-1
PAT,P51,INI,FM,M1,0.676916806681102,m.s-1
PAT,P51,INI,FM,M2,1.18287847076728,m.s-1
PAT,P51,INI,FM,M3,0.56341401583822,m.s-1
PAT,P51,REL,FM,M1,0.40183661538461,m.s-1
PAT,P51,REL,FM,M2,0.544005612032611,m.s-1
PAT,P51,REL,FM,M3,0.423268809694474,m.s-1
PAT,P53,INI,FM,M1,0.104330069473133,m.s-1
PAT,P53,INI,FM,M2,0.0987212085581544,m.s-1
PAT,P53,INI,FM,M3,0.159910963542225,m.s-1
PAT,P53,REL,FM,M1,0.173989112842577,m.s-1
PAT,P53,REL,FM,M2,0.325209358812219,m.s-1
PAT,P53,REL,FM,M3,0.279055943072945,m.s-1
PAT,P54,INI,FM,M1,0.235256539281311,m.s-1
PAT,P54,INI,FM,M2,0.411197721926317,m.s-1
PAT,P54,INI,FM,M3,0.368740570637726,m.s-1
PAT,P54,REL,FM,M1,0.252031949485278,m.s-1
PAT,P54,REL,FM,M2,0.300010414256689,m.s-1
PAT,P54,REL,FM,M3,0.287047741835736,m.s-1
PAT,P58,INI,FM,M1,0.335133371436122,m.s-1
PAT,P58,INI,FM,M2,0.356350449633253,m.s-1
PAT,P58,INI,FM,M3,0.495244244830379,m.s-1
PAT,P58,REL,FM,M1,0.26811454195559,m.s-1
PAT,P58,REL,FM,M2,0.642608231680838,m.s-1
PAT,P58,REL,FM,M3,0.90275990527371,m.s-1
PAT,P61,INI,FM,M1,0.342679817715319,m.s-1
PAT,P61,INI,FM,M2,0.345670254185329,m.s-1
PAT,P61,INI,FM,M3,0.321597709213032,m.s-1
PAT,P61,REL,FM,M1,0.52599324406866,m.s-1
PAT,P61,REL,FM,M2,0.468309111909237,m.s-1
PAT,P61,REL,FM,M3,0.448125181165002,m.s-1
PAT,P62,INI,FM,M1,0.286488741572302,m.s-1
PAT,P62,INI,FM,M2,0.334664283489982,m.s-1
PAT,P62,INI,FM,M3,0.351109036269754,m.s-1
PAT,P62,REL,FM,M1,0.326333647780252,m.s-1
PAT,P62,REL,FM,M2,0.504683392580479,m.s-1
PAT,P62,REL,FM,M3,0.567107409398244,m.s-1
PAT,P63,INI,FM,M1,0.501352976934743,m.s-1
PAT,P63,INI,FM,M2,0.547655218345907,m.s-1
PAT,P63,INI,FM,M3,0.464697324806224,m.s-1
PAT,P63,REL,FM,M1,0.574465684012957,m.s-1
PAT,P63,REL,FM,M2,0.732127817763237,m.s-1
PAT,P63,REL,FM,M3,0.880426298497243,m.s-1
PAT,P65,INI,FM,M1,0.00510637765516186,m.s-1
PAT,P65,INI,FM,M2,0.651318262585492,m.s-1
PAT,P65,INI,FM,M3,,m.s-1
PAT,P65,REL,FM,M1,0.458451836846811,m.s-1
PAT,P65,REL,FM,M2,0.593842409547618,m.s-1
PAT,P65,REL,FM,M3,0.527523676090205,m.s-1
