"","file_list","ICC_intra","ICC_inter"
"1","Fem_Neck_Length_Homo_Pre_THA.csv","0.942699679975248","0.924505915954821"
"2","Femoral_Neck_Length_Homolateral.csv","0.942699679975248","0.924505915954821"
