PAT,VIS,OPE,MES,VAL
P01,P3M,XG,R1,-18.198298
P02,P3M,XG,R1,14.189059
P03,P3M,XG,R1,-40.819685
P04,P3M,XG,R1,62.836563
P05,P3M,XG,R1,53.043388
P06,P3M,XG,R1,-77.423651
P07,P3M,XG,R1,-10.000137
P08,P3M,XG,R1,0.246931
P09,P3M,XG,R1,20.974019
P10,P3M,XG,R1,-0.780941
P11,P3M,XG,R1,-4.889597
P12,P3M,XG,R1,1.093199
P13,P3M,XG,R1,-59.79906
P14,P3M,XG,R1,54.68215
P15,P3M,XG,R1,34.329132
P16,P3M,XG,R1,7.753615
P17,P3M,XG,R1,-54.839896
P18,P3M,XG,R1,29.367843
P19,P3M,XG,R1,-50.309248
P20,P3M,XG,R1,73.739906
P21,P3M,XG,R1,54.554243
P22,P3M,XG,R1,-25.3724
P23,P3M,XG,R1,-42.978226
P24,P3M,XG,R1,5.814734
P25,P3M,XG,R1,-7.674128
P26,P3M,XG,R1,17.075228
P27,P3M,XG,R1,-9.701479
P28,P3M,XG,R1,-0.983198
P01,P3M,XG,R2,-17.473908
P02,P3M,XG,R2,14.108595
P03,P3M,XG,R2,-40.321744
P04,P3M,XG,R2,63.662431
P05,P3M,XG,R2,53.711563
P06,P3M,XG,R2,-77.290426
P07,P3M,XG,R2,-11.080155
P08,P3M,XG,R2,1.336147
P09,P3M,XG,R2,20.890744
P10,P3M,XG,R2,0.21848
P11,P3M,XG,R2,-5.322256
P12,P3M,XG,R2,1.314193
P13,P3M,XG,R2,-59.238369
P14,P3M,XG,R2,54.827439
P15,P3M,XG,R2,34.290478
P16,P3M,XG,R2,7.040664
P17,P3M,XG,R2,-54.753874
P18,P3M,XG,R2,29.793588
P19,P3M,XG,R2,-49.764849
P20,P3M,XG,R2,74.491257
P21,P3M,XG,R2,55.193792
P22,P3M,XG,R2,-26.444744
P23,P3M,XG,R2,-42.898531
P24,P3M,XG,R2,6.000658
P25,P3M,XG,R2,-8.069509
P26,P3M,XG,R2,16.954642
P27,P3M,XG,R2,-9.251678
P28,P3M,XG,R2,-0.803606
P01,P3M,XG,R3,-16.199675
P02,P3M,XG,R3,14.39689
P03,P3M,XG,R3,-40.356664
P04,P3M,XG,R3,63.160986
P05,P3M,XG,R3,53.456733
P06,P3M,XG,R3,-77.009572
P07,P3M,XG,R3,-10.262035
P08,P3M,XG,R3,1.397364
P09,P3M,XG,R3,21.080255
P10,P3M,XG,R3,-0.276401
P11,P3M,XG,R3,-5.112072
P12,P3M,XG,R3,1.551864
P13,P3M,XG,R3,-59.726498
P14,P3M,XG,R3,54.156006
P15,P3M,XG,R3,34.649777
P16,P3M,XG,R3,7.512391
P17,P3M,XG,R3,-54.485925
P18,P3M,XG,R3,28.893916
P19,P3M,XG,R3,-49.511716
P20,P3M,XG,R3,73.875968
P21,P3M,XG,R3,55.142217
P22,P3M,XG,R3,-26.051881
P23,P3M,XG,R3,-42.876603
P24,P3M,XG,R3,6.367551
P25,P3M,XG,R3,-7.817419
P26,P3M,XG,R3,17.317207
P27,P3M,XG,R3,-9.169997
P28,P3M,XG,R3,-0.461797
P01,P3M,PB,R1,-18.630025
P02,P3M,PB,R1,13.492824
P03,P3M,PB,R1,-40.900465
P04,P3M,PB,R1,62.292315
P05,P3M,PB,R1,53.572493
P06,P3M,PB,R1,-78.108294
P07,P3M,PB,R1,-10.000137
P08,P3M,PB,R1,0.473868
P09,P3M,PB,R1,20.053732
P10,P3M,PB,R1,-0.644943
P11,P3M,PB,R1,-6.553347
P12,P3M,PB,R1,-0.275736
P13,P3M,PB,R1,-60.137213
P14,P3M,PB,R1,54.68215
P15,P3M,PB,R1,34.191323
P16,P3M,PB,R1,6.451355
P17,P3M,PB,R1,-54.350588
P18,P3M,PB,R1,28.249027
P19,P3M,PB,R1,-51.038369
P20,P3M,PB,R1,75.196845
P21,P3M,PB,R1,55.041704
P22,P3M,PB,R1,-26.867326
P23,P3M,PB,R1,-41.650577
P24,P3M,PB,R1,4.611456
P25,P3M,PB,R1,-7.834898
P26,P3M,PB,R1,16.770059
P27,P3M,PB,R1,-9.059833
P28,P3M,PB,R1,-1.802019
P01,P3M,PB,R2,-17.620762
P02,P3M,PB,R2,13.4352
P03,P3M,PB,R2,-41.339218
P04,P3M,PB,R2,62.55136
P05,P3M,PB,R2,53.388454
P06,P3M,PB,R2,-77.525446
P07,P3M,PB,R2,-10.736612
P08,P3M,PB,R2,-0.695535
P09,P3M,PB,R2,21.044699
P10,P3M,PB,R2,-1.736528
P11,P3M,PB,R2,-5.653948
P12,P3M,PB,R2,1.567198
P13,P3M,PB,R2,-59.635365
P14,P3M,PB,R2,54.681493
P15,P3M,PB,R2,34.263917
P16,P3M,PB,R2,6.7281
P17,P3M,PB,R2,-55.299404
P18,P3M,PB,R2,29.084407
P19,P3M,PB,R2,-50.298243
P20,P3M,PB,R2,73.632375
P21,P3M,PB,R2,54.115989
P22,P3M,PB,R2,-27.370256
P23,P3M,PB,R2,-43.092766
P24,P3M,PB,R2,4.546785
P25,P3M,PB,R2,-8.646287
P26,P3M,PB,R2,16.750633
P27,P3M,PB,R2,-10.427142
P28,P3M,PB,R2,-0.996198
P01,P3M,PB,R3,-17.520362
P02,P3M,PB,R3,13.328787
P03,P3M,PB,R3,-39.760073
P04,P3M,PB,R3,62.894709
P05,P3M,PB,R3,54.21981
P06,P3M,PB,R3,-77.392158
P07,P3M,PB,R3,-10.399634
P08,P3M,PB,R3,0.332011
P09,P3M,PB,R3,19.547459
P10,P3M,PB,R3,-1.449978
P11,P3M,PB,R3,-5.141899
P12,P3M,PB,R3,0.753224
P13,P3M,PB,R3,-59.134526
P14,P3M,PB,R3,55.800266
P15,P3M,PB,R3,33.733917
P16,P3M,PB,R3,6.918482
P17,P3M,PB,R3,-55.337233
P18,P3M,PB,R3,29.447528
P19,P3M,PB,R3,-50.537432
P20,P3M,PB,R3,76.030369
P21,P3M,PB,R3,54.232817
P22,P3M,PB,R3,-26.101546
P23,P3M,PB,R3,-42.626545
P24,P3M,PB,R3,5.816557
P25,P3M,PB,R3,-7.638067
P26,P3M,PB,R3,17.875497
P27,P3M,PB,R3,-9.430318
P28,P3M,PB,R3,-0.854337
