PAT,VIS,OPE,MES,VAL
P01,P3M,XG,R1,-18.986711
P02,P3M,XG,R1,39.171446
P03,P3M,XG,R1,-19.176024
P04,P3M,XG,R1,59.5656
P05,P3M,XG,R1,52.630745
P06,P3M,XG,R1,-101.428866
P07,P3M,XG,R1,-7.106148
P08,P3M,XG,R1,10.904523
P09,P3M,XG,R1,-32.692183
P10,P3M,XG,R1,-30.334643
P11,P3M,XG,R1,-13.809988
P12,P3M,XG,R1,14.579087
P13,P3M,XG,R1,-18.916085
P14,P3M,XG,R1,35.573617
P15,P3M,XG,R1,-6.776596
P16,P3M,XG,R1,-14.293263
P17,P3M,XG,R1,-43.781815
P18,P3M,XG,R1,18.390265
P19,P3M,XG,R1,-31.775195
P20,P3M,XG,R1,72.738113
P21,P3M,XG,R1,43.79985
P22,P3M,XG,R1,-62.35124
P23,P3M,XG,R1,-20.310015
P24,P3M,XG,R1,38.287824
P25,P3M,XG,R1,9.416546
P26,P3M,XG,R1,25.601261
P27,P3M,XG,R1,-22.076281
P28,P3M,XG,R1,-13.970177
P01,P3M,XG,R2,-19.749174
P02,P3M,XG,R2,37.993274
P03,P3M,XG,R2,-15.23161
P04,P3M,XG,R2,58.604172
P05,P3M,XG,R2,53.160428
P06,P3M,XG,R2,-100.736452
P07,P3M,XG,R2,-7.32711
P08,P3M,XG,R2,9.449711
P09,P3M,XG,R2,-26.069796
P10,P3M,XG,R2,-29.790208
P11,P3M,XG,R2,-14.312791
P12,P3M,XG,R2,13.829212
P13,P3M,XG,R2,-19.381202
P14,P3M,XG,R2,30.669239
P15,P3M,XG,R2,-8.751059
P16,P3M,XG,R2,-15.373491
P17,P3M,XG,R2,-42.640523
P18,P3M,XG,R2,14.6601
P19,P3M,XG,R2,-32.576687
P20,P3M,XG,R2,71.708907
P21,P3M,XG,R2,43.080219
P22,P3M,XG,R2,-60.882715
P23,P3M,XG,R2,-20.638535
P24,P3M,XG,R2,35.812516
P25,P3M,XG,R2,8.340289
P26,P3M,XG,R2,24.599788
P27,P3M,XG,R2,-24.386061
P28,P3M,XG,R2,-18.334853
P01,P3M,XG,R3,-20.343071
P02,P3M,XG,R3,38.749629
P03,P3M,XG,R3,-19.022061
P04,P3M,XG,R3,58.64708
P05,P3M,XG,R3,51.928629
P06,P3M,XG,R3,-85.766835
P07,P3M,XG,R3,-9.845387
P08,P3M,XG,R3,8.403324
P09,P3M,XG,R3,-29.166111
P10,P3M,XG,R3,-35.980752
P11,P3M,XG,R3,-17.676924
P12,P3M,XG,R3,13.880907
P13,P3M,XG,R3,-20.281249
P14,P3M,XG,R3,25.671207
P15,P3M,XG,R3,-8.337267
P16,P3M,XG,R3,-15.602513
P17,P3M,XG,R3,-42.383479
P18,P3M,XG,R3,13.230876
P19,P3M,XG,R3,-31.446812
P20,P3M,XG,R3,79.933536
P21,P3M,XG,R3,40.320365
P22,P3M,XG,R3,-62.210781
P23,P3M,XG,R3,-18.931425
P24,P3M,XG,R3,36.310994
P25,P3M,XG,R3,7.893807
P26,P3M,XG,R3,23.999072
P27,P3M,XG,R3,-24.277446
P28,P3M,XG,R3,-16.704835
P01,P3M,PB,R1,-18.450379
P02,P3M,PB,R1,38.679497
P03,P3M,PB,R1,-18.260991
P04,P3M,PB,R1,59.329546
P05,P3M,PB,R1,54.377114
P06,P3M,PB,R1,-98.408771
P07,P3M,PB,R1,-7.106148
P08,P3M,PB,R1,13.028132
P09,P3M,PB,R1,-0.857732
P10,P3M,PB,R1,-32.01975
P11,P3M,PB,R1,-16.549493
P12,P3M,PB,R1,16.001619
P13,P3M,PB,R1,-18.497666
P14,P3M,PB,R1,35.573617
P15,P3M,PB,R1,27.25924
P16,P3M,PB,R1,-16.56929
P17,P3M,PB,R1,-7.478695
P18,P3M,PB,R1,-0.29197
P19,P3M,PB,R1,-39.1023
P20,P3M,PB,R1,42.463261
P21,P3M,PB,R1,25.248515
P22,P3M,PB,R1,-60.873676
P23,P3M,PB,R1,-18.571847
P24,P3M,PB,R1,36.80378
P25,P3M,PB,R1,9.757776
P26,P3M,PB,R1,24.821436
P27,P3M,PB,R1,-22.412433
P28,P3M,PB,R1,-23.397678
P01,P3M,PB,R2,-18.872267
P02,P3M,PB,R2,40.479512
P03,P3M,PB,R2,-15.9165
P04,P3M,PB,R2,60.590117
P05,P3M,PB,R2,53.82999
P06,P3M,PB,R2,-100.843555
P07,P3M,PB,R2,-8.272117
P08,P3M,PB,R2,10.007463
P09,P3M,PB,R2,-25.152022
P10,P3M,PB,R2,-37.907239
P11,P3M,PB,R2,-13.871154
P12,P3M,PB,R2,16.6798
P13,P3M,PB,R2,-17.766815
P14,P3M,PB,R2,32.84295
P15,P3M,PB,R2,-6.054886
P16,P3M,PB,R2,-18.984163
P17,P3M,PB,R2,-35.677487
P18,P3M,PB,R2,13.724511
P19,P3M,PB,R2,-41.738172
P20,P3M,PB,R2,59.674794
P21,P3M,PB,R2,37.442679
P22,P3M,PB,R2,-62.397105
P23,P3M,PB,R2,-16.114125
P24,P3M,PB,R2,36.962745
P25,P3M,PB,R2,10.252986
P26,P3M,PB,R2,26.372933
P27,P3M,PB,R2,-23.139494
P28,P3M,PB,R2,-15.278927
P01,P3M,PB,R3,-18.976626
P02,P3M,PB,R3,39.756765
P03,P3M,PB,R3,-16.658272
P04,P3M,PB,R3,60.804814
P05,P3M,PB,R3,54.204389
P06,P3M,PB,R3,-97.958813
P07,P3M,PB,R3,-4.987843
P08,P3M,PB,R3,12.306936
P09,P3M,PB,R3,-31.454256
P10,P3M,PB,R3,-30.601
P11,P3M,PB,R3,-16.219028
P12,P3M,PB,R3,15.528981
P13,P3M,PB,R3,-17.635361
P14,P3M,PB,R3,33.210552
P15,P3M,PB,R3,-5.064633
P16,P3M,PB,R3,-18.165414
P17,P3M,PB,R3,-41.976546
P18,P3M,PB,R3,9.513786
P19,P3M,PB,R3,-30.508314
P20,P3M,PB,R3,73.679388
P21,P3M,PB,R3,47.89273
P22,P3M,PB,R3,-59.430255
P23,P3M,PB,R3,-16.118577
P24,P3M,PB,R3,38.799979
P25,P3M,PB,R3,10.573404
P26,P3M,PB,R3,25.31583
P27,P3M,PB,R3,-24.103834
P28,P3M,PB,R3,-24.663965
