PAT,VIS,OPE,MES,VAL
P01,P3M,XG,R1,-0.658411569241425
P01,P3M,XG,R2,-0.578598938074584
P01,P3M,XG,R3,-1.01444372987496
P01,P3M,PB,R1,-0.531334514386903
P01,P3M,PB,R2,-2.07717026818451
P01,P3M,PB,R3,-1.36141491513725
P02,P3M,XG,R1,-1.69577610140299
P02,P3M,XG,R2,-1.72469373309785
P02,P3M,XG,R3,-2.25209291220443
P02,P3M,PB,R1,-1.67831053041106
P02,P3M,PB,R2,0.0947822270624776
P02,P3M,PB,R3,-1.056989759884
P03,P3M,XG,R1,9.49594449389102
P03,P3M,XG,R2,9.03992681254929
P03,P3M,XG,R3,9.59977291673393
P03,P3M,PB,R1,9.01824676475744
P03,P3M,PB,R2,9.24293320484029
P03,P3M,PB,R3,7.83496045065715
P04,P3M,XG,R1,-5.53341926345684
P04,P3M,XG,R2,-5.73051867103177
P04,P3M,XG,R3,-5.12605065803507
P04,P3M,PB,R1,-5.88308588068761
P04,P3M,PB,R2,-4.71213086078816
P04,P3M,PB,R3,-5.30919359307746
P05,P3M,XG,R1,-5.23885180436326
P05,P3M,XG,R2,-5.58595837534333
P05,P3M,XG,R3,-6.20008359337928
P05,P3M,PB,R1,-3.63294281504081
P05,P3M,PB,R2,-5.50368096574065
P05,P3M,PB,R3,-4.75817917919008
P06,P3M,XG,R1,-2.38123850240799
P06,P3M,XG,R2,-2.74018539500312
P06,P3M,XG,R3,-3.09210543099055
P06,P3M,PB,R1,-0.926549074526072
P06,P3M,PB,R2,-7.08684682743567
P06,P3M,PB,R3,-4.57286250828805
P07,P3M,XG,R1,-1.23368859276415
P07,P3M,XG,R2,-3.17947610963482
P07,P3M,XG,R3,-2.73707015125626
P07,P3M,PB,R1,-1.23368859276415
P07,P3M,PB,R2,-3.26114355926579
P07,P3M,PB,R3,-4.9464961228513
P08,P3M,XG,R1,-2.31694232563965
P08,P3M,XG,R2,-2.09684895025841
P08,P3M,XG,R3,-2.72579451162978
P08,P3M,PB,R1,-0.181201724275168
P08,P3M,PB,R2,-3.09459347516836
P08,P3M,PB,R3,-2.72281533009949
P09,P3M,XG,R1,3.0927743585466
P09,P3M,XG,R2,2.49025037388737
P09,P3M,XG,R3,2.62187096284985
P09,P3M,PB,R1,1.15917044445274
P09,P3M,PB,R2,4.1263611753933
P09,P3M,PB,R3,3.06634358563867
P10,P3M,XG,R1,5.19740390782235
P10,P3M,XG,R2,6.0815752391987
P10,P3M,XG,R3,6.36585143172881
P10,P3M,PB,R1,4.55430684991075
P10,P3M,PB,R2,5.66329385002231
P10,P3M,PB,R3,-2.29700023977584
P11,P3M,XG,R1,3.88201641015828
P11,P3M,XG,R2,4.52304724428709
P11,P3M,XG,R3,4.14318536318856
P11,P3M,PB,R1,3.9823552528601
P11,P3M,PB,R2,3.62793509445381
P11,P3M,PB,R3,6.83271015641998
P12,P3M,XG,R1,-2.29469957800665
P12,P3M,XG,R2,-2.75122299404554
P12,P3M,XG,R3,-2.06978321322675
P12,P3M,PB,R1,-1.51754189367469
P12,P3M,PB,R2,-1.66927355068335
P12,P3M,PB,R3,-1.01840032400667
P13,P3M,XG,R1,3.68977282666858
P13,P3M,XG,R2,-0.729226788466519
P13,P3M,XG,R3,2.5742189674867
P13,P3M,PB,R1,-0.146980211622792
P13,P3M,PB,R2,-0.0406983435609942
P13,P3M,PB,R3,-0.580694076670021
P14,P3M,XG,R1,-1.14714404196296
P14,P3M,XG,R2,-0.496683305134014
P14,P3M,XG,R3,-0.457097488943441
P14,P3M,PB,R1,-1.14714404196296
P14,P3M,PB,R2,-2.03702207114501
P14,P3M,PB,R3,-0.869829545115803
P15,P3M,XG,R1,-4.05351532341807
P15,P3M,XG,R2,-1.02270493565482
P15,P3M,XG,R3,-1.47465140148662
P15,P3M,PB,R1,-5.15315648442357
P15,P3M,PB,R2,-1.47514654458616
P15,P3M,PB,R3,-3.79401169950071
P16,P3M,XG,R1,-1.25900696609506
P16,P3M,XG,R2,-1.41135838981977
P16,P3M,XG,R3,-0.84241797077339
P16,P3M,PB,R1,-0.350015034678503
P16,P3M,PB,R2,-0.674313258642387
P16,P3M,PB,R3,-1.14441899442577
P17,P3M,XG,R1,-2.59250020716696
P17,P3M,XG,R2,-2.57109264040724
P17,P3M,XG,R3,-2.46622481662738
P17,P3M,PB,R1,-2.19743659306038
P17,P3M,PB,R2,-2.45024121045075
P17,P3M,PB,R3,-2.07760271990141
P18,P3M,XG,R1,-3.237671987751
P18,P3M,XG,R2,-2.60483569413096
P18,P3M,XG,R3,1.00187106858579
P18,P3M,PB,R1,0.026729581116768
P18,P3M,PB,R2,1.19899733151471
P18,P3M,PB,R3,1.83837449388451
P19,P3M,XG,R1,-0.421918808693888
P19,P3M,XG,R2,-1.12201536853417
P19,P3M,XG,R3,-1.1220113673454
P19,P3M,PB,R1,-1.42675538057241
P19,P3M,PB,R2,-0.465324111978923
P19,P3M,PB,R3,-1.3442924417151
P20,P3M,XG,R1,-1.15565114009477
P20,P3M,XG,R2,-1.26525781703338
P20,P3M,XG,R3,-0.957046662644186
P20,P3M,PB,R1,2.15541570770535
P20,P3M,PB,R2,-1.7382347265231
P20,P3M,PB,R3,-1.88922961410007
P21,P3M,XG,R1,0.342319865639817
P21,P3M,XG,R2,0.812816065398665
P21,P3M,XG,R3,2.16918605195335
P21,P3M,PB,R1,1.9589914769407
P21,P3M,PB,R2,-1.12335347169752
P21,P3M,PB,R3,1.12070545186781
P22,P3M,XG,R1,-2.00855806588742
P22,P3M,XG,R2,-1.72125377270641
P22,P3M,XG,R3,-2.97210421781749
P22,P3M,PB,R1,-2.96314758838658
P22,P3M,PB,R2,-1.73960135508222
P22,P3M,PB,R3,-1.6297148279571
P23,P3M,XG,R1,-6.69747419633268
P23,P3M,XG,R2,-6.10571146449761
P23,P3M,XG,R3,-6.70681627550403
P23,P3M,PB,R1,-0.0209517319020902
P23,P3M,PB,R2,-1.24884667467866
P23,P3M,PB,R3,-5.38173674273426
P24,P3M,XG,R1,0.717765225037568
P24,P3M,XG,R2,0.589090971938372
P24,P3M,XG,R3,0.132365835223526
P24,P3M,PB,R1,2.85444285854264
P24,P3M,PB,R2,0.797350771718422
P24,P3M,PB,R3,3.13142140695685
P25,P3M,XG,R1,2.10096246851408
P25,P3M,XG,R2,2.0045938581933
P25,P3M,XG,R3,2.3578038907701
P25,P3M,PB,R1,4.78622866409307
P25,P3M,PB,R2,4.89346966332945
P25,P3M,PB,R3,3.79799751429082
P26,P3M,XG,R1,-4.10260872993212
P26,P3M,XG,R2,-2.23481791188194
P26,P3M,XG,R3,-4.22553403665954
P26,P3M,PB,R1,0.805133026224505
P26,P3M,PB,R2,-1.30042186251696
P26,P3M,PB,R3,-2.15237733398118
P27,P3M,XG,R1,-8.19436646032732
P27,P3M,XG,R2,-4.37265071163458
P27,P3M,XG,R3,-4.8007621385849
P27,P3M,PB,R1,-8.63672874309831
P27,P3M,PB,R2,-9.22424623581546
P27,P3M,PB,R3,-4.16998415759891
P28,P3M,XG,R1,-1.98171266747126
P28,P3M,XG,R2,-2.03852782032496
P28,P3M,XG,R3,-1.63944653663192
P28,P3M,PB,R1,0.404173671807923
P28,P3M,PB,R2,0.0936301424525887
P28,P3M,PB,R3,-1.9786549037131
