PAT,VIS,OPE,MES,VAL
P01,PRE,XG,R1,10.7756573899752
P02,PRE,XG,R1,17.4201217533001
P03,PRE,XG,R1,46.8744678041365
P04,PRE,XG,R1,16.74246891094
P05,PRE,XG,R1,15.8591940045237
P06,PRE,XG,R1,9.7814283913298
P07,PRE,XG,R1,27.2453884986466
P08,PRE,XG,R1,18.4662448306796
P09,PRE,XG,R1,10.4441021641737
P10,PRE,XG,R1,2.6092891888418
P11,PRE,XG,R1,29.7057926803288
P12,PRE,XG,R1,18.8335334375058
P13,PRE,XG,R1,8.3448199368441
P14,PRE,XG,R1,25.4970474049923
P15,PRE,XG,R1,-10.2722573264325
P16,PRE,XG,R1,4.2092212808453
P17,PRE,XG,R1,4.7961059796365
P18,PRE,XG,R1,4.9931624999159
P19,PRE,XG,R1,16.0829801199649
P20,PRE,XG,R1,15.6462718428658
P21,PRE,XG,R1,11.3166735648193
P22,PRE,XG,R1,9.2006998665328
P23,PRE,XG,R1,15.6359248330826
P24,PRE,XG,R1,6.2494455829374
P25,PRE,XG,R1,16.7524664496934
P26,PRE,XG,R1,22.5378885446704
P27,PRE,XG,R1,28.6123477674687
P28,PRE,XG,R1,-0.8939642911015
P01,P3M,XG,R1,11.0407455710705
P02,P3M,XG,R1,13.6683691399733
P03,P3M,XG,R1,10.8303806750712
P04,P3M,XG,R1,17.7063010358138
P05,P3M,XG,R1,18.8488650473467
P06,P3M,XG,R1,13.8540186775949
P07,P3M,XG,R1,22.747250530784
P08,P3M,XG,R1,13.564444335519
P09,P3M,XG,R1,19.072391387782
P10,P3M,XG,R1,-1.9102534493094
P11,P3M,XG,R1,24.529251147842
P12,P3M,XG,R1,22.028017293502
P13,P3M,XG,R1,15.8488073159216
P14,P3M,XG,R1,14.0612868705406
P15,P3M,XG,R1,8.2350463811872
P16,P3M,XG,R1,9.4086611093617
P17,P3M,XG,R1,6.4029930539692
P18,P3M,XG,R1,-0.0046423970094
P19,P3M,XG,R1,20.735307891591
P20,P3M,XG,R1,15.308585967517
P21,P3M,XG,R1,9.7920911355979
P22,P3M,XG,R1,7.1116016837235
P23,P3M,XG,R1,18.1291892360156
P24,P3M,XG,R1,11.614137367731
P25,P3M,XG,R1,14.1643486869762
P26,P3M,XG,R1,24.5867809382217
P27,P3M,XG,R1,28.7265087412583
P28,P3M,XG,R1,2.1113875908907
P01,PRE,XG,R2,13.1969374162267
P02,PRE,XG,R2,16.5072189818181
P03,PRE,XG,R2,11.5674299543337
P04,PRE,XG,R2,15.8960382631036
P05,PRE,XG,R2,18.291446177618
P06,PRE,XG,R2,15.6319138676402
P07,PRE,XG,R2,24.8519325568
P08,PRE,XG,R2,18.7102315287292
P09,PRE,XG,R2,10.943720574865
P10,PRE,XG,R2,3.594434780534
P11,PRE,XG,R2,29.1963832346021
P12,PRE,XG,R2,19.1772045707719
P13,PRE,XG,R2,8.9958197845991
P14,PRE,XG,R2,20.2772896988226
P15,PRE,XG,R2,10.8473463035579
P16,PRE,XG,R2,3.8077252209369
P17,PRE,XG,R2,7.2773193260009
P18,PRE,XG,R2,6.4544211568983
P19,PRE,XG,R2,25.0338356842485
P20,PRE,XG,R2,16.6223860665361
P21,PRE,XG,R2,11.371818429086
P22,PRE,XG,R2,6.2138229652036
P23,PRE,XG,R2,21.570295424002
P24,PRE,XG,R2,8.7480216770232
P25,PRE,XG,R2,16.1102681506851
P26,PRE,XG,R2,23.2165551312617
P27,PRE,XG,R2,33.0312308614486
P28,PRE,XG,R2,-0.0406366602039
P01,P3M,XG,R2,10.8394103390203
P02,P3M,XG,R2,12.9388207072231
P03,P3M,XG,R2,12.9144161593505
P04,P3M,XG,R2,17.3174524995819
P05,P3M,XG,R2,18.3660207521445
P06,P3M,XG,R2,22.4560841534767
P07,P3M,XG,R2,22.5443048551915
P08,P3M,XG,R2,15.0332375471644
P09,P3M,XG,R2,13.575729243126
P10,P3M,XG,R2,-1.8875780454051
P11,P3M,XG,R2,24.8452394327396
P12,P3M,XG,R2,21.7117373565388
P13,P3M,XG,R2,16.8495105688344
P14,P3M,XG,R2,17.3153610630583
P15,P3M,XG,R2,10.5090446493674
P16,P3M,XG,R2,-0.0985926979666
P17,P3M,XG,R2,7.3675097976401
P18,P3M,XG,R2,20.0716681229087
P19,P3M,XG,R2,20.5601248377882
P20,P3M,XG,R2,16.3947951455788
P21,P3M,XG,R2,9.1438500528891
P22,P3M,XG,R2,2.8498066759133
P23,P3M,XG,R2,18.6620470591529
P24,P3M,XG,R2,10.5917513828958
P25,P3M,XG,R2,16.5166867436903
P26,P3M,XG,R2,27.2361883374378
P27,P3M,XG,R2,29.6548588336079
P28,P3M,XG,R2,3.8564956082252
P01,PRE,XG,R3,8.7756819950742
P02,PRE,XG,R3,17.6697673365807
P03,PRE,XG,R3,10.3880768321709
P04,PRE,XG,R3,13.6296070784481
P05,PRE,XG,R3,16.9233113153964
P06,PRE,XG,R3,17.2000572929487
P07,PRE,XG,R3,25.7764675969696
P08,PRE,XG,R3,20.3160086010411
P09,PRE,XG,R3,11.4918219795207
P10,PRE,XG,R3,6.2477345322923
P11,PRE,XG,R3,27.0824601364986
P12,PRE,XG,R3,19.7682151469998
P13,PRE,XG,R3,10.7101899544253
P14,PRE,XG,R3,19.0779711554665
P15,PRE,XG,R3,10.4466442997299
P16,PRE,XG,R3,3.4437201244494
P17,PRE,XG,R3,5.1131436722295
P18,PRE,XG,R3,19.0313015936634
P19,PRE,XG,R3,20.2167406885104
P20,PRE,XG,R3,15.1711195760548
P21,PRE,XG,R3,10.9743303973919
P22,PRE,XG,R3,10.5333940976546
P23,PRE,XG,R3,19.6957687641407
P24,PRE,XG,R3,9.1329376103187
P25,PRE,XG,R3,16.8701958907163
P26,PRE,XG,R3,21.4206206360537
P27,PRE,XG,R3,30.1741274973023
P28,PRE,XG,R3,1.85298663161
P01,P3M,XG,R3,11.5526805811407
P02,P3M,XG,R3,16.1817203203554
P03,P3M,XG,R3,14.5246526218035
P04,P3M,XG,R3,1.9925952822135
P05,P3M,XG,R3,18.2455255792881
P06,P3M,XG,R3,7.9929656936624
P07,P3M,XG,R3,25.2577867669555
P08,P3M,XG,R3,16.8782522014913
P09,P3M,XG,R3,12.716523193065
P10,P3M,XG,R3,1.8866852861745
P11,P3M,XG,R3,24.6904874953362
P12,P3M,XG,R3,21.088050394402
P13,P3M,XG,R3,16.2318240145703
P14,P3M,XG,R3,21.8318660624013
P15,P3M,XG,R3,9.876290036653
P16,P3M,XG,R3,1.0267133206176
P17,P3M,XG,R3,6.3600008833507
P18,P3M,XG,R3,16.873412212184
P19,P3M,XG,R3,24.0505255694957
P20,P3M,XG,R3,15.4692948513318
P21,P3M,XG,R3,8.7988770671517
P22,P3M,XG,R3,5.8233657249048
P23,P3M,XG,R3,17.7915407289741
P24,P3M,XG,R3,11.9336086286861
P25,P3M,XG,R3,15.3632866005596
P26,P3M,XG,R3,22.5018583082945
P27,P3M,XG,R3,29.0080369935152
P28,P3M,XG,R3,3.3050225728667
P01,PRE,PB,R1,9.3732723835893
P02,PRE,PB,R1,3.3847002185357
P03,PRE,PB,R1,45.1002784951077
P04,PRE,PB,R1,11.5830495685139
P05,PRE,PB,R1,16.6779480430557
P06,PRE,PB,R1,14.3061507294197
P07,PRE,PB,R1,26.8275311388796
P08,PRE,PB,R1,16.526867253282
P09,PRE,PB,R1,-6.1473535535505
P10,PRE,PB,R1,4.1009425362963
P11,PRE,PB,R1,27.3460455591228
P12,PRE,PB,R1,24.3382281123169
P13,PRE,PB,R1,5.7655901649257
P14,PRE,PB,R1,21.8438446146943
P15,PRE,PB,R1,12.424272140075
P16,PRE,PB,R1,7.4585613642153
P17,PRE,PB,R1,5.729399438121
P18,PRE,PB,R1,-3.3722856737551
P19,PRE,PB,R1,25.5753745139102
P20,PRE,PB,R1,15.0868476606205
P21,PRE,PB,R1,8.9069486319967
P22,PRE,PB,R1,9.7028261856532
P23,PRE,PB,R1,21.5121467764999
P24,PRE,PB,R1,6.9275982510887
P25,PRE,PB,R1,19.9420412376453
P26,PRE,PB,R1,21.3630345145118
P27,PRE,PB,R1,25.4373114679901
P28,PRE,PB,R1,-1.1823114461717
P01,P3M,PB,R1,7.0699489575449
P02,P3M,PB,R1,14.8798632161454
P03,P3M,PB,R1,14.0279769672393
P04,P3M,PB,R1,17.9128164726722
P05,P3M,PB,R1,15.8590735742232
P06,P3M,PB,R1,7.8375207265107
P07,P3M,PB,R1,23.5037158636672
P08,P3M,PB,R1,11.8436127868199
P09,P3M,PB,R1,-19.405944896031
P10,P3M,PB,R1,2.3554525950363
P11,P3M,PB,R1,25.6336538287637
P12,P3M,PB,R1,20.4728427264583
P13,P3M,PB,R1,16.1112184899764
P14,P3M,PB,R1,8.9337683061622
P15,P3M,PB,R1,-17.1106839497121
P16,P3M,PB,R1,6.3295670107865
P17,P3M,PB,R1,3.9115258385114
P18,P3M,PB,R1,6.4861756911269
P19,P3M,PB,R1,26.302888268428
P20,P3M,PB,R1,11.3510174150024
P21,P3M,PB,R1,9.1247411153482
P22,P3M,PB,R1,-5.1030553629196
P23,P3M,PB,R1,23.4822836994898
P24,P3M,PB,R1,12.1746543615793
P25,P3M,PB,R1,14.0674960323907
P26,P3M,PB,R1,5.3008734454533
P27,P3M,PB,R1,25.1036148587469
P28,P3M,PB,R1,5.4215817024437
P01,PRE,PB,R2,8.2649080828712
P02,PRE,PB,R2,6.1079994455536
P03,PRE,PB,R2,50.8330825201976
P04,PRE,PB,R2,13.2757627688446
P05,PRE,PB,R2,17.2094844126938
P06,PRE,PB,R2,11.5710735469142
P07,PRE,PB,R2,23.8359449892346
P08,PRE,PB,R2,17.0141977155012
P09,PRE,PB,R2,-7.326552212602
P10,PRE,PB,R2,5.104930078755
P11,PRE,PB,R2,27.7763062087582
P12,PRE,PB,R2,19.9335407615101
P13,PRE,PB,R2,10.3186817971522
P14,PRE,PB,R2,21.0734705097737
P15,PRE,PB,R2,12.5634363002656
P16,PRE,PB,R2,2.8272344822245
P17,PRE,PB,R2,3.9189851505685
P18,PRE,PB,R2,5.9465701033053
P19,PRE,PB,R2,22.2107153259078
P20,PRE,PB,R2,15.6036097899536
P21,PRE,PB,R2,11.2006816106933
P22,PRE,PB,R2,15.3320446604636
P23,PRE,PB,R2,18.6766300509902
P24,PRE,PB,R2,4.8294197520285
P25,PRE,PB,R2,16.7140846331103
P26,PRE,PB,R2,23.3946879653009
P27,PRE,PB,R2,27.7932077667104
P28,PRE,PB,R2,0.2476311016251
P01,P3M,PB,R2,6.6770051283238
P02,P3M,PB,R2,13.7724496446536
P03,P3M,PB,R2,13.9334434375217
P04,P3M,PB,R2,18.0913103044919
P05,P3M,PB,R2,16.5777767154711
P06,P3M,PB,R2,18.3139562722241
P07,P3M,PB,R2,22.7301611105191
P08,P3M,PB,R2,13.9832038844237
P09,P3M,PB,R2,12.8904568906566
P10,P3M,PB,R2,1.1940611156528
P11,P3M,PB,R2,16.4407544496151
P12,P3M,PB,R2,20.3369472428233
P13,P3M,PB,R2,15.3370998917843
P14,P3M,PB,R2,11.9256689557469
P15,P3M,PB,R2,6.9691780070628
P16,P3M,PB,R2,2.8693726772782
P17,P3M,PB,R2,5.3988720763767
P18,P3M,PB,R2,4.769989272975
P19,P3M,PB,R2,23.3475183654414
P20,P3M,PB,R2,13.5726462732362
P21,P3M,PB,R2,9.6634436086041
P22,P3M,PB,R2,-0.1194617955503
P23,P3M,PB,R2,24.3082184433145
P24,P3M,PB,R2,13.0948457713293
P25,P3M,PB,R2,18.8814341357111
P26,P3M,PB,R2,24.1630441243343
P27,P3M,PB,R2,33.2870135304342
P28,P3M,PB,R2,-0.4486152867608
P01,PRE,PB,R3,9.6479762391358
P02,PRE,PB,R3,20.3241920833407
P03,PRE,PB,R3,50.5362305384321
P04,PRE,PB,R3,14.4974454426823
P05,PRE,PB,R3,16.5579741736494
P06,PRE,PB,R3,11.8162472806806
P07,PRE,PB,R3,23.4444069866566
P08,PRE,PB,R3,16.5843932301028
P09,PRE,PB,R3,-6.2756128440857
P10,PRE,PB,R3,3.7007535126128
P11,PRE,PB,R3,29.5095110278177
P12,PRE,PB,R3,23.7322113905274
P13,PRE,PB,R3,13.5991680830666
P14,PRE,PB,R3,22.3465094757442
P15,PRE,PB,R3,12.4023676289804
P16,PRE,PB,R3,3.018892022669
P17,PRE,PB,R3,5.4019461385333
P18,PRE,PB,R3,5.362754691373
P19,PRE,PB,R3,22.5895180296323
P20,PRE,PB,R3,17.0424568924276
P21,PRE,PB,R3,5.5743581536154
P22,PRE,PB,R3,14.5426861019884
P23,PRE,PB,R3,18.1292717199223
P24,PRE,PB,R3,10.7325727843029
P25,PRE,PB,R3,15.3999284481037
P26,PRE,PB,R3,21.2633188172354
P27,PRE,PB,R3,24.5176274896183
P28,PRE,PB,R3,0.8128318478013
P01,P3M,PB,R3,9.882279423759
P02,P3M,PB,R3,16.4290911646761
P03,P3M,PB,R3,13.7878663036275
P04,P3M,PB,R3,16.0115361082191
P05,P3M,PB,R3,19.3159962344706
P06,P3M,PB,R3,10.4699298570261
P07,P3M,PB,R3,19.2527372628637
P08,P3M,PB,R3,16.4151915206275
P09,P3M,PB,R3,16.3857407177369
P10,P3M,PB,R3,0.1808155274131
P11,P3M,PB,R3,24.0641661930482
P12,P3M,PB,R3,21.6900415951487
P13,P3M,PB,R3,14.959680328229
P14,P3M,PB,R3,13.9723540860983
P15,P3M,PB,R3,6.7088624287666
P16,P3M,PB,R3,3.2323111145782
P17,P3M,PB,R3,6.4519292659441
P18,P3M,PB,R3,22.6941535547952
P19,P3M,PB,R3,22.5220476874155
P20,P3M,PB,R3,14.2918833114091
P21,P3M,PB,R3,12.0540875393824
P22,P3M,PB,R3,-3.9597283424843
P23,P3M,PB,R3,18.9049828151231
P24,P3M,PB,R3,10.7642164342541
P25,P3M,PB,R3,18.1250075063519
P26,P3M,PB,R3,20.9700858673803
P27,P3M,PB,R3,29.0755695624661
P28,P3M,PB,R3,4.5726014220443
