PAT,VIS,OPE,MES,VAL
P01,PRE,XG,R1,-38.362291
P02,PRE,XG,R1,1.575527
P03,PRE,XG,R1,25.474759
P04,PRE,XG,R1,63.03022
P05,PRE,XG,R1,50.445532
P06,PRE,XG,R1,5.737636
P07,PRE,XG,R1,5.362986
P08,PRE,XG,R1,45.907603
P09,PRE,XG,R1,-41.587784
P10,PRE,XG,R1,-6.248131
P11,PRE,XG,R1,24.023131
P12,PRE,XG,R1,-9.852202
P13,PRE,XG,R1,59.971063
P14,PRE,XG,R1,55.484087
P15,PRE,XG,R1,-55.933817
P16,PRE,XG,R1,-13.250305
P17,PRE,XG,R1,-0.229308
P18,PRE,XG,R1,36.704267
P19,PRE,XG,R1,-3.009167
P20,PRE,XG,R1,22.312922
P21,PRE,XG,R1,66.717579
P22,PRE,XG,R1,-4.48566
P23,PRE,XG,R1,0.120046
P24,PRE,XG,R1,59.794918
P25,PRE,XG,R1,-28.33097
P26,PRE,XG,R1,-39.440962
P27,PRE,XG,R1,17.803404
P28,PRE,XG,R1,-16.596933
P01,P3M,XG,R1,-6.426586
P02,P3M,XG,R1,49.514396
P03,P3M,XG,R1,3.817943
P04,P3M,XG,R1,79.479456
P05,P3M,XG,R1,69.836542
P06,P3M,XG,R1,-69.663308
P07,P3M,XG,R1,3.730427
P08,P3M,XG,R1,26.353073
P09,P3M,XG,R1,-5.278899
P10,P3M,XG,R1,-23.437937
P11,P3M,XG,R1,1.08851
P12,P3M,XG,R1,19.175014
P13,P3M,XG,R1,-8.467222
P14,P3M,XG,R1,49.411515
P15,P3M,XG,R1,11.598466
P16,P3M,XG,R1,-5.251469
P17,P3M,XG,R1,-26.149089
P18,P3M,XG,R1,42.109522
P19,P3M,XG,R1,-18.872953
P20,P3M,XG,R1,83.861928
P21,P3M,XG,R1,45.385795
P22,P3M,XG,R1,-38.658328
P23,P3M,XG,R1,-14.526607
P24,P3M,XG,R1,37.870747
P25,P3M,XG,R1,13.451693
P26,P3M,XG,R1,31.518947
P27,P3M,XG,R1,4.660678
P28,P3M,XG,R1,-0.244548
P01,PRE,XG,R2,-37.454961
P02,PRE,XG,R2,1.743702
P03,PRE,XG,R2,25.35296
P04,PRE,XG,R2,62.5855
P05,PRE,XG,R2,50.215042
P06,PRE,XG,R2,10.089089
P07,PRE,XG,R2,4.25088
P08,PRE,XG,R2,46.004639
P09,PRE,XG,R2,-42.205962
P10,PRE,XG,R2,-6.109216
P11,PRE,XG,R2,23.546271
P12,PRE,XG,R2,-10.396851
P13,PRE,XG,R2,60.040627
P14,PRE,XG,R2,53.628265
P15,PRE,XG,R2,-40.984
P16,PRE,XG,R2,-13.99967
P17,PRE,XG,R2,-0.413716
P18,PRE,XG,R2,37.944667
P19,PRE,XG,R2,-1.87289
P20,PRE,XG,R2,22.245185
P21,PRE,XG,R2,65.939816
P22,PRE,XG,R2,-5.885903
P23,PRE,XG,R2,0.37424
P24,PRE,XG,R2,62.328401
P25,PRE,XG,R2,-28.544499
P26,PRE,XG,R2,-40.637343
P27,PRE,XG,R2,17.279991
P28,PRE,XG,R2,-16.847025
P01,P3M,XG,R2,-6.775019
P02,P3M,XG,R2,49.780613
P03,P3M,XG,R2,4.297178
P04,P3M,XG,R2,79.903833
P05,P3M,XG,R2,69.860623
P06,P3M,XG,R2,-63.649019
P07,P3M,XG,R2,2.08641
P08,P3M,XG,R2,26.850645
P09,P3M,XG,R2,-5.082161
P10,P3M,XG,R2,-23.270598
P11,P3M,XG,R2,1.614796
P12,P3M,XG,R2,18.837786
P13,P3M,XG,R2,-8.046224
P14,P3M,XG,R2,50.782673
P15,P3M,XG,R2,11.515335
P16,P3M,XG,R2,-5.215123
P17,P3M,XG,R2,-25.897713
P18,P3M,XG,R2,42.997629
P19,P3M,XG,R2,-19.789489
P20,P3M,XG,R2,83.84404
P21,P3M,XG,R2,45.688823
P22,P3M,XG,R2,-45.20641
P23,P3M,XG,R2,-13.690953
P24,P3M,XG,R2,37.911467
P25,P3M,XG,R2,13.449464
P26,P3M,XG,R2,31.868854
P27,P3M,XG,R2,4.961495
P28,P3M,XG,R2,-0.273405
P01,PRE,XG,R3,-38.554153
P02,PRE,XG,R3,2.20229
P03,PRE,XG,R3,25.423982
P04,PRE,XG,R3,62.158952
P05,PRE,XG,R3,50.501866
P06,PRE,XG,R3,9.853235
P07,PRE,XG,R3,4.670826
P08,PRE,XG,R3,46.109
P09,PRE,XG,R3,-42.057397
P10,PRE,XG,R3,-6.092833
P11,PRE,XG,R3,23.805621
P12,PRE,XG,R3,-10.301425
P13,PRE,XG,R3,59.769942
P14,PRE,XG,R3,54.403799
P15,PRE,XG,R3,-42.178945
P16,PRE,XG,R3,-12.733492
P17,PRE,XG,R3,-0.587099
P18,PRE,XG,R3,37.461177
P19,PRE,XG,R3,-3.338634
P20,PRE,XG,R3,22.350774
P21,PRE,XG,R3,65.999218
P22,PRE,XG,R3,-4.791614
P23,PRE,XG,R3,-0.196744
P24,PRE,XG,R3,62.979507
P25,PRE,XG,R3,-28.509147
P26,PRE,XG,R3,-40.564823
P27,PRE,XG,R3,17.492224
P28,PRE,XG,R3,-16.799163
P01,P3M,XG,R3,-6.620868
P02,P3M,XG,R3,50.153148
P03,P3M,XG,R3,3.923036
P04,P3M,XG,R3,79.483856
P05,P3M,XG,R3,69.415925
P06,P3M,XG,R3,-60.779007
P07,P3M,XG,R3,3.805941
P08,P3M,XG,R3,26.601155
P09,P3M,XG,R3,-6.145494
P10,P3M,XG,R3,-24.019427
P11,P3M,XG,R3,1.556555
P12,P3M,XG,R3,19.632726
P13,P3M,XG,R3,-8.261857
P14,P3M,XG,R3,50.173989
P15,P3M,XG,R3,11.714457
P16,P3M,XG,R3,-5.142773
P17,P3M,XG,R3,-26.390205
P18,P3M,XG,R3,40.317992
P19,P3M,XG,R3,-19.420509
P20,P3M,XG,R3,84.38215
P21,P3M,XG,R3,46.349981
P22,P3M,XG,R3,-39.497524
P23,P3M,XG,R3,-14.35863
P24,P3M,XG,R3,38.138206
P25,P3M,XG,R3,13.465697
P26,P3M,XG,R3,31.056672
P27,P3M,XG,R3,5.016387
P28,P3M,XG,R3,-0.490984
P01,PRE,PB,R1,-38.699074
P02,PRE,PB,R1,-7.808564
P03,PRE,PB,R1,25.10137
P04,PRE,PB,R1,61.494514
P05,PRE,PB,R1,49.934984
P06,PRE,PB,R1,9.395139
P07,PRE,PB,R1,4.933848
P08,PRE,PB,R1,46.31492
P09,PRE,PB,R1,-41.565244
P10,PRE,PB,R1,-5.77797
P11,PRE,PB,R1,23.706113
P12,PRE,PB,R1,-9.910842
P13,PRE,PB,R1,59.666328
P14,PRE,PB,R1,55.678736
P15,PRE,PB,R1,-40.586745
P16,PRE,PB,R1,-13.000144
P17,PRE,PB,R1,-0.513753
P18,PRE,PB,R1,37.919593
P19,PRE,PB,R1,-2.973439
P20,PRE,PB,R1,22.194117
P21,PRE,PB,R1,65.92874
P22,PRE,PB,R1,-2.196556
P23,PRE,PB,R1,0.061994
P24,PRE,PB,R1,62.822804
P25,PRE,PB,R1,-27.312032
P26,PRE,PB,R1,-41.162983
P27,PRE,PB,R1,15.823965
P28,PRE,PB,R1,-16.595715
P01,P3M,PB,R1,-6.736084
P02,P3M,PB,R1,49.272846
P03,P3M,PB,R1,4.396078
P04,P3M,PB,R1,80.623365
P05,P3M,PB,R1,67.314504
P06,P3M,PB,R1,-64.529557
P07,P3M,PB,R1,3.730427
P08,P3M,PB,R1,25.004775
P09,P3M,PB,R1,-5.767919
P10,P3M,PB,R1,-24.038001
P11,P3M,PB,R1,1.400703
P12,P3M,PB,R1,18.022622
P13,P3M,PB,R1,-8.583389
P14,P3M,PB,R1,49.411515
P15,P3M,PB,R1,12.823579
P16,P3M,PB,R1,-3.166608
P17,P3M,PB,R1,-25.65334
P18,P3M,PB,R1,45.960392
P19,P3M,PB,R1,-18.858518
P20,P3M,PB,R1,83.070495
P21,P3M,PB,R1,44.57989
P22,P3M,PB,R1,-47.766226
P23,P3M,PB,R1,-14.07429
P24,P3M,PB,R1,38.591341
P25,P3M,PB,R1,11.656678
P26,P3M,PB,R1,30.979113
P27,P3M,PB,R1,2.521238
P28,P3M,PB,R1,-1.648023
P01,PRE,PB,R2,-39.16659
P02,PRE,PB,R2,-5.833405
P03,PRE,PB,R2,27.896662
P04,PRE,PB,R2,62.504022
P05,PRE,PB,R2,50.864271
P06,PRE,PB,R2,7.921867
P07,PRE,PB,R2,4.261542
P08,PRE,PB,R2,45.428849
P09,PRE,PB,R2,-42.009159
P10,PRE,PB,R2,-5.810819
P11,PRE,PB,R2,23.617639
P12,PRE,PB,R2,-10.512331
P13,PRE,PB,R2,60.383495
P14,PRE,PB,R2,54.86964
P15,PRE,PB,R2,-39.573924
P16,PRE,PB,R2,-13.894427
P17,PRE,PB,R2,-1.466518
P18,PRE,PB,R2,36.794178
P19,PRE,PB,R2,-2.419448
P20,PRE,PB,R2,21.945407
P21,PRE,PB,R2,66.00028
P22,PRE,PB,R2,-1.438188
P23,PRE,PB,R2,0.377176
P24,PRE,PB,R2,61.413068
P25,PRE,PB,R2,-28.309379
P26,PRE,PB,R2,-40.039178
P27,PRE,PB,R2,16.788171
P28,PRE,PB,R2,-17.173515
P01,P3M,PB,R2,-8.218134
P02,P3M,PB,R2,48.130404
P03,P3M,PB,R2,5.418416
P04,P3M,PB,R2,80.250802
P05,P3M,PB,R2,67.825741
P06,P3M,PB,R2,-64.696254
P07,P3M,PB,R2,3.636516
P08,P3M,PB,R2,25.696829
P09,P3M,PB,R2,-6.004538
P10,P3M,PB,R2,-23.33696
P11,P3M,PB,R2,-4.383019
P12,P3M,PB,R2,17.222174
P13,P3M,PB,R2,-8.63269
P14,P3M,PB,R2,49.441556
P15,P3M,PB,R2,11.95088
P16,P3M,PB,R2,-6.663323
P17,P3M,PB,R2,-26.001927
P18,P3M,PB,R2,28.975554
P19,P3M,PB,R2,-19.651264
P20,P3M,PB,R2,82.75276
P21,P3M,PB,R2,45.733832
P22,P3M,PB,R2,-46.530883
P23,P3M,PB,R2,-14.859468
P24,P3M,PB,R2,39.145632
P25,P3M,PB,R2,13.456317
P26,P3M,PB,R2,33.082534
P27,P3M,PB,R2,7.730635
P28,P3M,PB,R2,-1.5268
P01,PRE,PB,R3,-38.958909
P02,PRE,PB,R3,3.461925
P03,PRE,PB,R3,26.31077
P04,PRE,PB,R3,61.190738
P05,PRE,PB,R3,50.180336
P06,PRE,PB,R3,9.201236
P07,PRE,PB,R3,4.469146
P08,PRE,PB,R3,46.01994
P09,PRE,PB,R3,-41.063774
P10,PRE,PB,R3,-6.257348
P11,PRE,PB,R3,24.246476
P12,PRE,PB,R3,-9.743143
P13,PRE,PB,R3,59.589145
P14,PRE,PB,R3,55.050296
P15,PRE,PB,R3,-40.711565
P16,PRE,PB,R3,-13.701785
P17,PRE,PB,R3,-0.262382
P18,PRE,PB,R3,37.431896
P19,PRE,PB,R3,-2.252566
P20,PRE,PB,R3,21.933641
P21,PRE,PB,R3,65.794419
P22,PRE,PB,R3,-2.196556
P23,PRE,PB,R3,-0.038365
P24,PRE,PB,R3,62.803097
P25,PRE,PB,R3,-29.497959
P26,PRE,PB,R3,-40.705736
P27,PRE,PB,R3,16.046756
P28,PRE,PB,R3,-16.185259
P01,P3M,PB,R3,-6.703043
P02,P3M,PB,R3,49.924099
P03,P3M,PB,R3,3.891547
P04,P3M,PB,R3,79.878782
P05,P3M,PB,R3,68.112104
P06,P3M,PB,R3,-67.637726
P07,P3M,PB,R3,2.190044
P08,P3M,PB,R3,26.446103
P09,P3M,PB,R3,-5.683916
P10,P3M,PB,R3,-23.36607
P11,P3M,PB,R3,0.933795
P12,P3M,PB,R3,17.578699
P13,P3M,PB,R3,-7.709302
P14,P3M,PB,R3,52.264517
P15,P3M,PB,R3,11.752355
P16,P3M,PB,R3,-5.186452
P17,P3M,PB,R3,-25.782365
P18,P3M,PB,R3,42.353023
P19,P3M,PB,R3,-19.683317
P20,P3M,PB,R3,83.261762
P21,P3M,PB,R3,47.247788
P22,P3M,PB,R3,-48.340095
P23,P3M,PB,R3,-13.684755
P24,P3M,PB,R3,38.649857
P25,P3M,PB,R3,13.280936
P26,P3M,PB,R3,32.995531
P27,P3M,PB,R3,3.697829
P28,P3M,PB,R3,-0.850943
