PAT,VIS,OPE,MES,VAL
P01,PRE,XG,R1,16.0818
P02,PRE,XG,R1,18.5109
P03,PRE,XG,R1,21.0609
P04,PRE,XG,R1,15.0573
P05,PRE,XG,R1,18.0423
P06,PRE,XG,R1,19.3193
P07,PRE,XG,R1,16.8987
P08,PRE,XG,R1,18.3037
P09,PRE,XG,R1,18.8269
P10,PRE,XG,R1,20.9103
P11,PRE,XG,R1,16.5342
P12,PRE,XG,R1,19.1338
P13,PRE,XG,R1,18.0569
P14,PRE,XG,R1,20.1724
P15,PRE,XG,R1,18.433
P16,PRE,XG,R1,17.2303
P17,PRE,XG,R1,19.3942
P18,PRE,XG,R1,23.2553
P19,PRE,XG,R1,16.0119
P20,PRE,XG,R1,19.9862
P21,PRE,XG,R1,18.8128
P22,PRE,XG,R1,18.0169
P23,PRE,XG,R1,17.3037
P24,PRE,XG,R1,19.7309
P25,PRE,XG,R1,17.3082
P26,PRE,XG,R1,14.7087
P27,PRE,XG,R1,22.2142
P28,PRE,XG,R1,18.7592
P01,P3M,XG,R1,17.1378
P02,P3M,XG,R1,18.3824
P03,P3M,XG,R1,21.1993
P04,P3M,XG,R1,17.2227
P05,P3M,XG,R1,18.0637
P06,P3M,XG,R1,19.5692
P07,P3M,XG,R1,16.8526
P08,P3M,XG,R1,17.8987
P09,P3M,XG,R1,18.2138
P10,P3M,XG,R1,19.7665
P11,P3M,XG,R1,16.3387
P12,P3M,XG,R1,19.2607
P13,P3M,XG,R1,17.7969
P14,P3M,XG,R1,19.7843
P15,P3M,XG,R1,19.1509
P16,P3M,XG,R1,17.0753
P17,P3M,XG,R1,19.9992
P18,P3M,XG,R1,22.6603
P19,P3M,XG,R1,16.0349
P20,P3M,XG,R1,19.9982
P21,P3M,XG,R1,19.0767
P22,P3M,XG,R1,17.3858
P23,P3M,XG,R1,17.3037
P24,P3M,XG,R1,20.2319
P25,P3M,XG,R1,17.8512
P26,P3M,XG,R1,16.5608
P27,P3M,XG,R1,22.8092
P28,P3M,XG,R1,18.4022
P01,PRE,XG,R2,16.8752
P02,PRE,XG,R2,17.8799
P03,PRE,XG,R2,20.7038
P04,PRE,XG,R2,15.6107
P05,PRE,XG,R2,17.4542
P06,PRE,XG,R2,18.9523
P07,PRE,XG,R2,17.2807
P08,PRE,XG,R2,18.1843
P09,PRE,XG,R2,18.2014
P10,PRE,XG,R2,19.7338
P11,PRE,XG,R2,16.4582
P12,PRE,XG,R2,19.2817
P13,PRE,XG,R2,18.7583
P14,PRE,XG,R2,19.6756
P15,PRE,XG,R2,18.0554
P16,PRE,XG,R2,16.1981
P17,PRE,XG,R2,19.4702
P18,PRE,XG,R2,21.974
P19,PRE,XG,R2,16.7694
P20,PRE,XG,R2,19.0552
P21,PRE,XG,R2,18.6032
P22,PRE,XG,R2,17.7224
P23,PRE,XG,R2,18.0062
P24,PRE,XG,R2,18.8629
P25,PRE,XG,R2,17.0012
P26,PRE,XG,R2,15.7087
P27,PRE,XG,R2,22.6662
P28,PRE,XG,R2,18.7687
P01,P3M,XG,R2,16.8587
P02,P3M,XG,R2,18.3729
P03,P3M,XG,R2,21.7258
P04,P3M,XG,R2,16.5988
P05,P3M,XG,R2,18.0347
P06,P3M,XG,R2,19.5192
P07,P3M,XG,R2,16.3857
P08,P3M,XG,R2,17.3082
P09,P3M,XG,R2,17.6973
P10,P3M,XG,R2,20.2463
P11,P3M,XG,R2,16.5412
P12,P3M,XG,R2,19.1644
P13,P3M,XG,R2,17.8779
P14,P3M,XG,R2,19.888
P15,P3M,XG,R2,19.2794
P16,P3M,XG,R2,16.9889
P17,P3M,XG,R2,20.1132
P18,P3M,XG,R2,23.0863
P19,P3M,XG,R2,16.9374
P20,P3M,XG,R2,19.7147
P21,P3M,XG,R2,18.6543
P22,P3M,XG,R2,18.4568
P23,P3M,XG,R2,16.6072
P24,P3M,XG,R2,19.1909
P25,P3M,XG,R2,16.1702
P26,P3M,XG,R2,13.7118
P27,P3M,XG,R2,21.5608
P28,P3M,XG,R2,18.0641
P01,PRE,XG,R3,16.6903
P02,PRE,XG,R3,18.0419
P03,PRE,XG,R3,20.6323
P04,PRE,XG,R3,15.9272
P05,PRE,XG,R3,17.8257
P06,PRE,XG,R3,18.7337
P07,PRE,XG,R3,16.5747
P08,PRE,XG,R3,18.3833
P09,PRE,XG,R3,18.0079
P10,PRE,XG,R3,19.8256
P11,PRE,XG,R3,20.2172
P12,PRE,XG,R3,19.7676
P13,PRE,XG,R3,18.3153
P14,PRE,XG,R3,19.5698
P15,PRE,XG,R3,18.7884
P16,PRE,XG,R3,17.0278
P17,PRE,XG,R3,19.6392
P18,PRE,XG,R3,22.2947
P19,PRE,XG,R3,16.077
P20,PRE,XG,R3,19.0672
P21,PRE,XG,R3,18.6497
P22,PRE,XG,R3,18.2674
P23,PRE,XG,R3,17.3037
P24,PRE,XG,R3,19.5169
P25,PRE,XG,R3,16.4082
P26,PRE,XG,R3,15.3987
P27,PRE,XG,R3,22.5179
P28,PRE,XG,R3,18.3542
P01,P3M,XG,R3,16.8333
P02,P3M,XG,R3,18.8843
P03,P3M,XG,R3,20.8853
P04,P3M,XG,R3,17.2632
P05,P3M,XG,R3,18.2327
P06,P3M,XG,R3,19.2312
P07,P3M,XG,R3,16.0307
P08,P3M,XG,R3,18.0487
P09,P3M,XG,R3,17.3104
P10,P3M,XG,R3,19.7665
P11,P3M,XG,R3,17.0887
P12,P3M,XG,R3,20.002
P13,P3M,XG,R3,17.7184
P14,P3M,XG,R3,18.7768
P15,P3M,XG,R3,18.8299
P16,P3M,XG,R3,17.089
P17,P3M,XG,R3,19.6942
P18,P3M,XG,R3,22.845
P19,P3M,XG,R3,17.0979
P20,P3M,XG,R3,20.1006
P21,P3M,XG,R3,18.3947
P22,P3M,XG,R3,19.2338
P23,P3M,XG,R3,16.7407
P24,P3M,XG,R3,19.7999
P25,P3M,XG,R3,18.9692
P26,P3M,XG,R3,13.9518
P27,P3M,XG,R3,21.2513
P28,P3M,XG,R3,18.5306
P01,PRE,PB,R1,17.1859
P02,PRE,PB,R1,19.2969
P03,PRE,PB,R1,21.8988
P04,PRE,PB,R1,17.676
P05,PRE,PB,R1,19.4185
P06,PRE,PB,R1,20.6613
P07,PRE,PB,R1,17.3858
P08,PRE,PB,R1,20.0621
P09,PRE,PB,R1,14.3879
P10,PRE,PB,R1,22.7058
P11,PRE,PB,R1,18.6541
P12,PRE,PB,R1,20.0028
P13,PRE,PB,R1,20.7949
P14,PRE,PB,R1,20.8158
P15,PRE,PB,R1,20.9529
P16,PRE,PB,R1,18.0518
P17,PRE,PB,R1,20.7964
P18,PRE,PB,R1,25.8098
P19,PRE,PB,R1,18.074
P20,PRE,PB,R1,19.8098
P21,PRE,PB,R1,20.2238
P22,PRE,PB,R1,18.5403
P23,PRE,PB,R1,19.7095
P24,PRE,PB,R1,19.4818
P25,PRE,PB,R1,16.8915
P26,PRE,PB,R1,16.9329
P27,PRE,PB,R1,22.7384
P28,PRE,PB,R1,18.3202
P01,P3M,PB,R1,16.6404
P02,P3M,PB,R1,18.7866
P03,P3M,PB,R1,21.6893
P04,P3M,PB,R1,17.2369
P05,P3M,PB,R1,18.7571
P06,P3M,PB,R1,19.9291
P07,P3M,PB,R1,16.8526
P08,P3M,PB,R1,19.8188
P09,P3M,PB,R1,18.8225
P10,P3M,PB,R1,21.4273
P11,P3M,PB,R1,18.2317
P12,P3M,PB,R1,19.4983
P13,P3M,PB,R1,17.8805
P14,P3M,PB,R1,19.7843
P15,P3M,PB,R1,22.6183
P16,P3M,PB,R1,17.8139
P17,P3M,PB,R1,19.9742
P18,P3M,PB,R1,22.579
P19,P3M,PB,R1,17.7699
P20,P3M,PB,R1,21.9237
P21,P3M,PB,R1,19.424
P22,P3M,PB,R1,18.5413
P23,P3M,PB,R1,19.1897
P24,P3M,PB,R1,19.3579
P25,P3M,PB,R1,17.4772
P26,P3M,PB,R1,16.3458
P27,P3M,PB,R1,21.7522
P28,P3M,PB,R1,18.3269
P01,PRE,PB,R2,17.61
P02,PRE,PB,R2,18.9204
P03,PRE,PB,R2,22.7658
P04,PRE,PB,R2,17.7495
P05,PRE,PB,R2,17.4471
P06,PRE,PB,R2,20.084
P07,PRE,PB,R2,17.609
P08,PRE,PB,R2,19.3891
P09,PRE,PB,R2,19.5179
P10,PRE,PB,R2,21.6053
P11,PRE,PB,R2,19.1458
P12,PRE,PB,R2,20.0743
P13,PRE,PB,R2,20.2176
P14,PRE,PB,R2,21.2078
P15,PRE,PB,R2,20.1339
P16,PRE,PB,R2,17.4613
P17,PRE,PB,R2,20.3735
P18,PRE,PB,R2,22.1173
P19,PRE,PB,R2,16.1871
P20,PRE,PB,R2,19.6983
P21,PRE,PB,R2,21.104
P22,PRE,PB,R2,18.9699
P23,PRE,PB,R2,17.7457
P24,PRE,PB,R2,19.4749
P25,PRE,PB,R2,16.6751
P26,PRE,PB,R2,16.5228
P27,PRE,PB,R2,22.0442
P28,PRE,PB,R2,18.9286
P01,P3M,PB,R2,17.6991
P02,P3M,PB,R2,19.0871
P03,P3M,PB,R2,22.0653
P04,P3M,PB,R2,17.1307
P05,P3M,PB,R2,17.6672
P06,P3M,PB,R2,20.3139
P07,P3M,PB,R2,18.0742
P08,P3M,PB,R2,19.4075
P09,P3M,PB,R2,18.1229
P10,P3M,PB,R2,20.4412
P11,P3M,PB,R2,18.1457
P12,P3M,PB,R2,21.5388
P13,P3M,PB,R2,18.2433
P14,P3M,PB,R2,20.9127
P15,P3M,PB,R2,19.5969
P16,P3M,PB,R2,18.3588
P17,P3M,PB,R2,20.4293
P18,P3M,PB,R2,23.5538
P19,P3M,PB,R2,17.7984
P20,P3M,PB,R2,21.9197
P21,P3M,PB,R2,21.1776
P22,P3M,PB,R2,18.8469
P23,P3M,PB,R2,19.9559
P24,P3M,PB,R2,19.2604
P25,P3M,PB,R2,16.8915
P26,P3M,PB,R2,16.942
P27,P3M,PB,R2,22.688
P28,P3M,PB,R2,18.0506
P01,PRE,PB,R3,16.9302
P02,PRE,PB,R3,18.6304
P03,PRE,PB,R3,21.5703
P04,PRE,PB,R3,17.2836
P05,PRE,PB,R3,17.7478
P06,PRE,PB,R3,20.0971
P07,PRE,PB,R3,18.4202
P08,PRE,PB,R3,19.0917
P09,PRE,PB,R3,18.5177
P10,PRE,PB,R3,22.3793
P11,PRE,PB,R3,17.575
P12,PRE,PB,R3,19.8718
P13,PRE,PB,R3,18.9329
P14,PRE,PB,R3,21.0178
P15,PRE,PB,R3,19.3004
P16,PRE,PB,R3,18.2423
P17,PRE,PB,R3,20.4056
P18,PRE,PB,R3,22.9528
P19,PRE,PB,R3,16.9054
P20,PRE,PB,R3,20.2637
P21,PRE,PB,R3,19.8455
P22,PRE,PB,R3,18.5403
P23,PRE,PB,R3,18.4045
P24,PRE,PB,R3,20.2674
P25,PRE,PB,R3,17.7864
P26,PRE,PB,R3,17.098
P27,PRE,PB,R3,22.2297
P28,PRE,PB,R3,18.3571
P01,P3M,PB,R3,17.7924
P02,P3M,PB,R3,18.8376
P03,P3M,PB,R3,21.3633
P04,P3M,PB,R3,17.6421
P05,P3M,PB,R3,18.4788
P06,P3M,PB,R3,20.9134
P07,P3M,PB,R3,18.4837
P08,P3M,PB,R3,18.7452
P09,P3M,PB,R3,18.4674
P10,P3M,PB,R3,20.9033
P11,P3M,PB,R3,18.3937
P12,P3M,PB,R3,20.0603
P13,P3M,PB,R3,18.1788
P14,P3M,PB,R3,21.1608
P15,P3M,PB,R3,20.0014
P16,P3M,PB,R3,17.3948
P17,P3M,PB,R3,20.6818
P18,P3M,PB,R3,22.9438
P19,P3M,PB,R3,17.4579
P20,P3M,PB,R3,21.5077
P21,P3M,PB,R3,19.125
P22,P3M,PB,R3,18.0939
P23,P3M,PB,R3,17.847
P24,P3M,PB,R3,19.5889
P25,P3M,PB,R3,16.0249
P26,P3M,PB,R3,18.5679
P27,P3M,PB,R3,21.7274
P28,P3M,PB,R3,18.4889
