PAT,VIS,OPE,MES,VAL
P01,PRE,XG,R1,21.0886
P02,PRE,XG,R1,22.1739
P03,PRE,XG,R1,25.7542
P04,PRE,XG,R1,21.6756
P05,PRE,XG,R1,22.5213
P06,PRE,XG,R1,25.0856
P07,PRE,XG,R1,20.8626
P08,PRE,XG,R1,21.3626
P09,PRE,XG,R1,20.7739
P10,PRE,XG,R1,24.272
P11,PRE,XG,R1,20.4126
P12,PRE,XG,R1,23.622
P13,PRE,XG,R1,23.7739
P14,PRE,XG,R1,24.9042
P15,PRE,XG,R1,17.8185
P16,PRE,XG,R1,21.272
P17,PRE,XG,R1,26.6596
P18,PRE,XG,R1,23.772
P19,PRE,XG,R1,19.2739
P20,PRE,XG,R1,24.6743
P21,PRE,XG,R1,23.2256
P22,PRE,XG,R1,19.7739
P23,PRE,XG,R1,21.3626
P24,PRE,XG,R1,20.2851
P25,PRE,XG,R1,20.8126
P26,PRE,XG,R1,21.8626
P27,PRE,XG,R1,28.6596
P28,PRE,XG,R1,23.1596
P01,P3M,XG,R1,20.7256
P02,P3M,XG,R1,22.3239
P03,P3M,XG,R1,26.172
P04,P3M,XG,R1,21.2626
P05,P3M,XG,R1,22.3626
P06,P3M,XG,R1,24.1596
P07,P3M,XG,R1,20.0033
P08,P3M,XG,R1,20.8626
P09,P3M,XG,R1,21.2517
P10,P3M,XG,R1,24.4031
P11,P3M,XG,R1,19.8626
P12,P3M,XG,R1,23.7787
P13,P3M,XG,R1,22.7739
P14,P3M,XG,R1,24.672
P15,P3M,XG,R1,21.1739
P16,P3M,XG,R1,20.772
P17,P3M,XG,R1,27.1596
P18,P3M,XG,R1,24.272
P19,P3M,XG,R1,19.7962
P20,P3M,XG,R1,24.6891
P21,P3M,XG,R1,22.317
P22,P3M,XG,R1,20.2294
P23,P3M,XG,R1,21.3626
P24,P3M,XG,R1,21.2739
P25,P3M,XG,R1,20.8039
P26,P3M,XG,R1,21.68
P27,P3M,XG,R1,28.1596
P28,P3M,XG,R1,22.7187
P01,PRE,XG,R2,21.5126
P02,PRE,XG,R2,22.0739
P03,PRE,XG,R2,25.622
P04,PRE,XG,R2,21.0626
P05,PRE,XG,R2,22.4126
P06,PRE,XG,R2,24.2004
P07,PRE,XG,R2,20.4083
P08,PRE,XG,R2,21.03
P09,PRE,XG,R2,21.1128
P10,PRE,XG,R2,23.1898
P11,PRE,XG,R2,20.1953
P12,PRE,XG,R2,23.4342
P13,PRE,XG,R2,23.5905
P14,PRE,XG,R2,24.2909
P15,PRE,XG,R2,20.6239
P16,PRE,XG,R2,21.5409
P17,PRE,XG,R2,26.0743
P18,PRE,XG,R2,25.1531
P19,PRE,XG,R2,20.0239
P20,PRE,XG,R2,24.7596
P21,PRE,XG,R2,22.967
P22,PRE,XG,R2,21.3239
P23,PRE,XG,R2,21.6126
P24,PRE,XG,R2,21.3739
P25,PRE,XG,R2,20.8039
P26,PRE,XG,R2,21.8626
P27,PRE,XG,R2,27.8596
P28,PRE,XG,R2,22.9243
P01,P3M,XG,R2,21.8626
P02,P3M,XG,R2,22.3739
P03,P3M,XG,R2,26.822
P04,P3M,XG,R2,21.1713
P05,P3M,XG,R2,21.4626
P06,P3M,XG,R2,24.1596
P07,P3M,XG,R2,20.9083
P08,P3M,XG,R2,20.8126
P09,P3M,XG,R2,21.6017
P10,P3M,XG,R2,24.872
P11,P3M,XG,R2,20.1126
P12,P3M,XG,R2,23.6598
P13,P3M,XG,R2,22.8739
P14,P3M,XG,R2,24.5531
P15,P3M,XG,R2,21.0239
P16,P3M,XG,R2,21.1591
P17,P3M,XG,R2,26.5596
P18,P3M,XG,R2,23.872
P19,P3M,XG,R2,20.0462
P20,P3M,XG,R2,24.3391
P21,P3M,XG,R2,22.7213
P22,P3M,XG,R2,21.5517
P23,P3M,XG,R2,21.367
P24,P3M,XG,R2,21.2851
P25,P3M,XG,R2,20.7039
P26,P3M,XG,R2,21.1256
P27,P3M,XG,R2,27.2356
P28,P3M,XG,R2,22.7335
P01,PRE,XG,R3,21.2843
P02,PRE,XG,R3,22.2739
P03,PRE,XG,R3,25.472
P04,PRE,XG,R3,20.7126
P05,PRE,XG,R3,22.5626
P06,PRE,XG,R3,24.6096
P07,PRE,XG,R3,20.4626
P08,PRE,XG,R3,21.2756
P09,PRE,XG,R3,20.8739
P10,PRE,XG,R3,23.8587
P11,PRE,XG,R3,19.7126
P12,PRE,XG,R3,23.2316
P13,PRE,XG,R3,23.2905
P14,PRE,XG,R3,24.222
P15,PRE,XG,R3,19.9239
P16,PRE,XG,R3,21.022
P17,PRE,XG,R3,26.1596
P18,PRE,XG,R3,24.7465
P19,PRE,XG,R3,20.2185
P20,PRE,XG,R3,24.9596
P21,PRE,XG,R3,22.9626
P22,PRE,XG,R3,20.8239
P23,PRE,XG,R3,21.3626
P24,PRE,XG,R3,20.8851
P25,PRE,XG,R3,20.8126
P26,PRE,XG,R3,20.8626
P27,PRE,XG,R3,27.8617
P28,PRE,XG,R3,22.6596
P01,P3M,XG,R3,21.2756
P02,P3M,XG,R3,22.0794
P03,P3M,XG,R3,26.772
P04,P3M,XG,R3,21.3126
P05,P3M,XG,R3,22.2626
P06,P3M,XG,R3,24.1743
P07,P3M,XG,R3,20.4083
P08,P3M,XG,R3,20.8626
P09,P3M,XG,R3,21.1239
P10,P3M,XG,R3,24.4031
P11,P3M,XG,R3,19.8626
P12,P3M,XG,R3,23.3975
P13,P3M,XG,R3,22.9239
P14,P3M,XG,R3,23.922
P15,P3M,XG,R3,22.0739
P16,P3M,XG,R3,21.0975
P17,P3M,XG,R3,26.6596
P18,P3M,XG,R3,23.6975
P19,P3M,XG,R3,19.8739
P20,P3M,XG,R3,24.3835
P21,P3M,XG,R3,22.4626
P22,P3M,XG,R3,22.1405
P23,P3M,XG,R3,21.4083
P24,P3M,XG,R3,21.2962
P25,P3M,XG,R3,20.9496
P26,P3M,XG,R3,20.1256
P27,P3M,XG,R3,27.2856
P28,P3M,XG,R3,22.3835
P01,PRE,PB,R1,20.9085
P02,PRE,PB,R1,22.7739
P03,PRE,PB,R1,25.122
P04,PRE,PB,R1,21.8222
P05,PRE,PB,R1,21.9364
P06,PRE,PB,R1,24.4584
P07,PRE,PB,R1,20.8466
P08,PRE,PB,R1,20.2001
P09,PRE,PB,R1,18.8739
P10,PRE,PB,R1,24.822
P11,PRE,PB,R1,20.0051
P12,PRE,PB,R1,23.522
P13,PRE,PB,R1,23.5739
P14,PRE,PB,R1,25.822
P15,PRE,PB,R1,20.3739
P16,PRE,PB,R1,21.422
P17,PRE,PB,R1,25.9832
P18,PRE,PB,R1,23.222
P19,PRE,PB,R1,19.474
P20,PRE,PB,R1,23.7776
P21,PRE,PB,R1,22.622
P22,PRE,PB,R1,21.7781
P23,PRE,PB,R1,20.9994
P24,PRE,PB,R1,19.4837
P25,PRE,PB,R1,20.2364
P26,PRE,PB,R1,20.9049
P27,PRE,PB,R1,26.7758
P28,PRE,PB,R1,22.6175
P01,P3M,PB,R1,20.5437
P02,P3M,PB,R1,23.1316
P03,P3M,PB,R1,25.172
P04,P3M,PB,R1,21.7122
P05,P3M,PB,R1,23.2804
P06,P3M,PB,R1,24.8507
P07,P3M,PB,R1,20.0033
P08,P3M,PB,R1,21.2578
P09,P3M,PB,R1,20.0278
P10,P3M,PB,R1,24.972
P11,P3M,PB,R1,20.1626
P12,P3M,PB,R1,24.072
P13,P3M,PB,R1,23.5561
P14,P3M,PB,R1,24.672
P15,P3M,PB,R1,20.7016
P16,P3M,PB,R1,21.9925
P17,P3M,PB,R1,24.6596
P18,P3M,PB,R1,24.295
P19,P3M,PB,R1,21.0739
P20,P3M,PB,R1,23.0539
P21,P3M,PB,R1,22.8074
P22,P3M,PB,R1,21.7793
P23,P3M,PB,R1,21.9626
P24,P3M,PB,R1,20.8739
P25,P3M,PB,R1,20.7126
P26,P3M,PB,R1,20.18
P27,P3M,PB,R1,26.8546
P28,P3M,PB,R1,22.6258
P01,PRE,PB,R2,21.7407
P02,PRE,PB,R2,22.1239
P03,PRE,PB,R2,25.822
P04,PRE,PB,R2,21.1722
P05,PRE,PB,R2,21.3544
P06,PRE,PB,R2,24.7951
P07,PRE,PB,R2,19.9494
P08,PRE,PB,R2,21.0359
P09,PRE,PB,R2,21.8739
P10,PRE,PB,R2,23.772
P11,PRE,PB,R2,20.1183
P12,PRE,PB,R2,23.672
P13,PRE,PB,R2,23.355
P14,PRE,PB,R2,24.022
P15,PRE,PB,R2,20.4739
P16,PRE,PB,R2,21.372
P17,PRE,PB,R2,25.5229
P18,PRE,PB,R2,23.972
P19,PRE,PB,R2,19.9841
P20,PRE,PB,R2,24.6276
P21,PRE,PB,R2,23.2766
P22,PRE,PB,R2,21.0739
P23,PRE,PB,R2,21.2909
P24,PRE,PB,R2,21.5739
P25,PRE,PB,R2,20.5866
P26,PRE,PB,R2,21.3861
P27,PRE,PB,R2,26.6596
P28,PRE,PB,R2,22.8131
P01,P3M,PB,R2,22.5297
P02,P3M,PB,R2,22.9471
P03,P3M,PB,R2,24.772
P04,P3M,PB,R2,21.4576
P05,P3M,PB,R2,22.367
P06,P3M,PB,R2,25.4492
P07,P3M,PB,R2,20.8941
P08,P3M,PB,R2,20.9352
P09,P3M,PB,R2,22.3739
P10,P3M,PB,R2,25.236
P11,P3M,PB,R2,19.5626
P12,P3M,PB,R2,24.122
P13,P3M,PB,R2,23.2017
P14,P3M,PB,R2,23.7194
P15,P3M,PB,R2,22.7739
P16,P3M,PB,R2,21.122
P17,P3M,PB,R2,25.3448
P18,P3M,PB,R2,25.622
P19,P3M,PB,R2,20.9239
P20,P3M,PB,R2,25.2096
P21,P3M,PB,R2,22.5033
P22,P3M,PB,R2,22.7739
P23,P3M,PB,R2,20.8715
P24,P3M,PB,R2,21.1239
P25,P3M,PB,R2,20.8537
P26,P3M,PB,R2,20.916
P27,P3M,PB,R2,27.1457
P28,P3M,PB,R2,22.2847
P01,PRE,PB,R3,21.3953
P02,PRE,PB,R3,23.1239
P03,PRE,PB,R3,25.272
P04,PRE,PB,R3,20.6587
P05,PRE,PB,R3,21.5405
P06,PRE,PB,R3,24.5643
P07,PRE,PB,R3,20.3953
P08,PRE,PB,R3,20.5453
P09,PRE,PB,R3,21.3799
P10,PRE,PB,R3,24.172
P11,PRE,PB,R3,20.5864
P12,PRE,PB,R3,23.422
P13,PRE,PB,R3,23.3739
P14,PRE,PB,R3,25.022
P15,PRE,PB,R3,20.1239
P16,PRE,PB,R3,21.472
P17,PRE,PB,R3,25.0069
P18,PRE,PB,R3,23.522
P19,PRE,PB,R3,20.6239
P20,PRE,PB,R3,24.4613
P21,PRE,PB,R3,22.7722
P22,PRE,PB,R3,21.7781
P23,PRE,PB,R3,21.3635
P24,PRE,PB,R3,20.8239
P25,PRE,PB,R3,20.6005
P26,PRE,PB,R3,21.5407
P27,PRE,PB,R3,26.2096
P28,PRE,PB,R3,22.6631
P01,P3M,PB,R3,21.2252
P02,P3M,PB,R3,23.5649
P03,P3M,PB,R3,25.572
P04,P3M,PB,R3,21.7804
P05,P3M,PB,R3,21.8256
P06,P3M,PB,R3,24.3992
P07,P3M,PB,R3,20.8441
P08,P3M,PB,R3,21.167
P09,P3M,PB,R3,20.8239
P10,P3M,PB,R3,24.572
P11,P3M,PB,R3,20.3626
P12,P3M,PB,R3,24.272
P13,P3M,PB,R3,22.7517
P14,P3M,PB,R3,25.322
P15,P3M,PB,R3,22.2239
P16,P3M,PB,R3,21.722
P17,P3M,PB,R3,25.78
P18,P3M,PB,R3,24.622
P19,P3M,PB,R3,20.8739
P20,P3M,PB,R3,25.0096
P21,P3M,PB,R3,22.253
P22,P3M,PB,R3,21.4739
P23,P3M,PB,R3,21.5396
P24,P3M,PB,R3,20.9739
P25,P3M,PB,R3,20.4629
P26,P3M,PB,R3,21.2567
P27,P3M,PB,R3,27.0708
P28,P3M,PB,R3,22.8258
