PAT,VIS,OPE,MES,VAL
P01,PRE,XG,R1,80.045087
P02,PRE,XG,R1,87.210287
P03,PRE,XG,R1,79.350743
P04,PRE,XG,R1,113.277811
P05,PRE,XG,R1,104.368745
P06,PRE,XG,R1,119.772455
P07,PRE,XG,R1,76.505077
P08,PRE,XG,R1,103.603017
P09,PRE,XG,R1,142.378847
P10,PRE,XG,R1,113.829562
P11,PRE,XG,R1,91.435735
P12,PRE,XG,R1,132.342906
P13,PRE,XG,R1,94.744785
P14,PRE,XG,R1,127.015757
P15,PRE,XG,R1,121.637829
P16,PRE,XG,R1,114.238399
P17,PRE,XG,R1,103.659018
P18,PRE,XG,R1,101.839072
P19,PRE,XG,R1,81.918207
P20,PRE,XG,R1,113.874396
P21,PRE,XG,R1,129.475885
P22,PRE,XG,R1,96.297845
P23,PRE,XG,R1,105.870001
P24,PRE,XG,R1,111.620398
P25,PRE,XG,R1,79.365317
P26,PRE,XG,R1,93.689483
P27,PRE,XG,R1,111.080584
P28,PRE,XG,R1,126.751381
P01,P3M,XG,R1,83.134303
P02,P3M,XG,R1,81.032683
P03,P3M,XG,R1,87.806836
P04,P3M,XG,R1,110.904791
P05,P3M,XG,R1,83.773558
P06,P3M,XG,R1,121.479189
P07,P3M,XG,R1,91.20699
P08,P3M,XG,R1,97.982738
P09,P3M,XG,R1,109.092273
P10,P3M,XG,R1,122.08129
P11,P3M,XG,R1,108.486486
P12,P3M,XG,R1,138.643399
P13,P3M,XG,R1,132.852925
P14,P3M,XG,R1,131.042827
P15,P3M,XG,R1,103.697138
P16,P3M,XG,R1,124.399166
P17,P3M,XG,R1,97.811454
P18,P3M,XG,R1,120.816394
P19,P3M,XG,R1,95.361907
P20,P3M,XG,R1,102.151067
P21,P3M,XG,R1,102.089723
P22,P3M,XG,R1,109.238054
P23,P3M,XG,R1,73.486306
P24,P3M,XG,R1,108.431263
P25,P3M,XG,R1,82.817661
P26,P3M,XG,R1,83.261455
P27,P3M,XG,R1,130.77693
P28,P3M,XG,R1,117.047016
P01,PRE,XG,R2,79.347759
P02,PRE,XG,R2,88.539969
P03,PRE,XG,R2,78.247588
P04,PRE,XG,R2,110.238579
P05,PRE,XG,R2,106.490292
P06,PRE,XG,R2,120.659824
P07,PRE,XG,R2,77.02897
P08,PRE,XG,R2,98.865903
P09,PRE,XG,R2,141.252339
P10,PRE,XG,R2,107.053857
P11,PRE,XG,R2,90.933605
P12,PRE,XG,R2,135.293178
P13,PRE,XG,R2,95.00999
P14,PRE,XG,R2,129.397345
P15,PRE,XG,R2,122.22581
P16,PRE,XG,R2,114.566172
P17,PRE,XG,R2,102.01507
P18,PRE,XG,R2,102.861096
P19,PRE,XG,R2,79.892079
P20,PRE,XG,R2,113.413718
P21,PRE,XG,R2,130.75274
P22,PRE,XG,R2,96.452978
P23,PRE,XG,R2,104.165733
P24,PRE,XG,R2,111.953633
P25,PRE,XG,R2,80.174661
P26,PRE,XG,R2,94.108829
P27,PRE,XG,R2,108.852718
P28,PRE,XG,R2,122.051794
P01,P3M,XG,R2,81.981472
P02,P3M,XG,R2,78.856597
P03,P3M,XG,R2,87.574522
P04,P3M,XG,R2,111.386695
P05,P3M,XG,R2,83.218281
P06,P3M,XG,R2,122.847729
P07,P3M,XG,R2,93.410053
P08,P3M,XG,R2,98.937916
P09,P3M,XG,R2,112.691122
P10,P3M,XG,R2,123.257635
P11,P3M,XG,R2,109.16991
P12,P3M,XG,R2,138.608446
P13,P3M,XG,R2,133.31445
P14,P3M,XG,R2,129.691564
P15,P3M,XG,R2,104.131539
P16,P3M,XG,R2,124.201932
P17,P3M,XG,R2,98.988699
P18,P3M,XG,R2,120.53912
P19,P3M,XG,R2,95.134922
P20,P3M,XG,R2,100.977424
P21,P3M,XG,R2,101.802192
P22,P3M,XG,R2,111.427893
P23,P3M,XG,R2,74.719766
P24,P3M,XG,R2,108.074707
P25,P3M,XG,R2,82.599595
P26,P3M,XG,R2,83.359263
P27,P3M,XG,R2,130.222881
P28,P3M,XG,R2,116.260983
P01,PRE,XG,R3,80.696963
P02,PRE,XG,R3,90.473655
P03,PRE,XG,R3,77.542698
P04,PRE,XG,R3,111.795079
P05,PRE,XG,R3,104.481147
P06,PRE,XG,R3,115.073365
P07,PRE,XG,R3,74.638512
P08,PRE,XG,R3,99.136891
P09,PRE,XG,R3,139.508527
P10,PRE,XG,R3,109.626097
P11,PRE,XG,R3,92.722229
P12,PRE,XG,R3,133.777421
P13,PRE,XG,R3,93.044599
P14,PRE,XG,R3,128.982681
P15,PRE,XG,R3,120.540125
P16,PRE,XG,R3,113.768828
P17,PRE,XG,R3,100.917134
P18,PRE,XG,R3,101.967968
P19,PRE,XG,R3,79.695959
P20,PRE,XG,R3,112.935065
P21,PRE,XG,R3,121.614991
P22,PRE,XG,R3,95.461161
P23,PRE,XG,R3,106.135419
P24,PRE,XG,R3,111.177742
P25,PRE,XG,R3,80.3893
P26,PRE,XG,R3,92.365896
P27,PRE,XG,R3,108.226338
P28,PRE,XG,R3,126.658105
P01,P3M,XG,R3,82.858558
P02,P3M,XG,R3,79.696612
P03,P3M,XG,R3,87.353771
P04,P3M,XG,R3,109.995071
P05,P3M,XG,R3,83.510179
P06,P3M,XG,R3,121.283098
P07,P3M,XG,R3,91.888213
P08,P3M,XG,R3,97.063104
P09,P3M,XG,R3,111.087282
P10,P3M,XG,R3,123.825845
P11,P3M,XG,R3,111.068401
P12,P3M,XG,R3,138.692579
P13,P3M,XG,R3,130.003982
P14,P3M,XG,R3,131.855242
P15,P3M,XG,R3,103.132955
P16,P3M,XG,R3,123.581544
P17,P3M,XG,R3,97.975203
P18,P3M,XG,R3,121.906045
P19,P3M,XG,R3,95.007682
P20,P3M,XG,R3,103.828985
P21,P3M,XG,R3,101.002626
P22,P3M,XG,R3,109.185109
P23,P3M,XG,R3,75.277111
P24,P3M,XG,R3,108.768313
P25,P3M,XG,R3,81.313408
P26,P3M,XG,R3,84.249545
P27,P3M,XG,R3,131.004232
P28,P3M,XG,R3,117.703398
P01,PRE,PB,R1,83.196669
P02,PRE,PB,R1,86.089455
P03,PRE,PB,R1,79.351354
P04,PRE,PB,R1,112.590543
P05,PRE,PB,R1,103.936062
P06,PRE,PB,R1,119.598972
P07,PRE,PB,R1,73.466949
P08,PRE,PB,R1,101.438142
P09,PRE,PB,R1,139.269274
P10,PRE,PB,R1,111.520537
P11,PRE,PB,R1,91.621605
P12,PRE,PB,R1,132.854866
P13,PRE,PB,R1,97.533212
P14,PRE,PB,R1,129.97762
P15,PRE,PB,R1,121.115987
P16,PRE,PB,R1,119.244678
P17,PRE,PB,R1,99.050516
P18,PRE,PB,R1,106.013559
P19,PRE,PB,R1,83.109596
P20,PRE,PB,R1,112.710691
P21,PRE,PB,R1,128.07156
P22,PRE,PB,R1,96.705752
P23,PRE,PB,R1,108.376135
P24,PRE,PB,R1,112.445311
P25,PRE,PB,R1,82.126956
P26,PRE,PB,R1,92.737517
P27,PRE,PB,R1,108.068605
P28,PRE,PB,R1,127.903279
P01,P3M,PB,R1,80.07404
P02,P3M,PB,R1,82.232388
P03,P3M,PB,R1,88.796278
P04,P3M,PB,R1,111.129873
P05,P3M,PB,R1,84.289565
P06,P3M,PB,R1,124.019324
P07,P3M,PB,R1,91.20699
P08,P3M,PB,R1,97.44672
P09,P3M,PB,R1,113.751591
P10,P3M,PB,R1,127.067502
P11,P3M,PB,R1,110.830458
P12,P3M,PB,R1,138.26955
P13,P3M,PB,R1,132.325331
P14,P3M,PB,R1,131.042827
P15,P3M,PB,R1,105.252489
P16,P3M,PB,R1,127.654039
P17,P3M,PB,R1,97.8302
P18,P3M,PB,R1,122.448148
P19,P3M,PB,R1,95.560163
P20,P3M,PB,R1,102.746193
P21,P3M,PB,R1,100.740098
P22,P3M,PB,R1,109.425648
P23,P3M,PB,R1,75.921015
P24,P3M,PB,R1,110.600744
P25,P3M,PB,R1,83.040024
P26,P3M,PB,R1,81.380245
P27,P3M,PB,R1,128.497498
P28,P3M,PB,R1,118.141666
P01,PRE,PB,R2,81.637162
P02,PRE,PB,R2,85.817623
P03,PRE,PB,R2,77.599405
P04,PRE,PB,R2,112.352459
P05,PRE,PB,R2,105.789019
P06,PRE,PB,R2,119.956046
P07,PRE,PB,R2,74.04976
P08,PRE,PB,R2,101.698187
P09,PRE,PB,R2,142.396504
P10,PRE,PB,R2,113.295955
P11,PRE,PB,R2,90.669744
P12,PRE,PB,R2,136.406741
P13,PRE,PB,R2,97.458632
P14,PRE,PB,R2,128.870405
P15,PRE,PB,R2,122.658904
P16,PRE,PB,R2,116.504588
P17,PRE,PB,R2,101.008026
P18,PRE,PB,R2,105.828816
P19,PRE,PB,R2,81.454702
P20,PRE,PB,R2,112.92129
P21,PRE,PB,R2,120.153822
P22,PRE,PB,R2,99.012362
P23,PRE,PB,R2,105.600248
P24,PRE,PB,R2,111.72732
P25,PRE,PB,R2,78.22014
P26,PRE,PB,R2,91.563113
P27,PRE,PB,R2,109.013282
P28,PRE,PB,R2,128.216543
P01,P3M,PB,R2,82.293134
P02,P3M,PB,R2,82.06052
P03,P3M,PB,R2,86.245782
P04,P3M,PB,R2,111.285662
P05,P3M,PB,R2,86.109912
P06,P3M,PB,R2,120.723982
P07,P3M,PB,R2,92.1111
P08,P3M,PB,R2,98.178599
P09,P3M,PB,R2,113.489709
P10,P3M,PB,R2,124.347129
P11,P3M,PB,R2,110.766268
P12,P3M,PB,R2,137.615419
P13,P3M,PB,R2,132.223648
P14,P3M,PB,R2,131.582628
P15,P3M,PB,R2,105.734805
P16,P3M,PB,R2,123.670058
P17,P3M,PB,R2,99.355188
P18,P3M,PB,R2,123.65227
P19,P3M,PB,R2,95.019355
P20,P3M,PB,R2,102.833337
P21,P3M,PB,R2,102.187806
P22,P3M,PB,R2,111.404561
P23,P3M,PB,R2,73.879988
P24,P3M,PB,R2,108.810084
P25,P3M,PB,R2,81.072239
P26,P3M,PB,R2,82.262037
P27,P3M,PB,R2,129.286188
P28,P3M,PB,R2,117.601243
P01,PRE,PB,R3,80.135222
P02,PRE,PB,R3,87.858172
P03,PRE,PB,R3,81.244301
P04,PRE,PB,R3,111.260105
P05,PRE,PB,R3,106.590102
P06,PRE,PB,R3,119.574561
P07,PRE,PB,R3,74.254268
P08,PRE,PB,R3,100.503876
P09,PRE,PB,R3,132.918661
P10,PRE,PB,R3,112.896296
P11,PRE,PB,R3,91.546357
P12,PRE,PB,R3,134.724946
P13,PRE,PB,R3,97.691572
P14,PRE,PB,R3,130.553693
P15,PRE,PB,R3,122.137747
P16,PRE,PB,R3,117.417016
P17,PRE,PB,R3,100.587867
P18,PRE,PB,R3,103.96928
P19,PRE,PB,R3,83.803093
P20,PRE,PB,R3,111.703094
P21,PRE,PB,R3,124.66865
P22,PRE,PB,R3,96.705752
P23,PRE,PB,R3,106.200302
P24,PRE,PB,R3,110.831671
P25,PRE,PB,R3,80.018002
P26,PRE,PB,R3,93.193471
P27,PRE,PB,R3,110.114835
P28,PRE,PB,R3,127.092885
P01,P3M,PB,R3,82.643707
P02,P3M,PB,R3,80.400441
P03,P3M,PB,R3,89.411712
P04,P3M,PB,R3,110.158102
P05,P3M,PB,R3,83.332366
P06,P3M,PB,R3,121.826756
P07,P3M,PB,R3,90.04692
P08,P3M,PB,R3,99.079252
P09,P3M,PB,R3,113.074635
P10,P3M,PB,R3,125.40654
P11,P3M,PB,R3,109.908171
P12,P3M,PB,R3,140.448871
P13,P3M,PB,R3,133.124785
P14,P3M,PB,R3,131.220645
P15,P3M,PB,R3,106.641264
P16,P3M,PB,R3,125.130299
P17,P3M,PB,R3,97.394261
P18,P3M,PB,R3,123.436874
P19,P3M,PB,R3,96.131384
P20,P3M,PB,R3,103.385592
P21,P3M,PB,R3,105.287758
P22,P3M,PB,R3,109.183268
P23,P3M,PB,R3,75.432442
P24,P3M,PB,R3,108.873601
P25,P3M,PB,R3,81.627414
P26,P3M,PB,R3,83.764094
P27,P3M,PB,R3,129.437079
P28,P3M,PB,R3,117.971936
