PAT,VIS,OPE,MES,VAL
P01,PRE,XG,R1,18.7659
P02,PRE,XG,R1,19.2734
P03,PRE,XG,R1,20.1679
P04,PRE,XG,R1,18.3809
P05,PRE,XG,R1,19.2154
P06,PRE,XG,R1,18.9994
P07,PRE,XG,R1,17.9959
P08,PRE,XG,R1,18.0895
P09,PRE,XG,R1,17.8342
P10,PRE,XG,R1,22.6892
P11,PRE,XG,R1,16.2431
P12,PRE,XG,R1,19.1915
P13,PRE,XG,R1,18.0853
P14,PRE,XG,R1,20.6029
P15,PRE,XG,R1,18.9842
P16,PRE,XG,R1,17.704
P17,PRE,XG,R1,21.8444
P18,PRE,XG,R1,22.7579
P19,PRE,XG,R1,15.9444
P20,PRE,XG,R1,19.6894
P21,PRE,XG,R1,19.1509
P22,PRE,XG,R1,20.1841
P23,PRE,XG,R1,20.1509
P24,PRE,XG,R1,19.7292
P25,PRE,XG,R1,18.8195
P26,PRE,XG,R1,17.7488
P27,PRE,XG,R1,20.4813
P28,PRE,XG,R1,19.099
P01,P3M,XG,R1,17.9025
P02,P3M,XG,R1,18.7603
P03,P3M,XG,R1,19.787
P04,P3M,XG,R1,18.4758
P05,P3M,XG,R1,19.6258
P06,P3M,XG,R1,22.48
P07,P3M,XG,R1,18.1313
P08,P3M,XG,R1,18.17
P09,P3M,XG,R1,18.9025
P10,P3M,XG,R1,20.5392
P11,P3M,XG,R1,17.2602
P12,P3M,XG,R1,19.53
P13,P3M,XG,R1,18.28
P14,P3M,XG,R1,19.8513
P15,P3M,XG,R1,18.7348
P16,P3M,XG,R1,18.1913
P17,P3M,XG,R1,23.0718
P18,P3M,XG,R1,21.635
P19,P3M,XG,R1,17.2925
P20,P3M,XG,R1,20.018
P21,P3M,XG,R1,18.48
P22,P3M,XG,R1,19.0757
P23,P3M,XG,R1,18.0757
P24,P3M,XG,R1,19.7292
P25,P3M,XG,R1,18.5313
P26,P3M,XG,R1,16.8448
P27,P3M,XG,R1,20.39
P28,P3M,XG,R1,19.1444
P01,PRE,XG,R2,17.9509
P02,PRE,XG,R2,18.7998
P03,PRE,XG,R2,20.157
P04,PRE,XG,R2,18.6183
P05,PRE,XG,R2,19.0391
P06,PRE,XG,R2,18.8719
P07,PRE,XG,R2,18.3809
P08,PRE,XG,R2,17.9469
P09,PRE,XG,R2,16.7762
P10,PRE,XG,R2,22.6129
P11,PRE,XG,R2,16.9231
P12,PRE,XG,R2,20.3989
P13,PRE,XG,R2,17.9617
P14,PRE,XG,R2,19.5829
P15,PRE,XG,R2,19.0394
P16,PRE,XG,R2,17.3429
P17,PRE,XG,R2,21.1369
P18,PRE,XG,R2,21.6879
P19,PRE,XG,R2,16.1814
P20,PRE,XG,R2,20.3723
P21,PRE,XG,R2,20.1509
P22,PRE,XG,R2,20.8391
P23,PRE,XG,R2,19.1954
P24,PRE,XG,R2,19.4767
P25,PRE,XG,R2,18.4419
P26,PRE,XG,R2,17.1039
P27,PRE,XG,R2,21.8317
P28,PRE,XG,R2,18.4229
P01,P3M,XG,R2,18.1257
P02,P3M,XG,R2,18.8448
P03,P3M,XG,R2,20.0258
P04,P3M,XG,R2,18.668
P05,P3M,XG,R2,19.168
P06,P3M,XG,R2,21.5448
P07,P3M,XG,R2,18.37
P08,P3M,XG,R2,18.4134
P09,P3M,XG,R2,18.3335
P10,P3M,XG,R2,20.1548
P11,P3M,XG,R2,17.087
P12,P3M,XG,R2,20.8723
P13,P3M,XG,R2,18.1447
P14,P3M,XG,R2,20.2857
P15,P3M,XG,R2,18.6503
P16,P3M,XG,R2,18.249
P17,P3M,XG,R2,20.3335
P18,P3M,XG,R2,20.93
P19,P3M,XG,R2,17.8503
P20,P3M,XG,R2,19.98
P21,P3M,XG,R2,18.8758
P22,P3M,XG,R2,19.48
P23,P3M,XG,R2,18.8258
P24,P3M,XG,R2,19.349
P25,P3M,XG,R2,18.3735
P26,P3M,XG,R2,16.8068
P27,P3M,XG,R2,19.7245
P28,P3M,XG,R2,18.0067
P01,PRE,XG,R3,17.6079
P02,PRE,XG,R3,18.6936
P03,PRE,XG,R3,20.5185
P04,PRE,XG,R3,17.9074
P05,PRE,XG,R3,19.1908
P06,PRE,XG,R3,19.2409
P07,PRE,XG,R3,18.4559
P08,PRE,XG,R3,17.5854
P09,PRE,XG,R3,17.6427
P10,PRE,XG,R3,22.3854
P11,PRE,XG,R3,17.3672
P12,PRE,XG,R3,20.3256
P13,PRE,XG,R3,18.1657
P14,PRE,XG,R3,18.7834
P15,PRE,XG,R3,19.2762
P16,PRE,XG,R3,17.6734
P17,PRE,XG,R3,22.0269
P18,PRE,XG,R3,22.6879
P19,PRE,XG,R3,16.2132
P20,PRE,XG,R3,20.5169
P21,PRE,XG,R3,17.6608
P22,PRE,XG,R3,20.1784
P23,PRE,XG,R3,20.0895
P24,PRE,XG,R3,19.1292
P25,PRE,XG,R3,18.9918
P26,PRE,XG,R3,16.6302
P27,PRE,XG,R3,20.7614
P28,PRE,XG,R3,18.521
P01,P3M,XG,R3,18.1025
P02,P3M,XG,R3,18.7145
P03,P3M,XG,R3,20.3068
P04,P3M,XG,R3,19.018
P05,P3M,XG,R3,19.618
P06,P3M,XG,R3,21.068
P07,P3M,XG,R3,18.6467
P08,P3M,XG,R3,17.2003
P09,P3M,XG,R3,19.7335
P10,P3M,XG,R3,20.0703
P11,P3M,XG,R3,17.1335
P12,P3M,XG,R3,20.73
P13,P3M,XG,R3,18.3068
P14,P3M,XG,R3,19.3703
P15,P3M,XG,R3,18.9658
P16,P3M,XG,R3,18.48
P17,P3M,XG,R3,21.9835
P18,P3M,XG,R3,21.835
P19,P3M,XG,R3,16.3312
P20,P3M,XG,R3,20.1103
P21,P3M,XG,R3,18.1912
P22,P3M,XG,R3,18.2912
P23,P3M,XG,R3,17.7292
P24,P3M,XG,R3,19.3258
P25,P3M,XG,R3,17.9967
P26,P3M,XG,R3,16.8912
P27,P3M,XG,R3,20.228
P28,P3M,XG,R3,17.6335
P01,PRE,PB,R1,18.536
P02,PRE,PB,R1,18.5318
P03,PRE,PB,R1,22.2573
P04,PRE,PB,R1,16.6073
P05,PRE,PB,R1,19.0093
P06,PRE,PB,R1,19.2669
P07,PRE,PB,R1,17.3708
P08,PRE,PB,R1,17.1802
P09,PRE,PB,R1,16.6532
P10,PRE,PB,R1,23.932
P11,PRE,PB,R1,16.6759
P12,PRE,PB,R1,18.9339
P13,PRE,PB,R1,18.8183
P14,PRE,PB,R1,19.7947
P15,PRE,PB,R1,19.5421
P16,PRE,PB,R1,16.8516
P17,PRE,PB,R1,22.0667
P18,PRE,PB,R1,21.2444
P19,PRE,PB,R1,16.5298
P20,PRE,PB,R1,21.1894
P21,PRE,PB,R1,17.9819
P22,PRE,PB,R1,18.7913
P23,PRE,PB,R1,18.6234
P24,PRE,PB,R1,18.2722
P25,PRE,PB,R1,18.8769
P26,PRE,PB,R1,16.1419
P27,PRE,PB,R1,19.9812
P28,PRE,PB,R1,17.8954
P01,P3M,PB,R1,18.918
P02,P3M,PB,R1,18.48
P03,P3M,PB,R1,20.918
P04,P3M,PB,R1,18.48
P05,P3M,PB,R1,19.6758
P06,P3M,PB,R1,17.7568
P07,P3M,PB,R1,18.1313
P08,P3M,PB,R1,19.039
P09,P3M,PB,R1,18.3645
P10,P3M,PB,R1,21.7435
P11,P3M,PB,R1,17.7525
P12,P3M,PB,R1,20.98
P13,P3M,PB,R1,18.23
P14,P3M,PB,R1,19.8513
P15,P3M,PB,R1,18.9925
P16,P3M,PB,R1,18.1335
P17,P3M,PB,R1,20.13
P18,P3M,PB,R1,21.98
P19,P3M,PB,R1,17.139
P20,P3M,PB,R1,21.3758
P21,P3M,PB,R1,18.7025
P22,P3M,PB,R1,18.249
P23,P3M,PB,R1,19.2835
P24,P3M,PB,R1,19.518
P25,P3M,PB,R1,18.439
P26,P3M,PB,R1,17.0412
P27,P3M,PB,R1,20.19
P28,P3M,PB,R1,18.48
P01,PRE,PB,R2,17.7044
P02,PRE,PB,R2,18.6094
P03,PRE,PB,R2,22.8679
P04,PRE,PB,R2,18.8106
P05,PRE,PB,R2,19.8194
P06,PRE,PB,R2,19.5859
P07,PRE,PB,R2,18.8074
P08,PRE,PB,R2,18.1109
P09,PRE,PB,R2,16.7157
P10,PRE,PB,R2,22.9462
P11,PRE,PB,R2,18.6074
P12,PRE,PB,R2,20.3236
P13,PRE,PB,R2,19.2542
P14,PRE,PB,R2,19.0681
P15,PRE,PB,R2,18.7851
P16,PRE,PB,R2,17.9407
P17,PRE,PB,R2,22.0754
P18,PRE,PB,R2,21.8213
P19,PRE,PB,R2,16.8495
P20,PRE,PB,R2,20.0624
P21,PRE,PB,R2,18.8934
P22,PRE,PB,R2,18.286
P23,PRE,PB,R2,19.0734
P24,PRE,PB,R2,17.9183
P25,PRE,PB,R2,17.4994
P26,PRE,PB,R2,18.0653
P27,PRE,PB,R2,22.0144
P28,PRE,PB,R2,19.5729
P01,P3M,PB,R2,17.9602
P02,P3M,PB,R2,18.38
P03,P3M,PB,R2,21.18
P04,P3M,PB,R2,19.53
P05,P3M,PB,R2,19.1335
P06,P3M,PB,R2,20.5258
P07,P3M,PB,R2,19.0355
P08,P3M,PB,R2,18.42
P09,P3M,PB,R2,17.98
P10,P3M,PB,R2,20.8858
P11,P3M,PB,R2,18.73
P12,P3M,PB,R2,19.98
P13,P3M,PB,R2,18.48
P14,P3M,PB,R2,20.39
P15,P3M,PB,R2,19.4925
P16,P3M,PB,R2,18.73
P17,P3M,PB,R2,21.03
P18,P3M,PB,R2,20.68
P19,P3M,PB,R2,17.0968
P20,P3M,PB,R2,20.7258
P21,P3M,PB,R2,19.98
P22,P3M,PB,R2,19.1525
P23,P3M,PB,R2,19.2145
P24,P3M,PB,R2,19.099
P25,P3M,PB,R2,17.57
P26,P3M,PB,R2,16.98
P27,P3M,PB,R2,23.3703
P28,P3M,PB,R2,18.58
P01,PRE,PB,R3,18.7159
P02,PRE,PB,R3,18.6344
P03,PRE,PB,R3,20.275
P04,PRE,PB,R3,17.4604
P05,PRE,PB,R3,19.2579
P06,PRE,PB,R3,19.0744
P07,PRE,PB,R3,17.7959
P08,PRE,PB,R3,16.8999
P09,PRE,PB,R3,16.4635
P10,PRE,PB,R3,21.5302
P11,PRE,PB,R3,16.9883
P12,PRE,PB,R3,20.2546
P13,PRE,PB,R3,18.3017
P14,PRE,PB,R3,19.7538
P15,PRE,PB,R3,19.3539
P16,PRE,PB,R3,17.9213
P17,PRE,PB,R3,22.3289
P18,PRE,PB,R3,20.8817
P19,PRE,PB,R3,16.612
P20,PRE,PB,R3,20.7939
P21,PRE,PB,R3,19.0549
P22,PRE,PB,R3,18.7913
P23,PRE,PB,R3,18.7234
P24,PRE,PB,R3,19.0175
P25,PRE,PB,R3,18.1414
P26,PRE,PB,R3,17.1192
P27,PRE,PB,R3,22.2109
P28,PRE,PB,R3,17.9194
P01,P3M,PB,R3,19.3835
P02,P3M,PB,R3,18.48
P03,P3M,PB,R3,20.43
P04,P3M,PB,R3,18.93
P05,P3M,PB,R3,18.9413
P06,P3M,PB,R3,20.58
P07,P3M,PB,R3,18.8778
P08,P3M,PB,R3,17.37
P09,P3M,PB,R3,18.48
P10,P3M,PB,R3,21.54
P11,P3M,PB,R3,18.53
P12,P3M,PB,R3,20.33
P13,P3M,PB,R3,18.48
P14,P3M,PB,R3,20.4435
P15,P3M,PB,R3,18.17
P16,P3M,PB,R3,17.3792
P17,P3M,PB,R3,21.08
P18,P3M,PB,R3,21.03
P19,P3M,PB,R3,17.5425
P20,P3M,PB,R3,21.08
P21,P3M,PB,R3,18.48
P22,P3M,PB,R3,20.13
P23,P3M,PB,R3,19.7835
P24,P3M,PB,R3,19.63
P25,P3M,PB,R3,17.9313
P26,P3M,PB,R3,16.78
P27,P3M,PB,R3,19.78
P28,P3M,PB,R3,18.33
