PAT,VIS,OPE,MES,VAL
P01,PRE,XG,R1,-43.29579
P02,PRE,XG,R1,-35.414436
P03,PRE,XG,R1,5.291325
P04,PRE,XG,R1,22.044361
P05,PRE,XG,R1,28.987598
P06,PRE,XG,R1,-11.006035
P07,PRE,XG,R1,-27.478343
P08,PRE,XG,R1,-1.297704
P09,PRE,XG,R1,-90.496038
P10,PRE,XG,R1,-11.96564
P11,PRE,XG,R1,-4.787719
P12,PRE,XG,R1,-57.410466
P13,PRE,XG,R1,19.068654
P14,PRE,XG,R1,30.204215
P15,PRE,XG,R1,-69.94557
P16,PRE,XG,R1,-31.00564
P17,PRE,XG,R1,-16.697019
P18,PRE,XG,R1,3.03833100000001
P19,PRE,XG,R1,-41.398861
P20,PRE,XG,R1,-15.483522
P21,PRE,XG,R1,67.459264
P22,PRE,XG,R1,-39.070595
P23,PRE,XG,R1,-29.183932
P24,PRE,XG,R1,34.326015
P25,PRE,XG,R1,-46.164493
P26,PRE,XG,R1,-22.068739
P27,PRE,XG,R1,-11.534997
P28,PRE,XG,R1,-39.196582
P01,P3M,XG,R1,-24.415674
P02,P3M,XG,R1,4.703547
P03,P3M,XG,R1,-45.539584
P04,P3M,XG,R1,39.170633
P05,P3M,XG,R1,37.934717
P06,P3M,XG,R1,-81.800311
P07,P3M,XG,R1,-45.778302
P08,P3M,XG,R1,-18.421021
P09,P3M,XG,R1,-5.804117
P10,P3M,XG,R1,-29.002063
P11,P3M,XG,R1,-19.306945
P12,P3M,XG,R1,-34.291761
P13,P3M,XG,R1,-53.59671
P14,P3M,XG,R1,36.793449
P15,P3M,XG,R1,-5.448472
P16,P3M,XG,R1,-25.321926
P17,P3M,XG,R1,-52.021412
P18,P3M,XG,R1,-2.12197
P19,P3M,XG,R1,-59.560159
P20,P3M,XG,R1,55.415011
P21,P3M,XG,R1,47.895308
P22,P3M,XG,R1,-67.18966
P23,P3M,XG,R1,-45.712723
P24,P3M,XG,R1,-1.849903
P25,P3M,XG,R1,-10.358266
P26,P3M,XG,R1,22.46186
P27,P3M,XG,R1,-33.206295
P28,P3M,XG,R1,-24.887117
P01,PRE,XG,R2,-42.913015
P02,PRE,XG,R2,-36.028595
P03,PRE,XG,R2,4.006343
P04,PRE,XG,R2,22.692932
P05,PRE,XG,R2,30.432643
P06,PRE,XG,R2,-5.793685
P07,PRE,XG,R2,-28.438482
P08,PRE,XG,R2,-1.309672
P09,PRE,XG,R2,-93.165692
P10,PRE,XG,R2,-12.404849
P11,PRE,XG,R2,-4.350269
P12,PRE,XG,R2,-58.24648
P13,PRE,XG,R2,20.592858
P14,PRE,XG,R2,54.121131
P15,PRE,XG,R2,-68.817299
P16,PRE,XG,R2,-29.844752
P17,PRE,XG,R2,-17.307932
P18,PRE,XG,R2,4.327007
P19,PRE,XG,R2,-44.187665
P20,PRE,XG,R2,-15.928391
P21,PRE,XG,R2,67.874979
P22,PRE,XG,R2,-39.130661
P23,PRE,XG,R2,-30.429723
P24,PRE,XG,R2,34.901832
P25,PRE,XG,R2,-43.713774
P26,PRE,XG,R2,-21.111842
P27,PRE,XG,R2,-10.952263
P28,PRE,XG,R2,-39.058259
P01,P3M,XG,R2,-24.073407
P02,P3M,XG,R2,5.63863
P03,P3M,XG,R2,-46.144969
P04,P3M,XG,R2,39.827499
P05,P3M,XG,R2,39.059951
P06,P3M,XG,R2,-79.62082
P07,P3M,XG,R2,-42.684639
P08,P3M,XG,R2,-17.876326
P09,P3M,XG,R2,-4.705364
P10,P3M,XG,R2,-28.71806
P11,P3M,XG,R2,-18.591888
P12,P3M,XG,R2,-34.148262
P13,P3M,XG,R2,-53.079835
P14,P3M,XG,R2,36.56655
P15,P3M,XG,R2,-4.463687
P16,P3M,XG,R2,-24.558372
P17,P3M,XG,R2,-52.833687
P18,P3M,XG,R2,-5.985014
P19,P3M,XG,R2,-60.332958
P20,P3M,XG,R2,55.942077
P21,P3M,XG,R2,46.438319
P22,P3M,XG,R2,-67.739837
P23,P3M,XG,R2,-45.137245
P24,P3M,XG,R2,1.43016
P25,P3M,XG,R2,-10.786685
P26,P3M,XG,R2,22.422483
P27,P3M,XG,R2,-32.910643
P28,P3M,XG,R2,-24.516513
P01,PRE,XG,R3,-40.993871
P02,PRE,XG,R3,-35.888356
P03,PRE,XG,R3,5.855492
P04,PRE,XG,R3,22.866514
P05,PRE,XG,R3,31.02996
P06,PRE,XG,R3,-5.637633
P07,PRE,XG,R3,-27.663247
P08,PRE,XG,R3,0.701077999999995
P09,PRE,XG,R3,-94.458225
P10,PRE,XG,R3,-11.616476
P11,PRE,XG,R3,-3.219848
P12,PRE,XG,R3,-57.181824
P13,PRE,XG,R3,19.487587
P14,PRE,XG,R3,54.04118
P15,PRE,XG,R3,-67.334348
P16,PRE,XG,R3,-30.01334
P17,PRE,XG,R3,-17.805638
P18,PRE,XG,R3,3.566476
P19,PRE,XG,R3,-37.987907
P20,PRE,XG,R3,-17.272579
P21,PRE,XG,R3,71.413968
P22,PRE,XG,R3,-40.155453
P23,PRE,XG,R3,-30.609306
P24,PRE,XG,R3,35.019477
P25,PRE,XG,R3,-44.119064
P26,PRE,XG,R3,-19.560884
P27,PRE,XG,R3,-10.693627
P28,PRE,XG,R3,-38.232782
P01,P3M,XG,R3,-23.708316
P02,P3M,XG,R3,6.702242
P03,P3M,XG,R3,-46.440406
P04,P3M,XG,R3,40.045913
P05,P3M,XG,R3,39.545932
P06,P3M,XG,R3,-81.772394
P07,P3M,XG,R3,-41.954764
P08,P3M,XG,R3,-17.198721
P09,P3M,XG,R3,-5.336571
P10,P3M,XG,R3,-29.836253
P11,P3M,XG,R3,-18.116457
P12,P3M,XG,R3,-28.785867
P13,P3M,XG,R3,-52.784706
P14,P3M,XG,R3,36.085636
P15,P3M,XG,R3,-3.652943
P16,P3M,XG,R3,-24.781463
P17,P3M,XG,R3,-52.03282
P18,P3M,XG,R3,-4.810212
P19,P3M,XG,R3,-57.60432
P20,P3M,XG,R3,55.883103
P21,P3M,XG,R3,47.739958
P22,P3M,XG,R3,-66.445476
P23,P3M,XG,R3,-45.297975
P24,P3M,XG,R3,-1.172452
P25,P3M,XG,R3,-10.451936
P26,P3M,XG,R3,23.588044
P27,P3M,XG,R3,-32.153515
P28,P3M,XG,R3,-25.100704
P01,PRE,PB,R1,-43.010296
P02,PRE,PB,R1,-37.318345
P03,PRE,PB,R1,-0.641137999999998
P04,PRE,PB,R1,21.424888
P05,PRE,PB,R1,30.156884
P06,PRE,PB,R1,-4.249624
P07,PRE,PB,R1,-27.897034
P08,PRE,PB,R1,0.844544000000001
P09,PRE,PB,R1,-94.300129
P10,PRE,PB,R1,-12.880609
P11,PRE,PB,R1,-4.056338
P12,PRE,PB,R1,-60.248304
P13,PRE,PB,R1,15.772233
P14,PRE,PB,R1,51.562326
P15,PRE,PB,R1,-70.396372
P16,PRE,PB,R1,-32.616
P17,PRE,PB,R1,-18.170185
P18,PRE,PB,R1,3.725431
P19,PRE,PB,R1,-39.395952
P20,PRE,PB,R1,-18.330626
P21,PRE,PB,R1,66.101887
P22,PRE,PB,R1,-37.348361
P23,PRE,PB,R1,-31.970952
P24,PRE,PB,R1,33.652184
P25,PRE,PB,R1,-46.894185
P26,PRE,PB,R1,-25.842931
P27,PRE,PB,R1,-11.858167
P28,PRE,PB,R1,-39.276671
P01,P3M,PB,R1,-24.822824
P02,P3M,PB,R1,6.958252
P03,P3M,PB,R1,-51.563701
P04,P3M,PB,R1,38.599264
P05,P3M,PB,R1,37.949566
P06,P3M,PB,R1,-93.919184
P07,P3M,PB,R1,-45.778302
P08,P3M,PB,R1,-17.962297
P09,P3M,PB,R1,-7.992287
P10,P3M,PB,R1,-31.656307
P11,P3M,PB,R1,-20.018324
P12,P3M,PB,R1,-34.630806
P13,P3M,PB,R1,-53.236382
P14,P3M,PB,R1,36.793449
P15,P3M,PB,R1,-5.966722
P16,P3M,PB,R1,-25.438526
P17,P3M,PB,R1,-52.611606
P18,P3M,PB,R1,-4.146396
P19,P3M,PB,R1,-62.085463
P20,P3M,PB,R1,54.589972
P21,P3M,PB,R1,46.635439
P22,P3M,PB,R1,-70.03334
P23,P3M,PB,R1,-46.800329
P24,P3M,PB,R1,-2.192086
P25,P3M,PB,R1,-11.395381
P26,P3M,PB,R1,23.969712
P27,P3M,PB,R1,-37.65658
P28,P3M,PB,R1,-25.206276
P01,PRE,PB,R2,-43.185883
P02,PRE,PB,R2,-37.677796
P03,PRE,PB,R2,3.531156
P04,PRE,PB,R2,22.177785
P05,PRE,PB,R2,29.448306
P06,PRE,PB,R2,-5.600035
P07,PRE,PB,R2,-26.161797
P08,PRE,PB,R2,-3.811325
P09,PRE,PB,R2,-97.407359
P10,PRE,PB,R2,-12.329775
P11,PRE,PB,R2,-3.630867
P12,PRE,PB,R2,-59.918482
P13,PRE,PB,R2,15.346286
P14,PRE,PB,R2,52.413468
P15,PRE,PB,R2,-69.740047
P16,PRE,PB,R2,-32.09406
P17,PRE,PB,R2,-17.710403
P18,PRE,PB,R2,4.620396
P19,PRE,PB,R2,-47.101033
P20,PRE,PB,R2,-20.173488
P21,PRE,PB,R2,68.107151
P22,PRE,PB,R2,-36.721992
P23,PRE,PB,R2,-32.783426
P24,PRE,PB,R2,33.928693
P25,PRE,PB,R2,-45.502124
P26,PRE,PB,R2,-26.783701
P27,PRE,PB,R2,-12.037414
P28,PRE,PB,R2,-39.558234
P01,P3M,PB,R2,-24.550755
P02,P3M,PB,R2,4.388971
P03,P3M,PB,R2,-51.501183
P04,P3M,PB,R2,39.667482
P05,P3M,PB,R2,38.2186
P06,P3M,PB,R2,-86.379768
P07,P3M,PB,R2,-43.45674
P08,P3M,PB,R2,-19.160728
P09,P3M,PB,R2,-8.423386
P10,P3M,PB,R2,-29.345983
P11,P3M,PB,R2,-19.293622
P12,P3M,PB,R2,-32.521605
P13,P3M,PB,R2,-55.853566
P14,P3M,PB,R2,35.588564
P15,P3M,PB,R2,-4.484426
P16,P3M,PB,R2,-25.480333
P17,P3M,PB,R2,-53.562954
P18,P3M,PB,R2,-4.906497
P19,P3M,PB,R2,-75.759802
P20,P3M,PB,R2,53.402426
P21,P3M,PB,R2,46.695105
P22,P3M,PB,R2,-67.677326
P23,P3M,PB,R2,-47.245003
P24,P3M,PB,R2,-3.206254
P25,P3M,PB,R2,-10.24365
P26,P3M,PB,R2,22.526142
P27,P3M,PB,R2,-33.084771
P28,P3M,PB,R2,-25.500969
P01,PRE,PB,R3,-42.031087
P02,PRE,PB,R3,-36.571388
P03,PRE,PB,R3,3.893622
P04,PRE,PB,R3,21.918141
P05,PRE,PB,R3,29.872507
P06,PRE,PB,R3,-5.226258
P07,PRE,PB,R3,-26.741625
P08,PRE,PB,R3,1.091138
P09,PRE,PB,R3,-97.892079
P10,PRE,PB,R3,-13.31967
P11,PRE,PB,R3,-2.902945
P12,PRE,PB,R3,-60.014266
P13,PRE,PB,R3,17.278393
P14,PRE,PB,R3,51.697899
P15,PRE,PB,R3,-69.360692
P16,PRE,PB,R3,-31.936106
P17,PRE,PB,R3,-18.068098
P18,PRE,PB,R3,3.89497100000001
P19,PRE,PB,R3,-40.867016
P20,PRE,PB,R3,-19.57737
P21,PRE,PB,R3,66.625498
P22,PRE,PB,R3,-37.348361
P23,PRE,PB,R3,-32.57632
P24,PRE,PB,R3,35.408832
P25,PRE,PB,R3,-45.948891
P26,PRE,PB,R3,-27.250989
P27,PRE,PB,R3,-12.07822
P28,PRE,PB,R3,-39.9389
P01,P3M,PB,R3,-24.293203
P02,P3M,PB,R3,7.139409
P03,P3M,PB,R3,-41.825568
P04,P3M,PB,R3,37.92596
P05,P3M,PB,R3,38.188353
P06,P3M,PB,R3,-83.889295
P07,P3M,PB,R3,-41.196539
P08,P3M,PB,R3,-20.074096
P09,P3M,PB,R3,-8.139636
P10,P3M,PB,R3,-29.828913
P11,P3M,PB,R3,-19.358815
P12,P3M,PB,R3,-34.59093
P13,P3M,PB,R3,-54.422851
P14,P3M,PB,R3,34.686786
P15,P3M,PB,R3,-3.337584
P16,P3M,PB,R3,-25.497954
P17,P3M,PB,R3,-58.158452
P18,P3M,PB,R3,-5.180157
P19,P3M,PB,R3,-81.007364
P20,P3M,PB,R3,54.841048
P21,P3M,PB,R3,49.893006
P22,P3M,PB,R3,-65.75465
P23,P3M,PB,R3,-47.2292
P24,P3M,PB,R3,-3.074793
P25,P3M,PB,R3,-10.840785
P26,P3M,PB,R3,20.16622
P27,P3M,PB,R3,-33.384974
P28,P3M,PB,R3,-25.466185
