PAT,VIS,OPE,MES,VAL
P01,PRE,XG,R1,1.5113898120695
P02,PRE,XG,R1,15.0346275024614
P03,PRE,XG,R1,9.4160242196116
P04,PRE,XG,R1,19.2989365594112
P05,PRE,XG,R1,7.08869312992
P06,PRE,XG,R1,14.2839637225379
P07,PRE,XG,R1,23.1669440141043
P08,PRE,XG,R1,14.5357659785833
P09,PRE,XG,R1,17.7255645062662
P10,PRE,XG,R1,3.9254019347438
P11,PRE,XG,R1,9.4990758929329
P12,PRE,XG,R1,19.1618836323019
P13,PRE,XG,R1,9.7890851517501
P14,PRE,XG,R1,17.2683660855381
P15,PRE,XG,R1,16.191381825713
P16,PRE,XG,R1,12.7088829652659
P17,PRE,XG,R1,3.9913544930639
P18,PRE,XG,R1,20.1952534913223
P19,PRE,XG,R1,15.3412913186505
P20,PRE,XG,R1,13.1292825802793
P21,PRE,XG,R1,-0.5894358755641
P22,PRE,XG,R1,18.6923254781018
P23,PRE,XG,R1,10.8105471036016
P24,PRE,XG,R1,10.1651458086639
P25,PRE,XG,R1,7.624415552075
P26,PRE,XG,R1,-3.3310297658016
P27,PRE,XG,R1,13.2461928610069
P28,PRE,XG,R1,13.0694123806036
P01,P3M,XG,R1,6.008990220924
P02,P3M,XG,R1,13.7901608200153
P03,P3M,XG,R1,14.1838342712129
P04,P3M,XG,R1,17.8218503869263
P05,P3M,XG,R1,13.3736270899761
P06,P3M,XG,R1,6.26036807015
P07,P3M,XG,R1,21.3770337456775
P08,P3M,XG,R1,19.0210883878648
P09,P3M,XG,R1,7.2800640135921
P10,P3M,XG,R1,10.82505166212
P11,P3M,XG,R1,10.2316864060626
P12,P3M,XG,R1,25.4175799447578
P13,P3M,XG,R1,13.7673945802912
P14,P3M,XG,R1,9.2698937116868
P15,P3M,XG,R1,17.6239832915616
P16,P3M,XG,R1,14.8921284776839
P17,P3M,XG,R1,5.5108894273744
P18,P3M,XG,R1,19.2205155217727
P19,P3M,XG,R1,15.2404832632937
P20,P3M,XG,R1,13.6876660346921
P21,P3M,XG,R1,1.5528177248271
P22,P3M,XG,R1,19.8370071244733
P23,P3M,XG,R1,10.3141675638049
P24,P3M,XG,R1,13.6733180008041
P25,P3M,XG,R1,8.6605316538198
P26,P3M,XG,R1,1.1506543113845
P27,P3M,XG,R1,14.3101523361621
P28,P3M,XG,R1,12.7018747081402
P01,PRE,XG,R2,1.40020464216
P02,PRE,XG,R2,15.8754954027173
P03,PRE,XG,R2,10.0081578060572
P04,PRE,XG,R2,18.9857933286068
P05,PRE,XG,R2,6.6618110157986
P06,PRE,XG,R2,11.5753438113251
P07,PRE,XG,R2,23.5931630829892
P08,PRE,XG,R2,13.8777643602776
P09,PRE,XG,R2,19.8332175645403
P10,PRE,XG,R2,3.6268459273723
P11,PRE,XG,R2,8.9581766470875
P12,PRE,XG,R2,19.7892946108037
P13,PRE,XG,R2,10.7140639996372
P14,PRE,XG,R2,2.3870623998409
P15,PRE,XG,R2,16.8825679730579
P16,PRE,XG,R2,12.1996261248766
P17,PRE,XG,R2,4.039104279219
P18,PRE,XG,R2,20.0395298172726
P19,PRE,XG,R2,16.911799239025
P20,PRE,XG,R2,13.0631432971241
P21,PRE,XG,R2,-0.698351929008
P22,PRE,XG,R2,18.6190512831997
P23,PRE,XG,R2,11.2623535421382
P24,PRE,XG,R2,10.3827928329047
P25,PRE,XG,R2,5.7389559232483
P26,PRE,XG,R2,-4.8899630850069
P27,PRE,XG,R2,12.4728408580044
P28,PRE,XG,R2,12.6342048090182
P01,P3M,XG,R2,6.2547068253168
P02,P3M,XG,R2,13.0797541306271
P03,P3M,XG,R2,13.4001753664158
P04,P3M,XG,R2,17.9872280432676
P05,P3M,XG,R2,12.2825958310718
P06,P3M,XG,R2,5.6068308446177
P07,P3M,XG,R2,21.4454147424748
P08,P3M,XG,R2,17.74842713852
P09,P3M,XG,R2,6.3587466541911
P10,P3M,XG,R2,10.4543593468174
P11,P3M,XG,R2,10.2808540028905
P12,P3M,XG,R2,24.8716193436502
P13,P3M,XG,R2,13.1801795586133
P14,P3M,XG,R2,8.9585218545843
P15,P3M,XG,R2,17.0444020711251
P16,P3M,XG,R2,14.3370501500933
P17,P3M,XG,R2,5.5908348074065
P18,P3M,XG,R2,22.3737329044071
P19,P3M,XG,R2,15.6837878536753
P20,P3M,XG,R2,13.7709471432172
P21,P3M,XG,R2,2.1885053511248
P22,P3M,XG,R2,18.3319126448805
P23,P3M,XG,R2,9.9224113721269
P24,P3M,XG,R2,12.5498093729116
P25,P3M,XG,R2,8.4857099263808
P26,P3M,XG,R2,0.7640409172458
P27,P3M,XG,R2,13.9489527319561
P28,P3M,XG,R2,12.1253424247525
P01,PRE,XG,R3,-0.1463765047766
P02,PRE,XG,R3,15.9156860301749
P03,PRE,XG,R3,8.6864901820922
P04,PRE,XG,R3,18.9774851484015
P05,PRE,XG,R3,5.8812529400394
P06,PRE,XG,R3,10.8426210724298
P07,PRE,XG,R3,23.864239584606
P08,PRE,XG,R3,12.5771313618233
P09,PRE,XG,R3,19.956271595352
P10,PRE,XG,R3,3.4677833096969
P11,PRE,XG,R3,8.3204322746765
P12,PRE,XG,R3,18.9425262160872
P13,PRE,XG,R3,11.8860489779426
P14,PRE,XG,R3,1.8985125302331
P15,PRE,XG,R3,17.9334704076555
P16,PRE,XG,R3,12.6025544308413
P17,PRE,XG,R3,4.4142913723543
P18,PRE,XG,R3,20.151346691146
P19,PRE,XG,R3,12.959917989382
P20,PRE,XG,R3,13.9958598784357
P21,PRE,XG,R3,-2.4406243136927
P22,PRE,XG,R3,18.9542425335653
P23,PRE,XG,R3,11.3948681968037
P24,PRE,XG,R3,10.2531338097223
P25,PRE,XG,R3,6.2424750373208
P26,PRE,XG,R3,-6.0076487695036
P27,PRE,XG,R3,12.5294754655526
P28,PRE,XG,R3,12.1660108340004
P01,P3M,XG,R3,5.6646274612948
P02,P3M,XG,R3,12.6234192199593
P03,P3M,XG,R3,14.6460590866061
P04,P3M,XG,R3,17.2856993707677
P05,P3M,XG,R3,12.009779176992
P06,P3M,XG,R3,8.4446403287396
P07,P3M,XG,R3,21.0275995189783
P08,P3M,XG,R3,17.3712734632752
P09,P3M,XG,R3,7.0423589716383
P10,P3M,XG,R3,11.1682037541778
P11,P3M,XG,R3,9.1100846326402
P12,P3M,XG,R3,22.8995756630382
P13,P3M,XG,R3,13.006349851966
P14,P3M,XG,R3,8.9102091127073
P15,P3M,XG,R3,16.7542142705373
P16,P3M,XG,R3,14.749910457107
P17,P3M,XG,R3,5.1379622775842
P18,P3M,XG,R3,21.6088447566816
P19,P3M,XG,R3,13.9561981474952
P20,P3M,XG,R3,13.888056953054
P21,P3M,XG,R3,1.5706862444718
P22,P3M,XG,R3,19.5418443087145
P23,P3M,XG,R3,9.7685305468258
P24,P3M,XG,R3,13.6058312832764
P25,P3M,XG,R3,8.516942348565
P26,P3M,XG,R3,-0.2271712614018
P27,P3M,XG,R3,13.3813133671551
P28,P3M,XG,R3,12.5496178857604
P01,PRE,PB,R1,1.7385003191424
P02,PRE,PB,R1,13.7743517186584
P03,PRE,PB,R1,12.9679737845989
P04,PRE,PB,R1,19.2838057981031
P05,PRE,PB,R1,7.131817148277
P06,PRE,PB,R1,11.000108496101
P07,PRE,PB,R1,24.9904436006501
P08,PRE,PB,R1,14.4097203114308
P09,PRE,PB,R1,19.4766751599536
P10,PRE,PB,R1,4.5659971841833
P11,PRE,PB,R1,9.3959050906085
P12,PRE,PB,R1,20.8316707472036
P13,PRE,PB,R1,13.1161789799476
P14,PRE,PB,R1,4.127530767422
P15,PRE,PB,R1,19.3962459788674
P16,PRE,PB,R1,13.2567211130827
P17,PRE,PB,R1,4.4614437102306
P18,PRE,PB,R1,20.2305943260139
P19,PRE,PB,R1,14.451714321936
P20,PRE,PB,R1,14.9355844446504
P21,PRE,PB,R1,0.4185437442692
P22,PRE,PB,R1,19.8212399697108
P23,PRE,PB,R1,13.3382783638335
P24,PRE,PB,R1,11.0143711048007
P25,PRE,PB,R1,9.0952922662301
P26,PRE,PB,R1,-2.4049275893617
P27,PRE,PB,R1,12.7128217565954
P28,PRE,PB,R1,12.5200162388804
P01,P3M,PB,R1,6.9942541746247
P02,P3M,PB,R1,12.8870162461276
P03,P3M,PB,R1,17.7184065718793
P04,P3M,PB,R1,18.302344521991
P05,P3M,PB,R1,12.7685368242564
P06,P3M,PB,R1,14.7062324258531
P07,P3M,PB,R1,23.6968755297354
P08,P3M,PB,R1,16.7998434355222
P09,P3M,PB,R1,8.5974724846666
P10,P3M,PB,R1,11.9679701159425
P11,P3M,PB,R1,10.4134316060352
P12,P3M,PB,R1,25.2979049228633
P13,P3M,PB,R1,13.6471038658593
P14,P3M,PB,R1,8.4317834380586
P15,P3M,PB,R1,18.3274026022705
P16,P3M,PB,R1,15.8817135185946
P17,P3M,PB,R1,5.6671135831515
P18,P3M,PB,R1,22.4111518808133
P19,P3M,PB,R1,16.6609983093127
P20,P3M,PB,R1,13.8600658241918
P21,P3M,PB,R1,1.9166926676997
P22,P3M,PB,R1,18.3371317466357
P23,P3M,PB,R1,10.946861215636
P24,P3M,PB,R1,14.3630916914423
P25,P3M,PB,R1,7.7118946908184
P26,P3M,PB,R1,0.89897518112
P27,P3M,PB,R1,15.2870269768597
P28,P3M,PB,R1,12.3112326180113
P01,PRE,PB,R2,2.4551082538901
P02,PRE,PB,R2,14.4531312884723
P03,PRE,PB,R2,11.337312469571
P04,PRE,PB,R2,19.9796507987067
P05,PRE,PB,R2,7.5453470942716
P06,PRE,PB,R2,11.5318516617779
P07,PRE,PB,R2,22.6433108348049
P08,PRE,PB,R2,15.9288207585331
P09,PRE,PB,R2,21.7630747703215
P10,PRE,PB,R2,5.0212890206401
P11,PRE,PB,R2,8.7553548288059
P12,PRE,PB,R2,20.0499523865038
P13,PRE,PB,R2,12.4793247592806
P14,PRE,PB,R2,4.2070366297963
P15,PRE,PB,R2,19.64418443662
P16,PRE,PB,R2,13.7836409985924
P17,PRE,PB,R2,4.3060139379058
P18,PRE,PB,R2,19.207370668146
P19,PRE,PB,R2,18.6555984149965
P20,PRE,PB,R2,16.2195216208915
P21,PRE,PB,R2,-0.9422961405303
P22,PRE,PB,R2,19.0001000726459
P23,PRE,PB,R2,13.1474071518211
P24,PRE,PB,R2,10.602951077213
P25,PRE,PB,R2,7.1559942400019
P26,PRE,PB,R2,-1.3449983553172
P27,PRE,PB,R2,12.9844004896951
P28,PRE,PB,R2,12.4122229133387
P01,P3M,PB,R2,6.6182148586738
P02,P3M,PB,R2,13.5255003941231
P03,P3M,PB,R2,16.1370541383173
P04,P3M,PB,R2,17.8419987015421
P05,P3M,PB,R2,12.7124819121261
P06,P3M,PB,R2,11.5152091793512
P07,P3M,PB,R2,22.1679921477654
P08,P3M,PB,R2,17.3954316236099
P09,P3M,PB,R2,9.0003435773342
P10,P3M,PB,R2,10.7373072215105
P11,P3M,PB,R2,8.5146116771549
P12,P3M,PB,R2,24.6869731847354
P13,P3M,PB,R2,14.9478327847643
P14,P3M,PB,R2,9.0207477788791
P15,P3M,PB,R2,16.913101834265
P16,P3M,PB,R2,14.0234905443391
P17,P3M,PB,R2,6.1358878887856
P18,P3M,PB,R2,18.436463638201
P19,P3M,PB,R2,23.3272814789123
P20,P3M,PB,R2,14.9555645756618
P21,P3M,PB,R2,2.6568994316523
P22,P3M,PB,R2,17.5449553649317
P23,P3M,PB,R2,10.5649150372918
P24,P3M,PB,R2,15.1018280543143
P25,P3M,PB,R2,8.1101501465799
P26,P3M,PB,R2,1.81029599669
P27,P3M,PB,R2,14.8962430171325
P28,P3M,PB,R2,12.8788694788503
P01,PRE,PB,R3,0.3586333301889
P02,PRE,PB,R3,15.9383571136542
P03,PRE,PB,R3,9.8624924551497
P04,PRE,PB,R3,19.6102496799702
P05,PRE,PB,R3,7.139219029286
P06,PRE,PB,R3,10.3863124636676
P07,PRE,PB,R3,23.495920097482
P08,PRE,PB,R3,14.3347902090979
P09,PRE,PB,R3,20.9207254334922
P10,PRE,PB,R3,4.0792441757414
P11,PRE,PB,R3,8.9160152162568
P12,PRE,PB,R3,20.6089963953588
P13,PRE,PB,R3,11.4615520899692
P14,PRE,PB,R3,4.3553039963611
P15,PRE,PB,R3,15.9771112642488
P16,PRE,PB,R3,13.7148421452735
P17,PRE,PB,R3,5.9123994945088
P18,PRE,PB,R3,20.4007443019185
P19,PRE,PB,R3,15.7076898722467
P20,PRE,PB,R3,15.4025112517944
P21,PRE,PB,R3,-0.280700389581
P22,PRE,PB,R3,19.2980221322892
P23,PRE,PB,R3,13.3382736085199
P24,PRE,PB,R3,10.016257892478
P25,PRE,PB,R3,7.027064006492
P26,PRE,PB,R3,-1.6200415770305
P27,PRE,PB,R3,13.1401940097331
P28,PRE,PB,R3,13.3035605017948
P01,P3M,PB,R3,6.6882724559071
P02,P3M,PB,R3,12.4797121318373
P03,P3M,PB,R3,11.8828561286189
P04,P3M,PB,R3,18.6786013956961
P05,P3M,PB,R3,12.8530316854526
P06,P3M,PB,R3,8.5259599414183
P07,P3M,PB,R3,20.8239399967077
P08,P3M,PB,R3,18.7459185065662
P09,P3M,PB,R3,8.9987807984413
P10,P3M,PB,R3,11.7150647376349
P11,P3M,PB,R3,9.8113345384784
P12,P3M,PB,R3,25.3995348504339
P13,P3M,PB,R3,14.4338948154448
P14,P3M,PB,R3,10.3071657747104
P15,P3M,PB,R3,16.3145042533222
P16,P3M,PB,R3,14.5210849900686
P17,P3M,PB,R3,8.0843951111647
P18,P3M,PB,R3,21.5421446564287
P19,P3M,PB,R3,30.4630814046043
P20,P3M,PB,R3,15.0430818913293
P21,P3M,PB,R3,0.6755651063824
P22,P3M,PB,R3,17.3482615664177
P23,P3M,PB,R3,11.2263787276605
P24,P3M,PB,R3,14.7194474499893
P25,P3M,PB,R3,8.4806660271524
P26,P3M,PB,R3,2.8121923779675
P27,P3M,PB,R3,14.1939261077727
P28,P3M,PB,R3,13.2054356785151
