PAT,VIS,OPE,MES,VAL
P01,PRE,XG,R1,31.9127686262119
P02,PRE,XG,R1,53.7704324159304
P03,PRE,XG,R1,43.6419523567965
P04,PRE,XG,R1,34.5410904463873
P05,PRE,XG,R1,46.9385033638721
P06,PRE,XG,R1,75.597807721004
P07,PRE,XG,R1,31.4467440129854
P08,PRE,XG,R1,46.9988202594252
P09,PRE,XG,R1,11.8410880586419
P10,PRE,XG,R1,45.4046294361681
P11,PRE,XG,R1,44.6347761808007
P12,PRE,XG,R1,56.3059065612959
P13,PRE,XG,R1,49.5861187489961
P14,PRE,XG,R1,47.8948252047241
P15,PRE,XG,R1,38.8921751494541
P16,PRE,XG,R1,48.3343615655612
P17,PRE,XG,R1,34.5148888528347
P18,PRE,XG,R1,33.8090058812344
P19,PRE,XG,R1,56.3106853803534
P20,PRE,XG,R1,36.5475612887528
P21,PRE,XG,R1,51.6847855644168
P22,PRE,XG,R1,57.6843926277024
P23,PRE,XG,R1,43.3557324608596
P24,PRE,XG,R1,41.936037460041
P25,PRE,XG,R1,51.2441522619668
P26,PRE,XG,R1,36.3343524838374
P27,PRE,XG,R1,29.0084315221718
P28,PRE,XG,R1,42.9201513163832
P01,P3M,XG,R1,27.715299824455
P02,P3M,XG,R1,51.0561365402603
P03,P3M,XG,R1,38.217057429821
P04,P3M,XG,R1,31.1254714462986
P05,P3M,XG,R1,41.3594024422118
P06,P3M,XG,R1,62.4507575100384
P07,P3M,XG,R1,38.5859459613273
P08,P3M,XG,R1,36.5553161613041
P09,P3M,XG,R1,35.3491102307913
P10,P3M,XG,R1,47.6365143469344
P11,P3M,XG,R1,38.54504585348
P12,P3M,XG,R1,65.4066379728055
P13,P3M,XG,R1,45.394268150271
P14,P3M,XG,R1,40.6581027003632
P15,P3M,XG,R1,38.1692955457853
P16,P3M,XG,R1,50.0584028535139
P17,P3M,XG,R1,32.2471979416053
P18,P3M,XG,R1,44.1892659749355
P19,P3M,XG,R1,50.499665335113
P20,P3M,XG,R1,34.3917082040336
P21,P3M,XG,R1,52.6023809983055
P22,P3M,XG,R1,53.7833092096769
P23,P3M,XG,R1,48.524836582532
P24,P3M,XG,R1,32.2976093822615
P25,P3M,XG,R1,49.5202567322164
P26,P3M,XG,R1,30.0593273148873
P27,P3M,XG,R1,27.3373993907991
P28,P3M,XG,R1,42.104797400246
P01,PRE,XG,R2,33.0568039457552
P02,PRE,XG,R2,54.2923398694608
P03,PRE,XG,R2,44.4198009361371
P04,PRE,XG,R2,30.146345016655
P05,PRE,XG,R2,45.044292048055
P06,PRE,XG,R2,61.8997545042169
P07,PRE,XG,R2,32.4483107868058
P08,PRE,XG,R2,49.3405296366698
P09,PRE,XG,R2,24.7892356572004
P10,PRE,XG,R2,52.6538920636582
P11,PRE,XG,R2,43.5210805623062
P12,PRE,XG,R2,59.3802041666352
P13,PRE,XG,R2,49.7866544289603
P14,PRE,XG,R2,43.5842137924629
P15,PRE,XG,R2,45.1575216487111
P16,PRE,XG,R2,52.9395750126989
P17,PRE,XG,R2,31.8127832716003
P18,PRE,XG,R2,32.2231957563251
P19,PRE,XG,R2,62.1780406534754
P20,PRE,XG,R2,35.5672998124364
P21,PRE,XG,R2,53.7093972891561
P22,PRE,XG,R2,57.1668034618068
P23,PRE,XG,R2,44.1313226497663
P24,PRE,XG,R2,43.1095573216674
P25,PRE,XG,R2,57.889275878878
P26,PRE,XG,R2,38.2114763868683
P27,PRE,XG,R2,27.8523607580999
P28,PRE,XG,R2,41.0352671529831
P01,P3M,XG,R2,27.8118840725849
P02,P3M,XG,R2,49.4900795398675
P03,P3M,XG,R2,42.1465095265091
P04,P3M,XG,R2,30.6996322468693
P05,P3M,XG,R2,38.7705704671734
P06,P3M,XG,R2,73.5137411140011
P07,P3M,XG,R2,36.0688624554175
P08,P3M,XG,R2,37.7995339183295
P09,P3M,XG,R2,25.2292077295977
P10,P3M,XG,R2,50.4241350797181
P11,P3M,XG,R2,40.9950253324356
P12,P3M,XG,R2,66.3703502829417
P13,P3M,XG,R2,47.8712695571272
P14,P3M,XG,R2,39.4690890506377
P15,P3M,XG,R2,40.2830092039067
P16,P3M,XG,R2,48.6445152340325
P17,P3M,XG,R2,30.4049779465368
P18,P3M,XG,R2,25.464130813164
P19,P3M,XG,R2,51.5933039043655
P20,P3M,XG,R2,31.7656921887447
P21,P3M,XG,R2,56.4773820759445
P22,P3M,XG,R2,51.414982559166
P23,P3M,XG,R2,42.9829796443361
P24,P3M,XG,R2,43.3959850891085
P25,P3M,XG,R2,50.2988783809462
P26,P3M,XG,R2,29.8123822339071
P27,P3M,XG,R2,30.7210845000839
P28,P3M,XG,R2,44.9048999555475
P01,PRE,XG,R3,38.7026362897891
P02,PRE,XG,R3,52.0998009923402
P03,PRE,XG,R3,35.6073215406236
P04,PRE,XG,R3,32.5136090438461
P05,PRE,XG,R3,48.4854187493842
P06,PRE,XG,R3,60.0599691944192
P07,PRE,XG,R3,32.8380347607354
P08,PRE,XG,R3,34.791509471699
P09,PRE,XG,R3,22.5467872537247
P10,PRE,XG,R3,52.1089414826699
P11,PRE,XG,R3,40.2335907151414
P12,PRE,XG,R3,57.0146022786444
P13,PRE,XG,R3,52.3381840499626
P14,PRE,XG,R3,41.9535736781027
P15,PRE,XG,R3,44.9359058935074
P16,PRE,XG,R3,53.4785413455668
P17,PRE,XG,R3,34.2616569366126
P18,PRE,XG,R3,33.7013656502862
P19,PRE,XG,R3,47.8587852799085
P20,PRE,XG,R3,31.3229339326078
P21,PRE,XG,R3,51.0400036380471
P22,PRE,XG,R3,57.7305209268692
P23,PRE,XG,R3,41.195386632096
P24,PRE,XG,R3,45.6695544818099
P25,PRE,XG,R3,56.4500121744783
P26,PRE,XG,R3,39.7454289032585
P27,PRE,XG,R3,30.4918879978049
P28,PRE,XG,R3,41.9133465852975
P01,P3M,XG,R3,27.9345662722819
P02,P3M,XG,R3,48.3772730656881
P03,P3M,XG,R3,35.8467578486144
P04,P3M,XG,R3,33.6107355452258
P05,P3M,XG,R3,40.4002209718197
P06,P3M,XG,R3,64.7079265665501
P07,P3M,XG,R3,37.7451683076496
P08,P3M,XG,R3,35.0557326638088
P09,P3M,XG,R3,26.94982466631
P10,P3M,XG,R3,49.7750100128065
P11,P3M,XG,R3,41.1531609803826
P12,P3M,XG,R3,50.0060422706491
P13,P3M,XG,R3,44.157781346137
P14,P3M,XG,R3,40.6804286430525
P15,P3M,XG,R3,37.8575422650106
P16,P3M,XG,R3,46.9420526444433
P17,P3M,XG,R3,31.6259354687178
P18,P3M,XG,R3,24.3926423211818
P19,P3M,XG,R3,50.6434369236244
P20,P3M,XG,R3,32.8162436215902
P21,P3M,XG,R3,53.0449513729747
P22,P3M,XG,R3,54.7590903166069
P23,P3M,XG,R3,41.9129176765697
P24,P3M,XG,R3,33.8630068586814
P25,P3M,XG,R3,49.8198443602617
P26,P3M,XG,R3,33.4455284962187
P27,P3M,XG,R3,28.846353079055
P28,P3M,XG,R3,42.2918328440618
P01,PRE,PB,R1,35.0036591346199
P02,PRE,PB,R1,53.3025689849512
P03,PRE,PB,R1,37.0010799801635
P04,PRE,PB,R1,31.0921594625445
P05,PRE,PB,R1,44.0769652449662
P06,PRE,PB,R1,67.0668034472548
P07,PRE,PB,R1,32.4139843893352
P08,PRE,PB,R1,31.3380458588508
P09,PRE,PB,R1,22.1937105088679
P10,PRE,PB,R1,49.1480412227181
P11,PRE,PB,R1,41.3953138018323
P12,PRE,PB,R1,56.1842040185882
P13,PRE,PB,R1,50.6327728213266
P14,PRE,PB,R1,43.6312422739713
P15,PRE,PB,R1,39.7998337267965
P16,PRE,PB,R1,48.3995566241173
P17,PRE,PB,R1,35.5246425383966
P18,PRE,PB,R1,31.9498343446698
P19,PRE,PB,R1,55.6840271914888
P20,PRE,PB,R1,28.0404003556813
P21,PRE,PB,R1,54.6190500129372
P22,PRE,PB,R1,58.2535283073989
P23,PRE,PB,R1,40.7004832475431
P24,PRE,PB,R1,41.5082850922995
P25,PRE,PB,R1,50.8484292915472
P26,PRE,PB,R1,38.2439681606016
P27,PRE,PB,R1,28.6494830569511
P28,PRE,PB,R1,42.7772432014073
P01,P3M,PB,R1,26.4030184765714
P02,P3M,PB,R1,49.199181668025
P03,P3M,PB,R1,34.4532389800811
P04,P3M,PB,R1,35.206713858943
P05,P3M,PB,R1,36.5659981014596
P06,P3M,PB,R1,69.1248295855046
P07,P3M,PB,R1,53.3742573952572
P08,P3M,PB,R1,39.4046087464808
P09,P3M,PB,R1,24.0903734408978
P10,P3M,PB,R1,48.0156261437762
P11,P3M,PB,R1,39.3107533989801
P12,P3M,PB,R1,66.2396468747601
P13,P3M,PB,R1,46.1244757084733
P14,P3M,PB,R1,41.3467956528758
P15,P3M,PB,R1,33.3492907663271
P16,P3M,PB,R1,49.4144945055733
P17,P3M,PB,R1,30.5139027198714
P18,P3M,PB,R1,25.2142295798777
P19,P3M,PB,R1,40.7786241575744
P20,P3M,PB,R1,33.3152445907576
P21,P3M,PB,R1,57.4810770448507
P22,P3M,PB,R1,58.4766296333317
P23,P3M,PB,R1,42.3283334055023
P24,P3M,PB,R1,39.4560333024613
P25,P3M,PB,R1,49.5476882858468
P26,P3M,PB,R1,33.3306534540433
P27,P3M,PB,R1,26.1202959919702
P28,P3M,PB,R1,44.5006726559911
P01,PRE,PB,R2,32.8853956041009
P02,PRE,PB,R2,52.4165588002841
P03,PRE,PB,R2,47.5660214018478
P04,PRE,PB,R2,32.5503212618924
P05,PRE,PB,R2,44.5196231100969
P06,PRE,PB,R2,71.0739792236164
P07,PRE,PB,R2,35.9211187844864
P08,PRE,PB,R2,49.6487134102753
P09,PRE,PB,R2,20.2525165559036
P10,PRE,PB,R2,50.395368286799
P11,PRE,PB,R2,42.1188947810078
P12,PRE,PB,R2,53.1420017653138
P13,PRE,PB,R2,50.1696813896532
P14,PRE,PB,R2,44.453582764156
P15,PRE,PB,R2,38.2293338250345
P16,PRE,PB,R2,48.6740647486476
P17,PRE,PB,R2,32.9280759068014
P18,PRE,PB,R2,34.7680753654733
P19,PRE,PB,R2,69.4329511596355
P20,PRE,PB,R2,33.9125272562282
P21,PRE,PB,R2,54.0297841721463
P22,PRE,PB,R2,58.5669652663402
P23,PRE,PB,R2,39.1316738816586
P24,PRE,PB,R2,42.8130190834265
P25,PRE,PB,R2,52.3198907767582
P26,PRE,PB,R2,38.9707741049681
P27,PRE,PB,R2,29.8748555627182
P28,PRE,PB,R2,42.6665789663063
P01,P3M,PB,R2,29.1914230442134
P02,P3M,PB,R2,51.1815587276817
P03,P3M,PB,R2,24.8300067917794
P04,P3M,PB,R2,35.1269295679153
P05,P3M,PB,R2,35.9611317545479
P06,P3M,PB,R2,73.3068415399878
P07,P3M,PB,R2,43.331607519403
P08,P3M,PB,R2,40.808678405928
P09,P3M,PB,R2,29.070814687817
P10,P3M,PB,R2,48.3734642146896
P11,P3M,PB,R2,41.8252795812466
P12,P3M,PB,R2,63.4909462330852
P13,P3M,PB,R2,45.2074462207576
P14,P3M,PB,R2,38.781692240806
P15,P3M,PB,R2,36.6712337904199
P16,P3M,PB,R2,51.0126875013063
P17,P3M,PB,R2,30.623959685562
P18,P3M,PB,R2,24.345112657641
P19,P3M,PB,R2,56.5604921606375
P20,P3M,PB,R2,38.9672137904292
P21,P3M,PB,R2,58.8888433354443
P22,P3M,PB,R2,52.2810074029317
P23,P3M,PB,R2,39.5933203699029
P24,P3M,PB,R2,34.5219950635706
P25,P3M,PB,R2,48.7211540384724
P26,P3M,PB,R2,32.1845574962303
P27,P3M,PB,R2,30.2569997070396
P28,P3M,PB,R2,45.2302550926998
P01,PRE,PB,R3,36.4919568581855
P02,PRE,PB,R3,54.4022688075995
P03,PRE,PB,R3,46.5515902780048
P04,PRE,PB,R3,33.8210572269258
P05,PRE,PB,R3,44.7154286413726
P06,PRE,PB,R3,52.4848801131953
P07,PRE,PB,R3,33.6619035210237
P08,PRE,PB,R3,33.9427126646798
P09,PRE,PB,R3,22.3181115360271
P10,PRE,PB,R3,50.6952681190728
P11,PRE,PB,R3,42.4066957973962
P12,PRE,PB,R3,55.6701693553066
P13,PRE,PB,R3,49.2978852795749
P14,PRE,PB,R3,43.1690858370398
P15,PRE,PB,R3,46.5187625260383
P16,PRE,PB,R3,50.181669635915
P17,PRE,PB,R3,33.344025968649
P18,PRE,PB,R3,35.8440493360978
P19,PRE,PB,R3,56.8029612472596
P20,PRE,PB,R3,32.1532146307843
P21,PRE,PB,R3,54.1614200168639
P22,PRE,PB,R3,58.870579553748
P23,PRE,PB,R3,40.015948900747
P24,PRE,PB,R3,38.1808660667514
P25,PRE,PB,R3,52.8309198949348
P26,PRE,PB,R3,36.276430749603
P27,PRE,PB,R3,29.7586144327081
P28,PRE,PB,R3,43.1554546771501
P01,P3M,PB,R3,30.9347337684509
P02,P3M,PB,R3,48.8302332259035
P03,P3M,PB,R3,30.2759731779182
P04,P3M,PB,R3,35.6595084427369
P05,P3M,PB,R3,38.3827917003849
P06,P3M,PB,R3,70.4458547960385
P07,P3M,PB,R3,38.9100328890439
P08,P3M,PB,R3,34.7718791177235
P09,P3M,PB,R3,29.5405433688526
P10,P3M,PB,R3,49.2447298055842
P11,P3M,PB,R3,40.937030197875
P12,P3M,PB,R3,64.2374335002954
P13,P3M,PB,R3,45.3369693647672
P14,P3M,PB,R3,39.9115812518626
P15,P3M,PB,R3,36.3283387721628
P16,P3M,PB,R3,50.4138102759632
P17,P3M,PB,R3,29.9807406305547
P18,P3M,PB,R3,27.4682225186102
P19,P3M,PB,R3,63.1406861156322
P20,P3M,PB,R3,36.0228935141775
P21,P3M,PB,R3,50.1154125716055
P22,P3M,PB,R3,54.9226585126905
P23,P3M,PB,R3,43.0516183228149
P24,P3M,PB,R3,31.851206774982
P25,P3M,PB,R3,49.227385823185
P26,P3M,PB,R3,30.0558593029859
P27,P3M,PB,R3,29.181245323851
P28,P3M,PB,R3,45.1050314529666
