Group,Participant,Session,Operator,Measure,Value,Unit
CTR,P01,INI,FM,MEAN,0.320184791179662,ratio
CTR,P02,INI,FM,MEAN,0.354216547288429,ratio
CTR,P03,INI,FM,MEAN,0.332781987485727,ratio
CTR,P05,INI,FM,MEAN,0.307754978245805,ratio
CTR,P06,INI,FM,MEAN,0.3669798079954,ratio
CTR,P07,INI,FM,MEAN,0.315435415170353,ratio
CTR,P08,INI,FM,MEAN,0.2251093060132,ratio
CTR,P13,INI,FM,MEAN,0.263046015009133,ratio
CTR,P16,INI,FM,MEAN,0.318942475302522,ratio
CTR,P21,INI,FM,MEAN,0.277468220440932,ratio
CTR,P22,INI,FM,MEAN,0.212742702464515,ratio
CTR,P23,INI,FM,MEAN,0.331551016900214,ratio
CTR,P25,INI,FM,MEAN,0.178908631050444,ratio
CTR,P35,INI,FM,MEAN,0.252748737924468,ratio
CTR,P38,INI,FM,MEAN,0.270062888392485,ratio
CTR,P39,INI,FM,MEAN,0.30567459837706,ratio
CTR,P40,INI,FM,MEAN,0.319091959484439,ratio
CTR,P44,INI,FM,MEAN,0.242366034218673,ratio
CTR,P46,INI,FM,MEAN,0.179282614232232,ratio
CTR,P48,INI,FM,MEAN,0.361429699234646,ratio
CTR,P49,INI,FM,MEAN,0.226039251147013,ratio
CTR,P52,INI,FM,MEAN,0.309669258924649,ratio
CTR,P55,INI,FM,MEAN,0.204065877453153,ratio
CTR,P56,INI,FM,MEAN,0.272689055704777,ratio
CTR,P57,INI,FM,MEAN,0.114776281943084,ratio
CTR,P60,INI,FM,MEAN,0.308111490240307,ratio
CTR,P64,INI,FM,MEAN,0.262873923054988,ratio
CTR,P66,INI,FM,MEAN,0.221928232142165,ratio
CTR,P67,INI,FM,MEAN,0.24967487110181,ratio
CTR,P68,INI,FM,MEAN,0.267491420555395,ratio
PAT,P09,INI,FM,MEAN,0.240216876580079,ratio
PAT,P10,INI,FM,MEAN,0.396558152723801,ratio
PAT,P11,INI,FM,MEAN,0.243379927314239,ratio
PAT,P12,INI,FM,MEAN,0.149816926006579,ratio
PAT,P14,INI,FM,MEAN,0.304362481028366,ratio
PAT,P17,INI,FM,MEAN,0.321434896806315,ratio
PAT,P24,INI,FM,MEAN,0.277220735256676,ratio
PAT,P26,INI,FM,MEAN,0.28306395611808,ratio
PAT,P27,INI,FM,MEAN,0.267146800227366,ratio
PAT,P28,INI,FM,MEAN,0.132571355807856,ratio
PAT,P29,INI,FM,MEAN,0.263696893318123,ratio
PAT,P30,INI,FM,MEAN,0.352984623607088,ratio
PAT,P32,INI,FM,MEAN,0.343558197221334,ratio
PAT,P33,INI,FM,MEAN,0.306047743676532,ratio
PAT,P34,INI,FM,MEAN,0.249757193779037,ratio
PAT,P36,INI,FM,MEAN,0.199179160527342,ratio
PAT,P41,INI,FM,MEAN,0.224000985792686,ratio
PAT,P42,INI,FM,MEAN,0.394540465635011,ratio
PAT,P43,INI,FM,MEAN,0.432225055473362,ratio
PAT,P45,INI,FM,MEAN,0.167500601284745,ratio
PAT,P47,INI,FM,MEAN,0.248898026711363,ratio
PAT,P50,INI,FM,MEAN,0.1348862199819,ratio
PAT,P51,INI,FM,MEAN,0.345368881323724,ratio
PAT,P53,INI,FM,MEAN,0.130921620416844,ratio
PAT,P54,INI,FM,MEAN,0.308972617053977,ratio
PAT,P58,INI,FM,MEAN,0.222979563942261,ratio
PAT,P61,INI,FM,MEAN,0.17715935414365,ratio
PAT,P62,INI,FM,MEAN,0.188734327477824,ratio
PAT,P63,INI,FM,MEAN,0.368195046456363,ratio
PAT,P65,INI,FM,MEAN,0.324272035751171,ratio
