Group,Participant,Session,Operator,Measure,Value,Unit
CTR,P01,INI,FM,MEAN,22.9972245669995,%
CTR,P02,INI,FM,MEAN,32.82788120225,%
CTR,P03,INI,FM,MEAN,26.0114668392693,%
CTR,P05,INI,FM,MEAN,33.8939601294419,%
CTR,P06,INI,FM,MEAN,25.1043365666888,%
CTR,P07,INI,FM,MEAN,26.559282967102,%
CTR,P08,INI,FM,MEAN,22.0102434203945,%
CTR,P13,INI,FM,MEAN,28.8922297834058,%
CTR,P16,INI,FM,MEAN,61.4762921207223,%
CTR,P21,INI,FM,MEAN,71.3739017693802,%
CTR,P22,INI,FM,MEAN,38.4607278427375,%
CTR,P23,INI,FM,MEAN,46.5628794575265,%
CTR,P25,INI,FM,MEAN,54.5135012187867,%
CTR,P35,INI,FM,MEAN,40.288544566094,%
CTR,P38,INI,FM,MEAN,27.453215799868,%
CTR,P39,INI,FM,MEAN,32.9759372745861,%
CTR,P40,INI,FM,MEAN,31.4942120269421,%
CTR,P44,INI,FM,MEAN,32.8599544222783,%
CTR,P46,INI,FM,MEAN,42.9615948519391,%
CTR,P48,INI,FM,MEAN,37.2519618817251,%
CTR,P49,INI,FM,MEAN,39.6097189378433,%
CTR,P52,INI,FM,MEAN,56.752112836183,%
CTR,P55,INI,FM,MEAN,45.3579336189469,%
CTR,P56,INI,FM,MEAN,55.4782897904788,%
CTR,P57,INI,FM,MEAN,60.6436375499153,%
CTR,P60,INI,FM,MEAN,69.143089093726,%
CTR,P64,INI,FM,MEAN,44.1384987605335,%
CTR,P66,INI,FM,MEAN,45.0974639887138,%
CTR,P67,INI,FM,MEAN,47.0172905543308,%
CTR,P68,INI,FM,MEAN,35.4622132857325,%
PAT,P09,INI,FM,MEAN,33.4399394222678,%
PAT,P10,INI,FM,MEAN,20.0315208450598,%
PAT,P11,INI,FM,MEAN,52.1167802451495,%
PAT,P12,INI,FM,MEAN,29.1453235793432,%
PAT,P14,INI,FM,MEAN,20.0942325891243,%
PAT,P17,INI,FM,MEAN,62.9015678843372,%
PAT,P24,INI,FM,MEAN,34.7923432429558,%
PAT,P26,INI,FM,MEAN,34.1200907637485,%
PAT,P27,INI,FM,MEAN,24.3127571174521,%
PAT,P28,INI,FM,MEAN,36.7111573270085,%
PAT,P29,INI,FM,MEAN,40.6771155548827,%
PAT,P30,INI,FM,MEAN,24.8725491123795,%
PAT,P32,INI,FM,MEAN,32.4971149594601,%
PAT,P33,INI,FM,MEAN,30.4830030584538,%
PAT,P34,INI,FM,MEAN,27.3434472470583,%
PAT,P36,INI,FM,MEAN,42.4312556767937,%
PAT,P41,INI,FM,MEAN,24.1930980306909,%
PAT,P42,INI,FM,MEAN,22.2775140419378,%
PAT,P43,INI,FM,MEAN,40.8693146875114,%
PAT,P45,INI,FM,MEAN,39.5803175555621,%
PAT,P47,INI,FM,MEAN,29.6647923759446,%
PAT,P50,INI,FM,MEAN,34.4558542276261,%
PAT,P51,INI,FM,MEAN,32.4767117339555,%
PAT,P53,INI,FM,MEAN,31.3767821062174,%
PAT,P54,INI,FM,MEAN,35.5610170962916,%
PAT,P58,INI,FM,MEAN,47.6531411236541,%
PAT,P61,INI,FM,MEAN,59.1881382930557,%
PAT,P62,INI,FM,MEAN,55.0767646031187,%
PAT,P63,INI,FM,MEAN,68.5282041402829,%
PAT,P65,INI,FM,MEAN,48.3560563657394,%
