PAT,VIS,OPE,MES,VAL
P01,PRE,XG,R1,42.0812841503561
P02,PRE,XG,R1,43.6854070430014
P03,PRE,XG,R1,50.0697932641276
P04,PRE,XG,R1,42.078042000742
P05,PRE,XG,R1,45.2024008955589
P06,PRE,XG,R1,49.4700572447284
P07,PRE,XG,R1,40.6545156340261
P08,PRE,XG,R1,41.965552214929
P09,PRE,XG,R1,42.7613293235925
P10,PRE,XG,R1,49.2520777748952
P11,PRE,XG,R1,39.9398411514672
P12,PRE,XG,R1,45.9393695922938
P13,PRE,XG,R1,46.4675451732195
P14,PRE,XG,R1,49.4858277895481
P15,PRE,XG,R1,39.6308145567989
P16,PRE,XG,R1,41.0836429105069
P17,PRE,XG,R1,52.6674872803124
P18,PRE,XG,R1,47.3917343685766
P19,PRE,XG,R1,38.8928768631556
P20,PRE,XG,R1,48.2278564366086
P21,PRE,XG,R1,46.4070166760895
P22,PRE,XG,R1,41.6106158701077
P23,PRE,XG,R1,41.7023137030721
P24,PRE,XG,R1,41.631603706197
P25,PRE,XG,R1,41.5465314050904
P26,PRE,XG,R1,41.7494464001657
P27,PRE,XG,R1,54.8783784255619
P28,PRE,XG,R1,44.8313626964452
P01,P3M,XG,R1,41.8967463616959
P02,P3M,XG,R1,43.7679577619427
P03,P3M,XG,R1,50.294690039863
P04,P3M,XG,R1,41.7523556617903
P05,P3M,XG,R1,44.2375619077021
P06,P3M,XG,R1,49.3493561378348
P07,P3M,XG,R1,40.5300523164246
P08,P3M,XG,R1,41.3640661907621
P09,P3M,XG,R1,43.2074447271021
P10,P3M,XG,R1,48.9006185513378
P11,P3M,XG,R1,40.9091023187993
P12,P3M,XG,R1,47.6280995735085
P13,P3M,XG,R1,45.8913201246721
P14,P3M,XG,R1,48.319603860418
P15,P3M,XG,R1,41.682950721217
P16,P3M,XG,R1,41.4028898772458
P17,P3M,XG,R1,53.4681701746367
P18,P3M,XG,R1,49.0809072350995
P19,P3M,XG,R1,38.4359988663048
P20,P3M,XG,R1,48.0520290430353
P21,P3M,XG,R1,45.0647605144632
P22,P3M,XG,R1,39.9046773466387
P23,P3M,XG,R1,41.8071430307754
P24,P3M,XG,R1,42.2816283152023
P25,P3M,XG,R1,41.8019189423919
P26,P3M,XG,R1,41.9259986929215
P27,P3M,XG,R1,54.1697130835142
P28,P3M,XG,R1,45.9039649599138
P01,PRE,XG,R2,44.2947783683582
P02,PRE,XG,R2,43.3200507735334
P03,PRE,XG,R2,50.5408029348848
P04,PRE,XG,R2,42.259106264677
P05,PRE,XG,R2,44.7000461193343
P06,PRE,XG,R2,49.2792456959322
P07,PRE,XG,R2,40.2972196925828
P08,PRE,XG,R2,41.1235751489884
P09,PRE,XG,R2,42.1741845499685
P10,PRE,XG,R2,48.4001408058893
P11,PRE,XG,R2,39.5236317185172
P12,PRE,XG,R2,46.6401262460627
P13,PRE,XG,R2,46.0932282370442
P14,PRE,XG,R2,47.9878180697513
P15,PRE,XG,R2,41.6227244099141
P16,PRE,XG,R2,41.7999314004498
P17,PRE,XG,R2,52.302901569617
P18,PRE,XG,R2,49.0887546260244
P19,PRE,XG,R2,39.3906159646021
P20,PRE,XG,R2,48.3220616061481
P21,PRE,XG,R2,46.0677242462647
P22,PRE,XG,R2,41.8847902648262
P23,PRE,XG,R2,42.2389241893167
P24,PRE,XG,R2,41.9989684477076
P25,PRE,XG,R2,41.3905073356096
P26,PRE,XG,R2,42.0166089738039
P27,PRE,XG,R2,55.0853751548335
P28,PRE,XG,R2,45.4569908661771
P01,P3M,XG,R2,42.8661808581756
P02,P3M,XG,R2,43.6155961985719
P03,P3M,XG,R2,52.3982240279164
P04,P3M,XG,R2,41.9377132712903
P05,P3M,XG,R2,44.0013287329674
P06,P3M,XG,R2,49.767238639894
P07,P3M,XG,R2,41.0994979682836
P08,P3M,XG,R2,41.2272171194522
P09,P3M,XG,R2,43.1014943322822
P10,P3M,XG,R2,49.8194390236885
P11,P3M,XG,R2,39.2719326836022
P12,P3M,XG,R2,47.1093877156299
P13,P3M,XG,R2,45.6450522608468
P14,P3M,XG,R2,49.506877959232
P15,P3M,XG,R2,42.2543278743295
P16,P3M,XG,R2,40.8682956699471
P17,P3M,XG,R2,52.8002185406482
P18,P3M,XG,R2,48.8367440957035
P19,P3M,XG,R2,39.886308107483
P20,P3M,XG,R2,48.006209389283
P21,P3M,XG,R2,46.2017097561853
P22,P3M,XG,R2,42.5298211630275
P23,P3M,XG,R2,41.3722031106767
P24,P3M,XG,R2,42.0020707868599
P25,P3M,XG,R2,41.8111177535258
P26,P3M,XG,R2,41.6896855647748
P27,P3M,XG,R2,53.1622301714159
P28,P3M,XG,R2,45.3280658533942
P01,PRE,XG,R3,42.351441018505
P02,PRE,XG,R3,43.0100586635687
P03,PRE,XG,R3,49.7912464410041
P04,PRE,XG,R3,42.240465769016
P05,PRE,XG,R3,43.9934903246802
P06,PRE,XG,R3,49.8364536281703
P07,PRE,XG,R3,40.6689105402371
P08,PRE,XG,R3,41.0345332044235
P09,PRE,XG,R3,43.2308249171035
P10,PRE,XG,R3,48.8805650361947
P11,PRE,XG,R3,39.0384866383257
P12,PRE,XG,R3,46.3602391304004
P13,PRE,XG,R3,45.886160696587
P14,PRE,XG,R3,48.5355421450111
P15,PRE,XG,R3,40.8456665133436
P16,PRE,XG,R3,40.8340330791029
P17,PRE,XG,R3,52.7153639399863
P18,PRE,XG,R3,48.5487406149187
P19,PRE,XG,R3,38.6850106612789
P20,PRE,XG,R3,47.9014682146236
P21,PRE,XG,R3,45.571105359936
P22,PRE,XG,R3,41.4308000367041
P23,PRE,XG,R3,41.8273311395399
P24,PRE,XG,R3,41.4585055285034
P25,PRE,XG,R3,41.7399588008788
P26,PRE,XG,R3,42.3416954876464
P27,PRE,XG,R3,54.4588409299849
P28,PRE,XG,R3,44.4018342829566
P01,P3M,XG,R3,42.6234070721077
P02,P3M,XG,R3,43.7924797864566
P03,P3M,XG,R3,51.6111305511102
P04,P3M,XG,R3,43.0843284069344
P05,P3M,XG,R3,43.9022827805479
P06,P3M,XG,R3,48.4935731112135
P07,P3M,XG,R3,40.952311704708
P08,P3M,XG,R3,41.7684071169295
P09,P3M,XG,R3,42.9451943694246
P10,P3M,XG,R3,48.9284076871815
P11,P3M,XG,R3,39.5028420466485
P12,P3M,XG,R3,46.62957083724
P13,P3M,XG,R3,45.711206997207
P14,P3M,XG,R3,48.861633081357
P15,P3M,XG,R3,43.0154809170851
P16,P3M,XG,R3,41.1036659496051
P17,P3M,XG,R3,52.7648049027676
P18,P3M,XG,R3,48.5545570736053
P19,P3M,XG,R3,38.8386698201957
P20,P3M,XG,R3,47.2372894994187
P21,P3M,XG,R3,45.4635757933794
P22,P3M,XG,R3,42.007284706338
P23,P3M,XG,R3,41.5358963121854
P24,P3M,XG,R3,42.1407231724956
P25,P3M,XG,R3,41.8866300224473
P26,P3M,XG,R3,40.7099284259799
P27,P3M,XG,R3,53.688193621325
P28,P3M,XG,R3,45.153644593226
P01,PRE,PB,R1,40.6393231799991
P02,PRE,PB,R1,44.372952987895
P03,PRE,PB,R1,49.6893322574905
P04,PRE,PB,R1,43.9958389246374
P05,PRE,PB,R1,43.125942799166
P06,PRE,PB,R1,49.794042318449
P07,PRE,PB,R1,41.5359571543701
P08,PRE,PB,R1,38.7987931047345
P09,PRE,PB,R1,41.1389060286667
P10,PRE,PB,R1,50.4866631540756
P11,PRE,PB,R1,39.2775033012555
P12,PRE,PB,R1,48.0221378173302
P13,PRE,PB,R1,46.8145170238751
P14,PRE,PB,R1,51.5363558602435
P15,PRE,PB,R1,41.5736388568453
P16,PRE,PB,R1,42.4154807394279
P17,PRE,PB,R1,52.2363259451333
P18,PRE,PB,R1,47.6064552277807
P19,PRE,PB,R1,38.7552028312365
P20,PRE,PB,R1,46.7624757092179
P21,PRE,PB,R1,46.0815966734017
P22,PRE,PB,R1,44.4748534520146
P23,PRE,PB,R1,41.8137037645955
P24,PRE,PB,R1,40.8517097584396
P25,PRE,PB,R1,41.0676586165576
P26,PRE,PB,R1,41.2646761086588
P27,PRE,PB,R1,53.4868094144807
P28,PRE,PB,R1,45.6926890588112
P01,P3M,PB,R1,41.0828635869787
P02,P3M,PB,R1,43.4197616927327
P03,P3M,PB,R1,49.8342492909856
P04,P3M,PB,R1,43.0832712676466
P05,P3M,PB,R1,44.4721005457851
P06,P3M,PB,R1,50.8238823784467
P07,P3M,PB,R1,39.9056292220048
P08,P3M,PB,R1,41.5846246357393
P09,P3M,PB,R1,42.6289638254613
P10,P3M,PB,R1,50.3305492219167
P11,P3M,PB,R1,39.9956889242919
P12,P3M,PB,R1,47.1585244236711
P13,P3M,PB,R1,47.0328239021416
P14,P3M,PB,R1,48.9565986305443
P15,P3M,PB,R1,41.4183371846609
P16,P3M,PB,R1,42.8097946199374
P17,P3M,PB,R1,50.8682568412069
P18,P3M,PB,R1,50.573338956384
P19,P3M,PB,R1,40.2909304525998
P20,P3M,PB,R1,45.7034036999334
P21,P3M,PB,R1,45.6064365672017
P22,P3M,PB,R1,43.1657458671817
P23,P3M,PB,R1,42.6144979424063
P24,P3M,PB,R1,41.9394989531674
P25,P3M,PB,R1,41.8492907901807
P26,P3M,PB,R1,41.0947972883819
P27,P3M,PB,R1,53.2569461772805
P28,P3M,PB,R1,46.0811292191168
P01,PRE,PB,R2,42.774055480308
P02,PRE,PB,R2,43.3586323965333
P03,PRE,PB,R2,48.6104068495166
P04,PRE,PB,R2,42.7823823797407
P05,PRE,PB,R2,42.8827675483033
P06,PRE,PB,R2,51.2030730854795
P07,PRE,PB,R2,40.6344398035997
P08,PRE,PB,R2,41.9183418195172
P09,PRE,PB,R2,44.8341392763089
P10,PRE,PB,R2,50.0860442811087
P11,PRE,PB,R2,40.6792971818516
P12,PRE,PB,R2,47.6272043932128
P13,PRE,PB,R2,46.6864573415098
P14,PRE,PB,R2,49.3736159235775
P15,PRE,PB,R2,42.096101539392
P16,PRE,PB,R2,42.0325832969706
P17,PRE,PB,R2,52.3794250641335
P18,PRE,PB,R2,48.4823916144465
P19,PRE,PB,R2,39.6607767011381
P20,PRE,PB,R2,47.9953903953902
P21,PRE,PB,R2,46.1721846223897
P22,PRE,PB,R2,42.9972326931516
P23,PRE,PB,R2,41.9547265294576
P24,PRE,PB,R2,42.1351647758559
P25,PRE,PB,R2,40.9505834071964
P26,PRE,PB,R2,41.797008735781
P27,PRE,PB,R2,54.1490458076007
P28,PRE,PB,R2,45.8507767251429
P01,P3M,PB,R2,43.7488901342119
P02,P3M,PB,R2,44.5775337172915
P03,P3M,PB,R2,49.9955259787906
P04,P3M,PB,R2,43.3378655333212
P05,P3M,PB,R2,44.7132271855976
P06,P3M,PB,R2,51.9012914120508
P07,P3M,PB,R2,41.8456111557611
P08,P3M,PB,R2,42.0905692813495
P09,P3M,PB,R2,44.8465527668468
P10,P3M,PB,R2,50.8648873475986
P11,P3M,PB,R2,39.070684760633
P12,P3M,PB,R2,48.4185596250656
P13,P3M,PB,R2,46.7839690056835
P14,P3M,PB,R2,49.3419457736591
P15,P3M,PB,R2,44.4017909453122
P16,P3M,PB,R2,41.6151444758377
P17,P3M,PB,R2,51.7140609884678
P18,P3M,PB,R2,50.0804947846176
P19,P3M,PB,R2,40.9116955313216
P20,P3M,PB,R2,45.5988086305374
P21,P3M,PB,R2,45.0866916827387
P22,P3M,PB,R2,43.9595965811565
P23,P3M,PB,R2,41.4198528854866
P24,P3M,PB,R2,42.6745153922192
P25,P3M,PB,R2,42.0773156866924
P26,P3M,PB,R2,41.5293532953662
P27,P3M,PB,R2,54.468618761424
P28,P3M,PB,R2,46.1191628352306
P01,PRE,PB,R3,42.6968987311828
P02,PRE,PB,R3,44.0492577465396
P03,PRE,PB,R3,49.9378075746915
P04,PRE,PB,R3,42.2565236892731
P05,PRE,PB,R3,43.1076821626356
P06,PRE,PB,R3,50.1780377518378
P07,PRE,PB,R3,41.0198609174095
P08,PRE,PB,R3,41.682409819323
P09,PRE,PB,R3,43.6634364608579
P10,PRE,PB,R3,49.5795041198856
P11,PRE,PB,R3,40.951559150766
P12,PRE,PB,R3,46.9658222746367
P13,PRE,PB,R3,46.3693454135248
P14,PRE,PB,R3,49.698916600786
P15,PRE,PB,R3,41.346781671118
P16,PRE,PB,R3,42.56317954113
P17,PRE,PB,R3,51.1196977143116
P18,PRE,PB,R3,46.91816849212
P19,PRE,PB,R3,40.6214403570739
P20,PRE,PB,R3,47.8964576013923
P21,PRE,PB,R3,44.1533175312688
P22,PRE,PB,R3,42.7618637353222
P23,PRE,PB,R3,41.5161311481561
P24,PRE,PB,R3,41.9938534760408
P25,PRE,PB,R3,41.6961923824619
P26,PRE,PB,R3,42.3051689363211
P27,PRE,PB,R3,53.0666819541863
P28,PRE,PB,R3,44.7684029114874
P01,P3M,PB,R3,42.1871850911193
P02,P3M,PB,R3,45.2870966444339
P03,P3M,PB,R3,51.5227858357917
P04,P3M,PB,R3,43.1509283083675
P05,P3M,PB,R3,44.422314475783
P06,P3M,PB,R3,49.8349474795668
P07,P3M,PB,R3,42.09872251819
P08,P3M,PB,R3,42.5142721740427
P09,P3M,PB,R3,43.5325620660464
P10,P3M,PB,R3,49.8987867358018
P11,P3M,PB,R3,40.8342094137143
P12,P3M,PB,R3,48.4841206460939
P13,P3M,PB,R3,45.9250149376694
P14,P3M,PB,R3,48.9140345407292
P15,P3M,PB,R3,43.6795923201864
P16,P3M,PB,R3,42.2404403543004
P17,P3M,PB,R3,52.4240936566329
P18,P3M,PB,R3,49.9079364429482
P19,P3M,PB,R3,40.6257551856499
P20,P3M,PB,R3,48.2156741320939
P21,P3M,PB,R3,45.9098394264699
P22,P3M,PB,R3,40.4032105674035
P23,P3M,PB,R3,41.8683030541538
P24,P3M,PB,R3,42.402500332632
P25,P3M,PB,R3,41.2810156498104
P26,P3M,PB,R3,42.055945979714
P27,P3M,PB,R3,53.6637823410245
P28,P3M,PB,R3,46.215046921364
