PAT,VIS,OPE,MES,VAL
P01,PRE,XG,R1,46.5093365278318
P02,PRE,XG,R1,48.3313667404593
P03,PRE,XG,R1,54.2263308078343
P04,PRE,XG,R1,43.033441747446
P05,PRE,XG,R1,49.6174974087793
P06,PRE,XG,R1,48.5374644659494
P07,PRE,XG,R1,43.2792813861569
P08,PRE,XG,R1,47.9785512846907
P09,PRE,XG,R1,50.9628011719728
P10,PRE,XG,R1,47.4076461183643
P11,PRE,XG,R1,46.3221066723426
P12,PRE,XG,R1,51.019171991426
P13,PRE,XG,R1,54.6300468130034
P14,PRE,XG,R1,55.8146685566012
P15,PRE,XG,R1,47.9488743204296
P16,PRE,XG,R1,47.6737784149338
P17,PRE,XG,R1,62.4375905865307
P18,PRE,XG,R1,59.6214742566728
P19,PRE,XG,R1,41.15614916405
P20,PRE,XG,R1,54.5365139836488
P21,PRE,XG,R1,52.4719157361884
P22,PRE,XG,R1,46.5849373926491
P23,PRE,XG,R1,44.6395689482158
P24,PRE,XG,R1,50.1111225149018
P25,PRE,XG,R1,54.3027482562429
P26,PRE,XG,R1,45.079662766083
P27,PRE,XG,R1,58.7688373224225
P28,PRE,XG,R1,53.3127478260062
P01,PRE,XG,R2,46.6277359645184
P02,PRE,XG,R2,47.801773893453
P03,PRE,XG,R2,50.8509217596273
P04,PRE,XG,R2,41.0867764923252
P05,PRE,XG,R2,49.1104259641554
P06,PRE,XG,R2,55.1899009277253
P07,PRE,XG,R2,46.570085436684
P08,PRE,XG,R2,48.2235425765797
P09,PRE,XG,R2,52.0175803095853
P10,PRE,XG,R2,46.875377043759
P11,PRE,XG,R2,47.2083769080453
P12,PRE,XG,R2,50.9886456225407
P13,PRE,XG,R2,55.4287763592845
P14,PRE,XG,R2,53.8973541494806
P15,PRE,XG,R2,50.7314278290981
P16,PRE,XG,R2,49.0177600477141
P17,PRE,XG,R2,61.7154824959954
P18,PRE,XG,R2,58.323951779689
P19,PRE,XG,R2,40.8747001460353
P20,PRE,XG,R2,55.4105271107934
P21,PRE,XG,R2,51.1963438376589
P22,PRE,XG,R2,42.3721976667684
P23,PRE,XG,R2,46.2097153217119
P24,PRE,XG,R2,50.1472957164849
P25,PRE,XG,R2,54.4582519471272
P26,PRE,XG,R2,46.0169371270006
P27,PRE,XG,R2,59.6889714624895
P28,PRE,XG,R2,54.0336363291101
P01,PRE,XG,R3,48.5297176979585
P02,PRE,XG,R3,49.1218423229276
P03,PRE,XG,R3,51.9694505419434
P04,PRE,XG,R3,43.5725553322968
P05,PRE,XG,R3,49.779762653995
P06,PRE,XG,R3,52.7188738013116
P07,PRE,XG,R3,47.9708756207592
P08,PRE,XG,R3,47.4411746873645
P09,PRE,XG,R3,51.8997034065187
P10,PRE,XG,R3,45.5941839247975
P11,PRE,XG,R3,47.0983581750227
P12,PRE,XG,R3,50.3769340771212
P13,PRE,XG,R3,54.9471363810509
P14,PRE,XG,R3,55.4444920279215
P15,PRE,XG,R3,55.6695274593823
P16,PRE,XG,R3,49.2106032442641
P17,PRE,XG,R3,62.3660977219615
P18,PRE,XG,R3,59.3432350404545
P19,PRE,XG,R3,42.3304387872848
P20,PRE,XG,R3,55.5423582382518
P21,PRE,XG,R3,50.6351676367653
P22,PRE,XG,R3,44.2906014103419
P23,PRE,XG,R3,47.0168815032767
P24,PRE,XG,R3,49.4851195085556
P25,PRE,XG,R3,54.9492563926
P26,PRE,XG,R3,48.6870434058842
P27,PRE,XG,R3,60.19641988777
P28,PRE,XG,R3,52.74701216842
P01,PRE,PB,R1,47.202587805616
P02,PRE,PB,R1,49.3446742657312
P03,PRE,PB,R1,54.347729419552
P04,PRE,PB,R1,43.6190928311998
P05,PRE,PB,R1,48.2190563646654
P06,PRE,PB,R1,53.8250046619495
P07,PRE,PB,R1,50.9457532735449
P08,PRE,PB,R1,46.8211928616626
P09,PRE,PB,R1,54.5008035507272
P10,PRE,PB,R1,49.6906183391191
P11,PRE,PB,R1,47.1359441877918
P12,PRE,PB,R1,49.3752471407256
P13,PRE,PB,R1,55.1545100685074
P14,PRE,PB,R1,56.3389447582799
P15,PRE,PB,R1,48.5919344449946
P16,PRE,PB,R1,50.7555249945453
P17,PRE,PB,R1,63.3281385877197
P18,PRE,PB,R1,55.8032957155648
P19,PRE,PB,R1,43.5691920720031
P20,PRE,PB,R1,56.1978255267311
P21,PRE,PB,R1,52.4806897092826
P22,PRE,PB,R1,44.7677240938488
P23,PRE,PB,R1,47.9422803634636
P24,PRE,PB,R1,50.2053137977008
P25,PRE,PB,R1,54.4009725064498
P26,PRE,PB,R1,45.1100431025139
P27,PRE,PB,R1,61.072974744149
P28,PRE,PB,R1,53.6267135907614
P01,PRE,PB,R2,46.6690651504312
P02,PRE,PB,R2,49.3264428674598
P03,PRE,PB,R2,55.2207118799261
P04,PRE,PB,R2,43.5625017382714
P05,PRE,PB,R2,49.2819270049634
P06,PRE,PB,R2,52.8396278783596
P07,PRE,PB,R2,47.2161759145854
P08,PRE,PB,R2,48.6151849492271
P09,PRE,PB,R2,54.5512888810257
P10,PRE,PB,R2,51.3877485073349
P11,PRE,PB,R2,47.0305978138231
P12,PRE,PB,R2,52.6142843684777
P13,PRE,PB,R2,54.6974666469111
P14,PRE,PB,R2,55.2988613878678
P15,PRE,PB,R2,49.4550204938552
P16,PRE,PB,R2,50.1306432980898
P17,PRE,PB,R2,63.0223757073918
P18,PRE,PB,R2,59.3071985231992
P19,PRE,PB,R2,41.7464934419475
P20,PRE,PB,R2,54.2863747433332
P21,PRE,PB,R2,51.9638704965415
P22,PRE,PB,R2,45.3938589741653
P23,PRE,PB,R2,47.4610650761317
P24,PRE,PB,R2,49.7468285418653
P25,PRE,PB,R2,54.3636902107782
P26,PRE,PB,R2,44.4860611752051
P27,PRE,PB,R2,59.4190030577926
P28,PRE,PB,R2,53.46022349975
P01,PRE,PB,R3,45.5929183645887
P02,PRE,PB,R3,47.1466388385904
P03,PRE,PB,R3,53.8537424409441
P04,PRE,PB,R3,41.8347249291077
P05,PRE,PB,R3,49.5470039758439
P06,PRE,PB,R3,53.8766485144972
P07,PRE,PB,R3,47.0968375103572
P08,PRE,PB,R3,47.5932370723362
P09,PRE,PB,R3,54.1175531941132
P10,PRE,PB,R3,50.779659759465
P11,PRE,PB,R3,46.7361177633612
P12,PRE,PB,R3,51.6449527236832
P13,PRE,PB,R3,54.7160232761656
P14,PRE,PB,R3,55.4984395989544
P15,PRE,PB,R3,50.5039523512041
P16,PRE,PB,R3,49.5695435773426
P17,PRE,PB,R3,62.0451600056622
P18,PRE,PB,R3,58.1912355235139
P19,PRE,PB,R3,43.6428930933831
P20,PRE,PB,R3,53.5008114905322
P21,PRE,PB,R3,51.5963162408568
P22,PRE,PB,R3,45.4407072590927
P23,PRE,PB,R3,46.1435759807983
P24,PRE,PB,R3,49.2949506319645
P25,PRE,PB,R3,53.911900101657
P26,PRE,PB,R3,46.1613446201923
P27,PRE,PB,R3,59.079124148324
P28,PRE,PB,R3,52.1999928814199
