"","file_list","SEM_intra","SEM_inter","SEM_testretest"
"1","Contra_Cotyle_d.csv","0.8435282022151","1.64434544555671","0.892001505388554"
"2","Contra_HKS.csv","0.397225544188087","0.446631854174713","0.572350811120083"
"3","ContraCervicoDiaphA.csv","2.10531367281408","2.04023563091115","2.33859401660869"
"4","ContraFemHead_d.csv","0.708683478681555","0.825417236768455","0.755567807355603"
"5","ContraFemLength.csv","0.0853181512154574","0.0898244633902687","0.094575505331131"
"6","ContraFemNeckLength.csv","1.15380902965875","1.18193467062267","1.53575867791205"
"7","ContraFemOffset.csv","1.5413940246276","1.55042187377756","2.04075443253327"
"8","ContraK_MecaA.csv","0.830015442449157","0.880993835678426","0.978410990794963"
"9","ContraTorsion_Fem.csv","4.71183810874993","5.13421299281001","5.75163567912554"
"10","PSYM_HJC.csv","1.46913242335308","1.54320039991958","2.13230398916652"
"11","SSC_HJC.csv","2.31116016815974","2.8780205279213","2.5524080476336"
"12","SSC_PSYM.csv","1.98810787155377","2.22281846034075","2.4225594654639"
