"","file_list","ICC_intra","ICC_inter"
"1","AntCup_X.csv","0.864049661201818","0.85112202782186"
"2","Contra_Cotyle_P3M_R.csv","0.840910827974287","0.556074816362628"
"3","Contra_Cotyle_P3M_X.csv","0.997491697688366","0.99735215297563"
"4","Contra_Cotyle_P3M_Y.csv","0.992993034920792","0.98820905921399"
"5","Contra_Cotyle_P3M_Z.csv","0.999708795111855","0.99896270466577"
"6","Contra_Cotyle_PRE_R.csv","0.899874380639223","0.365170520802899"
"7","Contra_Cotyle_PRE_X.csv","0.998137781712668","0.997497164022586"
"8","Contra_Cotyle_PRE_Y.csv","0.996422869543901","0.993065048660628"
"9","Contra_Cotyle_PRE_Z.csv","0.99976614233783","0.99945497689496"
"10","Contra_FH_P3M_R.csv","0.939310192015833","0.913476602480138"
"11","Contra_FH_P3M_X.csv","0.997820498480686","0.997608105773951"
"12","Contra_FH_P3M_Y.csv","0.998702563586982","0.997588436728141"
"13","Contra_FH_P3M_Z.csv","0.999893507896591","0.999857546018641"
"14","Contra_FH_PRE_R.csv","0.942144806771167","0.937416466979501"
"15","Contra_FH_PRE_X.csv","0.998068192911815","0.997553681807119"
"16","Contra_FH_PRE_Y.csv","0.999064632564695","0.998756977780684"
"17","Contra_FH_PRE_Z.csv","0.999916021329323","0.999889408800295"
"18","ContraGT_X.csv","0.979120716490817","0.974061121028507"
"19","ContraGT_Y.csv","0.985524678203914","0.983747405860136"
"20","ContraGT_Z.csv","0.999704979776707","0.999736239767057"
"21","Cup_CoM_R.csv","0.928906052784037","0.851022279854913"
"22","Cup_CoM_X.csv","0.999826789558735","0.999763068472825"
"23","Cup_CoM_Y.csv","0.998441530472033","0.99826055581724"
"24","Cup_CoM_Z.csv","0.999901160309893","0.999894954983067"
"25","Homo_Cotyle_R.csv","0.878604086056999","0.354460490558299"
"26","Homo_Cotyle_X.csv","0.998578222461791","0.998463649765625"
"27","Homo_Cotyle_Y.csv","0.995706170537631","0.989844606928812"
"28","Homo_Cotyle_Z.csv","0.999619644217697","0.999655244030322"
"29","Homo_FH_R.csv","0.908573570431321","0.8720933180558"
"30","Homo_FH_X.csv","0.997520098140052","0.997781156724285"
"31","Homo_FH_Y.csv","0.998435013643053","0.997372968239906"
"32","Homo_FH_Z.csv","0.999728902279127","0.999671434254885"
"33","IncCup_X.csv","0.917341051835276","0.907007888729484"
"34","LASI_X.csv","0.979187000007995","0.958554495339033"
"35","LASI_Y.csv","0.975531043842735","0.940433750760374"
"36","LASI_Z.csv","0.996561346620058","0.994701704924718"
"37","LGT_X.csv","0.996802015415096","0.997602955041698"
"38","LGT_Y.csv","0.993651347836281","0.991785409261484"
"39","LGT_Z.csv","0.999729655848669","0.999654765078258"
"40","RASI_X.csv","0.973045732154237","0.966643108019071"
"41","RASI_Y.csv","0.975329090465167","0.971635647188798"
"42","RASI_Z.csv","0.992156427399358","0.990309288097943"
"43","RGT_X.csv","0.996645545316004","0.995464890426561"
"44","RGT_Y.csv","0.989890267181172","0.989890267181172"
"45","RGT_Z.csv","0.999650917915402","0.999621083068426"
"46","Stem_FH_R.csv","0.954773948685135","0.950450987774244"
"47","Stem_FH_X.csv","0.999951628490861","0.999955701399209"
"48","Stem_FH_Y.csv","0.999565521329622","0.999619794147444"
"49","Stem_FH_Z.csv","0.999969219499215","0.999964196485874"
